EESchema Schematic File Version 4
EELAYER 30 0
EELAYER END
$Descr A4 11693 8268
encoding utf-8
Sheet 1 1
Title ""
Date ""
Rev ""
Comp ""
Comment1 ""
Comment2 ""
Comment3 ""
Comment4 ""
$EndDescr
$Comp
L Driver_FET:IR2153 U1
U 1 1 5D12FB93
P 4750 3100
F 0 "U1" H 4750 2050 50  0000 C CNN
F 1 "IR2153" H 4750 2200 50  0000 C CNN
F 2 "Package_DIP:DIP-8_W7.62mm_LongPads" H 4750 3100 50  0001 C CIN
F 3 "https://www.infineon.com/dgdl/ir2153.pdf?fileId=5546d462533600a4015355c8c5fc16af" H 4750 3100 50  0001 C CNN
	1    4750 3100
	1    0    0    -1  
$EndComp
$Comp
L power:GND #PWR0101
U 1 1 5D13040D
P 4750 3600
F 0 "#PWR0101" H 4750 3350 50  0001 C CNN
F 1 "GND" H 4755 3427 50  0000 C CNN
F 2 "" H 4750 3600 50  0001 C CNN
F 3 "" H 4750 3600 50  0001 C CNN
	1    4750 3600
	1    0    0    -1  
$EndComp
Wire Wire Line
	4950 1400 5200 1400
$Comp
L Device:C C2
U 1 1 5D130A96
P 5200 1650
F 0 "C2" H 5315 1696 50  0000 L CNN
F 1 "100n" H 5315 1605 50  0000 L CNN
F 2 "Capacitor_SMD:C_1206_3216Metric_Pad1.42x1.75mm_HandSolder" H 5238 1500 50  0001 C CNN
F 3 "~" H 5200 1650 50  0001 C CNN
	1    5200 1650
	1    0    0    -1  
$EndComp
Wire Wire Line
	5200 1500 5200 1400
Connection ~ 5200 1400
Wire Wire Line
	5200 1400 5650 1400
$Comp
L power:GND #PWR0102
U 1 1 5D131059
P 5200 1800
F 0 "#PWR0102" H 5200 1550 50  0001 C CNN
F 1 "GND" H 5205 1627 50  0000 C CNN
F 2 "" H 5200 1800 50  0001 C CNN
F 3 "" H 5200 1800 50  0001 C CNN
	1    5200 1800
	1    0    0    -1  
$EndComp
$Comp
L Device:CP C4
U 1 1 5D1313C8
P 5650 1650
F 0 "C4" H 5768 1696 50  0000 L CNN
F 1 "100u" H 5768 1605 50  0000 L CNN
F 2 "Capacitor_THT:CP_Radial_D10.0mm_P5.00mm" H 5688 1500 50  0001 C CNN
F 3 "~" H 5650 1650 50  0001 C CNN
	1    5650 1650
	1    0    0    -1  
$EndComp
$Comp
L power:GND #PWR0103
U 1 1 5D131913
P 5650 1800
F 0 "#PWR0103" H 5650 1550 50  0001 C CNN
F 1 "GND" H 5655 1627 50  0000 C CNN
F 2 "" H 5650 1800 50  0001 C CNN
F 3 "" H 5650 1800 50  0001 C CNN
	1    5650 1800
	1    0    0    -1  
$EndComp
Wire Wire Line
	5650 1500 5650 1400
Connection ~ 5650 1400
Wire Wire Line
	5650 1400 6450 1400
$Comp
L Device:R R2
U 1 1 5D131DC3
P 5900 2900
F 0 "R2" V 5693 2900 50  0000 C CNN
F 1 "10" V 5784 2900 50  0000 C CNN
F 2 "Resistor_THT:R_Axial_DIN0207_L6.3mm_D2.5mm_P10.16mm_Horizontal" V 5830 2900 50  0001 C CNN
F 3 "~" H 5900 2900 50  0001 C CNN
	1    5900 2900
	0    1    1    0   
$EndComp
$Comp
L Device:R R3
U 1 1 5D1321A6
P 5900 3400
F 0 "R3" V 5693 3400 50  0000 C CNN
F 1 "10" V 5784 3400 50  0000 C CNN
F 2 "Resistor_THT:R_Axial_DIN0207_L6.3mm_D2.5mm_P10.16mm_Horizontal" V 5830 3400 50  0001 C CNN
F 3 "~" H 5900 3400 50  0001 C CNN
	1    5900 3400
	0    1    1    0   
$EndComp
Wire Wire Line
	5750 3400 5500 3400
$Comp
L Device:C_Small C3
U 1 1 5D133083
P 5450 3100
F 0 "C3" H 5542 3146 50  0000 L CNN
F 1 "1u" H 5542 3055 50  0000 L CNN
F 2 "Capacitor_THT:C_Rect_L7.0mm_W2.0mm_P5.00mm" H 5450 3100 50  0001 C CNN
F 3 "~" H 5450 3100 50  0001 C CNN
	1    5450 3100
	1    0    0    -1  
$EndComp
Wire Wire Line
	5450 3300 5450 3200
Wire Wire Line
	5450 3000 5450 2800
$Comp
L Device:D_Schottky D1
U 1 1 5D133801
P 5200 2450
F 0 "D1" H 5200 2234 50  0000 C CNN
F 1 "UF4007" H 5200 2325 50  0000 C CNN
F 2 "Diode_THT:D_T-1_P10.16mm_Horizontal" H 5200 2450 50  0001 C CNN
F 3 "~" H 5200 2450 50  0001 C CNN
	1    5200 2450
	-1   0    0    1   
$EndComp
Wire Wire Line
	5350 2450 5450 2450
Wire Wire Line
	5450 2450 5450 2800
Connection ~ 5450 2800
Wire Wire Line
	5050 2450 4950 2450
Connection ~ 4950 2450
Wire Wire Line
	4950 2450 4950 1400
Wire Wire Line
	5450 3300 5700 3300
Wire Wire Line
	5700 3300 5700 3100
Wire Wire Line
	5700 3100 6400 3100
Connection ~ 5450 3300
$Comp
L Connector:Conn_01x05_Male J1
U 1 1 5D13547A
P 6900 2300
F 0 "J1" H 6872 2232 50  0000 R CNN
F 1 "header" H 6872 2323 50  0000 R CNN
F 2 "Connector_PinHeader_2.54mm:PinHeader_1x05_P2.54mm_Vertical" H 6900 2300 50  0001 C CNN
F 3 "~" H 6900 2300 50  0001 C CNN
	1    6900 2300
	-1   0    0    1   
$EndComp
Wire Wire Line
	6700 2100 6450 2100
Wire Wire Line
	6450 2100 6450 1400
$Comp
L power:GND #PWR0104
U 1 1 5D136824
P 6600 2650
F 0 "#PWR0104" H 6600 2400 50  0001 C CNN
F 1 "GND" H 6605 2477 50  0000 C CNN
F 2 "" H 6600 2650 50  0001 C CNN
F 3 "" H 6600 2650 50  0001 C CNN
	1    6600 2650
	1    0    0    -1  
$EndComp
Wire Wire Line
	6600 2650 6600 2500
Wire Wire Line
	6600 2500 6700 2500
Wire Wire Line
	6050 2900 6300 2900
Wire Wire Line
	6300 2900 6300 2200
Wire Wire Line
	6300 2200 6700 2200
Wire Wire Line
	6400 3100 6400 2300
Wire Wire Line
	6400 2300 6700 2300
Wire Wire Line
	6050 3400 6500 3400
Wire Wire Line
	6500 3400 6500 2400
Wire Wire Line
	6500 2400 6700 2400
$Comp
L Device:C_Small C1
U 1 1 5D1381BB
P 4000 3500
F 0 "C1" H 4092 3546 50  0000 L CNN
F 1 "10n" H 4092 3455 50  0000 L CNN
F 2 "Capacitor_THT:C_Rect_L7.0mm_W2.0mm_P5.00mm" H 4000 3500 50  0001 C CNN
F 3 "~" H 4000 3500 50  0001 C CNN
	1    4000 3500
	1    0    0    -1  
$EndComp
$Comp
L Device:R R1
U 1 1 5D138E7F
P 4000 3050
F 0 "R1" H 3930 3004 50  0000 R CNN
F 1 "1k" H 3930 3095 50  0000 R CNN
F 2 "Resistor_THT:R_Axial_DIN0207_L6.3mm_D2.5mm_P10.16mm_Horizontal" V 3930 3050 50  0001 C CNN
F 3 "~" H 4000 3050 50  0001 C CNN
	1    4000 3050
	-1   0    0    1   
$EndComp
Wire Wire Line
	4450 3100 4300 3100
Wire Wire Line
	4300 3100 4300 2750
Wire Wire Line
	4300 2750 4000 2750
Wire Wire Line
	4000 2750 4000 2900
Wire Wire Line
	4450 3300 4000 3300
Wire Wire Line
	4000 3300 4000 3200
Wire Wire Line
	4000 3300 4000 3400
Connection ~ 4000 3300
$Comp
L power:GND #PWR0105
U 1 1 5D13B659
P 4000 3750
F 0 "#PWR0105" H 4000 3500 50  0001 C CNN
F 1 "GND" H 4005 3577 50  0000 C CNN
F 2 "" H 4000 3750 50  0001 C CNN
F 3 "" H 4000 3750 50  0001 C CNN
	1    4000 3750
	1    0    0    -1  
$EndComp
Wire Wire Line
	4000 3750 4000 3600
$Comp
L Device:R R4
U 1 1 5E81EF79
P 5150 3100
F 0 "R4" H 5080 3054 50  0000 R CNN
F 1 "1k" H 5080 3145 50  0000 R CNN
F 2 "Resistor_THT:R_Axial_DIN0207_L6.3mm_D2.5mm_P10.16mm_Horizontal" V 5080 3100 50  0001 C CNN
F 3 "~" H 5150 3100 50  0001 C CNN
	1    5150 3100
	-1   0    0    1   
$EndComp
Wire Wire Line
	5150 2950 5150 2900
Wire Wire Line
	5150 2900 5750 2900
Wire Wire Line
	5150 3250 5150 3300
Wire Wire Line
	5150 3300 5450 3300
$Comp
L Device:R R5
U 1 1 5E8204D3
P 5150 3700
F 0 "R5" H 5080 3654 50  0000 R CNN
F 1 "1k" H 5080 3745 50  0000 R CNN
F 2 "Resistor_THT:R_Axial_DIN0207_L6.3mm_D2.5mm_P10.16mm_Horizontal" V 5080 3700 50  0001 C CNN
F 3 "~" H 5150 3700 50  0001 C CNN
	1    5150 3700
	-1   0    0    1   
$EndComp
Wire Wire Line
	5150 3300 5150 3550
Connection ~ 5150 3300
$Comp
L power:GND #PWR0106
U 1 1 5E8210F7
P 5150 3850
F 0 "#PWR0106" H 5150 3600 50  0001 C CNN
F 1 "GND" H 5155 3677 50  0000 C CNN
F 2 "" H 5150 3850 50  0001 C CNN
F 3 "" H 5150 3850 50  0001 C CNN
	1    5150 3850
	1    0    0    -1  
$EndComp
$Comp
L Device:R R6
U 1 1 5E821694
P 5500 3700
F 0 "R6" H 5430 3654 50  0000 R CNN
F 1 "1k" H 5430 3745 50  0000 R CNN
F 2 "Resistor_THT:R_Axial_DIN0207_L6.3mm_D2.5mm_P10.16mm_Horizontal" V 5430 3700 50  0001 C CNN
F 3 "~" H 5500 3700 50  0001 C CNN
	1    5500 3700
	-1   0    0    1   
$EndComp
$Comp
L power:GND #PWR0107
U 1 1 5E82169A
P 5500 3850
F 0 "#PWR0107" H 5500 3600 50  0001 C CNN
F 1 "GND" H 5505 3677 50  0000 C CNN
F 2 "" H 5500 3850 50  0001 C CNN
F 3 "" H 5500 3850 50  0001 C CNN
	1    5500 3850
	1    0    0    -1  
$EndComp
Wire Wire Line
	5500 3550 5500 3400
Connection ~ 5500 3400
Wire Wire Line
	5050 2800 5450 2800
Wire Wire Line
	5150 2900 5050 2900
Connection ~ 5150 2900
Wire Wire Line
	5050 3400 5500 3400
Wire Wire Line
	5050 3300 5150 3300
Wire Wire Line
	4950 2450 4750 2450
Wire Wire Line
	4750 2450 4750 2600
$EndSCHEMATC
