M48
; DRILL file {KiCad 5.1.2-f72e74a~84~ubuntu19.04.1} date Mi 26 iun 2019 10:30:52 +0300
; FORMAT={-:-/ absolute / inch / decimal}
; #@! TF.CreationDate,2019-06-26T10:30:52+03:00
; #@! TF.GenerationSoftware,Kicad,Pcbnew,5.1.2-f72e74a~84~ubuntu19.04.1
; #@! TF.FileFunction,NonPlated,1,2,NPTH
FMAT,2
INCH
%
G90
G05
T0
M30
