G04 #@! TF.GenerationSoftware,KiCad,Pcbnew,5.1.2-f72e74a~84~ubuntu19.04.1*
G04 #@! TF.CreationDate,2019-06-26T10:30:51+03:00*
G04 #@! TF.ProjectId,IR2153_Board,49523231-3533-45f4-926f-6172642e6b69,rev?*
G04 #@! TF.SameCoordinates,Original*
G04 #@! TF.FileFunction,Copper,L1,Top*
G04 #@! TF.FilePolarity,Positive*
%FSLAX46Y46*%
G04 Gerber Fmt 4.6, Leading zero omitted, Abs format (unit mm)*
G04 Created by KiCad (PCBNEW 5.1.2-f72e74a~84~ubuntu19.04.1) date 2019-06-26 10:30:51*
%MOMM*%
%LPD*%
G04 APERTURE LIST*
%ADD10C,0.400000*%
%ADD11O,1.700000X1.700000*%
%ADD12R,1.700000X1.700000*%
%ADD13O,1.600000X2.400000*%
%ADD14R,1.600000X2.400000*%
%ADD15O,1.600000X1.600000*%
%ADD16C,1.600000*%
%ADD17O,2.000000X2.000000*%
%ADD18R,2.000000X2.000000*%
%ADD19C,2.000000*%
%ADD20C,0.600000*%
%ADD21C,0.254000*%
G04 APERTURE END LIST*
D10*
X90170000Y-163830000D02*
X90170000Y-129540000D01*
X116840000Y-163830000D02*
X90170000Y-163830000D01*
X116840000Y-129540000D02*
X116840000Y-163830000D01*
X90170000Y-129540000D02*
X116840000Y-129540000D01*
D11*
X114300000Y-142875000D03*
X114300000Y-145415000D03*
X114300000Y-147955000D03*
X114300000Y-150495000D03*
D12*
X114300000Y-153035000D03*
D13*
X103505000Y-151765000D03*
X95885000Y-144145000D03*
X100965000Y-151765000D03*
X98425000Y-144145000D03*
X98425000Y-151765000D03*
X100965000Y-144145000D03*
X95885000Y-151765000D03*
D14*
X103505000Y-144145000D03*
D15*
X94615000Y-158115000D03*
D16*
X104775000Y-158115000D03*
D15*
X94615000Y-161290000D03*
D16*
X104775000Y-161290000D03*
D15*
X104775000Y-140335000D03*
D16*
X94615000Y-140335000D03*
D17*
X108585000Y-142875000D03*
D18*
X108585000Y-153035000D03*
D19*
X110490000Y-132795000D03*
D18*
X110490000Y-137795000D03*
D16*
X97235000Y-154940000D03*
X102235000Y-154940000D03*
X92710000Y-150415000D03*
X92710000Y-145415000D03*
D20*
X98425000Y-151765000D02*
X98425000Y-148590000D01*
X99060000Y-147955000D02*
X114300000Y-147955000D01*
X98425000Y-148590000D02*
X99060000Y-147955000D01*
X111760000Y-150495000D02*
X114300000Y-150495000D01*
X111760000Y-156210000D02*
X111760000Y-150495000D01*
X104775000Y-158115000D02*
X109855000Y-158115000D01*
X109855000Y-158115000D02*
X111760000Y-156210000D01*
D21*
G36*
X116005001Y-162995000D02*
G01*
X91005000Y-162995000D01*
X91005000Y-161290000D01*
X93173057Y-161290000D01*
X93200764Y-161571309D01*
X93282818Y-161841808D01*
X93416068Y-162091101D01*
X93595392Y-162309608D01*
X93813899Y-162488932D01*
X94063192Y-162622182D01*
X94333691Y-162704236D01*
X94544508Y-162725000D01*
X94685492Y-162725000D01*
X94896309Y-162704236D01*
X95166808Y-162622182D01*
X95416101Y-162488932D01*
X95634608Y-162309608D01*
X95813932Y-162091101D01*
X95947182Y-161841808D01*
X96029236Y-161571309D01*
X96056943Y-161290000D01*
X96043023Y-161148665D01*
X103340000Y-161148665D01*
X103340000Y-161431335D01*
X103395147Y-161708574D01*
X103503320Y-161969727D01*
X103660363Y-162204759D01*
X103860241Y-162404637D01*
X104095273Y-162561680D01*
X104356426Y-162669853D01*
X104633665Y-162725000D01*
X104916335Y-162725000D01*
X105193574Y-162669853D01*
X105454727Y-162561680D01*
X105689759Y-162404637D01*
X105889637Y-162204759D01*
X106046680Y-161969727D01*
X106154853Y-161708574D01*
X106210000Y-161431335D01*
X106210000Y-161148665D01*
X106154853Y-160871426D01*
X106046680Y-160610273D01*
X105889637Y-160375241D01*
X105689759Y-160175363D01*
X105454727Y-160018320D01*
X105193574Y-159910147D01*
X104916335Y-159855000D01*
X104633665Y-159855000D01*
X104356426Y-159910147D01*
X104095273Y-160018320D01*
X103860241Y-160175363D01*
X103660363Y-160375241D01*
X103503320Y-160610273D01*
X103395147Y-160871426D01*
X103340000Y-161148665D01*
X96043023Y-161148665D01*
X96029236Y-161008691D01*
X95947182Y-160738192D01*
X95813932Y-160488899D01*
X95634608Y-160270392D01*
X95416101Y-160091068D01*
X95166808Y-159957818D01*
X94896309Y-159875764D01*
X94685492Y-159855000D01*
X94544508Y-159855000D01*
X94333691Y-159875764D01*
X94063192Y-159957818D01*
X93813899Y-160091068D01*
X93595392Y-160270392D01*
X93416068Y-160488899D01*
X93282818Y-160738192D01*
X93200764Y-161008691D01*
X93173057Y-161290000D01*
X91005000Y-161290000D01*
X91005000Y-158115000D01*
X93173057Y-158115000D01*
X93200764Y-158396309D01*
X93282818Y-158666808D01*
X93416068Y-158916101D01*
X93595392Y-159134608D01*
X93813899Y-159313932D01*
X94063192Y-159447182D01*
X94333691Y-159529236D01*
X94544508Y-159550000D01*
X94685492Y-159550000D01*
X94896309Y-159529236D01*
X95166808Y-159447182D01*
X95416101Y-159313932D01*
X95634608Y-159134608D01*
X95813932Y-158916101D01*
X95947182Y-158666808D01*
X96029236Y-158396309D01*
X96056943Y-158115000D01*
X96029236Y-157833691D01*
X95947182Y-157563192D01*
X95813932Y-157313899D01*
X95634608Y-157095392D01*
X95416101Y-156916068D01*
X95166808Y-156782818D01*
X94896309Y-156700764D01*
X94685492Y-156680000D01*
X94544508Y-156680000D01*
X94333691Y-156700764D01*
X94063192Y-156782818D01*
X93813899Y-156916068D01*
X93595392Y-157095392D01*
X93416068Y-157313899D01*
X93282818Y-157563192D01*
X93200764Y-157833691D01*
X93173057Y-158115000D01*
X91005000Y-158115000D01*
X91005000Y-154798665D01*
X95800000Y-154798665D01*
X95800000Y-155081335D01*
X95855147Y-155358574D01*
X95963320Y-155619727D01*
X96120363Y-155854759D01*
X96320241Y-156054637D01*
X96555273Y-156211680D01*
X96816426Y-156319853D01*
X97093665Y-156375000D01*
X97376335Y-156375000D01*
X97653574Y-156319853D01*
X97914727Y-156211680D01*
X98149759Y-156054637D01*
X98349637Y-155854759D01*
X98506680Y-155619727D01*
X98614853Y-155358574D01*
X98670000Y-155081335D01*
X98670000Y-154798665D01*
X100800000Y-154798665D01*
X100800000Y-155081335D01*
X100855147Y-155358574D01*
X100963320Y-155619727D01*
X101120363Y-155854759D01*
X101320241Y-156054637D01*
X101555273Y-156211680D01*
X101816426Y-156319853D01*
X102093665Y-156375000D01*
X102376335Y-156375000D01*
X102653574Y-156319853D01*
X102914727Y-156211680D01*
X103149759Y-156054637D01*
X103349637Y-155854759D01*
X103506680Y-155619727D01*
X103614853Y-155358574D01*
X103670000Y-155081335D01*
X103670000Y-154798665D01*
X103614853Y-154521426D01*
X103506680Y-154260273D01*
X103349637Y-154025241D01*
X103149759Y-153825363D01*
X102914727Y-153668320D01*
X102653574Y-153560147D01*
X102376335Y-153505000D01*
X102093665Y-153505000D01*
X101816426Y-153560147D01*
X101555273Y-153668320D01*
X101320241Y-153825363D01*
X101120363Y-154025241D01*
X100963320Y-154260273D01*
X100855147Y-154521426D01*
X100800000Y-154798665D01*
X98670000Y-154798665D01*
X98614853Y-154521426D01*
X98506680Y-154260273D01*
X98349637Y-154025241D01*
X98149759Y-153825363D01*
X97914727Y-153668320D01*
X97653574Y-153560147D01*
X97376335Y-153505000D01*
X97093665Y-153505000D01*
X96816426Y-153560147D01*
X96555273Y-153668320D01*
X96320241Y-153825363D01*
X96120363Y-154025241D01*
X95963320Y-154260273D01*
X95855147Y-154521426D01*
X95800000Y-154798665D01*
X91005000Y-154798665D01*
X91005000Y-151407702D01*
X91896903Y-151407702D01*
X91968486Y-151651671D01*
X92223996Y-151772571D01*
X92498184Y-151841300D01*
X92780512Y-151855217D01*
X93060130Y-151813787D01*
X93326292Y-151718603D01*
X93451514Y-151651671D01*
X93523097Y-151407702D01*
X93409903Y-151294508D01*
X94450000Y-151294508D01*
X94450000Y-152235491D01*
X94470764Y-152446308D01*
X94552818Y-152716807D01*
X94686068Y-152966100D01*
X94865392Y-153184607D01*
X95083899Y-153363932D01*
X95333192Y-153497182D01*
X95603691Y-153579236D01*
X95885000Y-153606943D01*
X96166308Y-153579236D01*
X96436807Y-153497182D01*
X96686100Y-153363932D01*
X96904607Y-153184608D01*
X97083932Y-152966101D01*
X97155000Y-152833142D01*
X97226068Y-152966100D01*
X97405392Y-153184607D01*
X97623899Y-153363932D01*
X97873192Y-153497182D01*
X98143691Y-153579236D01*
X98425000Y-153606943D01*
X98706308Y-153579236D01*
X98976807Y-153497182D01*
X99226100Y-153363932D01*
X99444607Y-153184608D01*
X99623932Y-152966101D01*
X99695000Y-152833142D01*
X99766068Y-152966100D01*
X99945392Y-153184607D01*
X100163899Y-153363932D01*
X100413192Y-153497182D01*
X100683691Y-153579236D01*
X100965000Y-153606943D01*
X101246308Y-153579236D01*
X101516807Y-153497182D01*
X101766100Y-153363932D01*
X101984607Y-153184608D01*
X102163932Y-152966101D01*
X102235000Y-152833142D01*
X102306068Y-152966100D01*
X102485392Y-153184607D01*
X102703899Y-153363932D01*
X102953192Y-153497182D01*
X103223691Y-153579236D01*
X103505000Y-153606943D01*
X103786308Y-153579236D01*
X104056807Y-153497182D01*
X104306100Y-153363932D01*
X104524607Y-153184608D01*
X104703932Y-152966101D01*
X104837182Y-152716808D01*
X104919236Y-152446309D01*
X104940000Y-152235492D01*
X104940000Y-152035000D01*
X106946928Y-152035000D01*
X106946928Y-154035000D01*
X106959188Y-154159482D01*
X106995498Y-154279180D01*
X107054463Y-154389494D01*
X107133815Y-154486185D01*
X107230506Y-154565537D01*
X107340820Y-154624502D01*
X107460518Y-154660812D01*
X107585000Y-154673072D01*
X109585000Y-154673072D01*
X109709482Y-154660812D01*
X109829180Y-154624502D01*
X109939494Y-154565537D01*
X110036185Y-154486185D01*
X110115537Y-154389494D01*
X110174502Y-154279180D01*
X110210812Y-154159482D01*
X110223072Y-154035000D01*
X110223072Y-152035000D01*
X110210812Y-151910518D01*
X110174502Y-151790820D01*
X110115537Y-151680506D01*
X110036185Y-151583815D01*
X109939494Y-151504463D01*
X109829180Y-151445498D01*
X109709482Y-151409188D01*
X109585000Y-151396928D01*
X107585000Y-151396928D01*
X107460518Y-151409188D01*
X107340820Y-151445498D01*
X107230506Y-151504463D01*
X107133815Y-151583815D01*
X107054463Y-151680506D01*
X106995498Y-151790820D01*
X106959188Y-151910518D01*
X106946928Y-152035000D01*
X104940000Y-152035000D01*
X104940000Y-151294509D01*
X104919236Y-151083691D01*
X104837182Y-150813192D01*
X104703932Y-150563899D01*
X104524608Y-150345392D01*
X104306101Y-150166068D01*
X104056808Y-150032818D01*
X103786309Y-149950764D01*
X103505000Y-149923057D01*
X103223692Y-149950764D01*
X102953193Y-150032818D01*
X102703900Y-150166068D01*
X102485393Y-150345392D01*
X102306068Y-150563899D01*
X102235000Y-150696858D01*
X102163932Y-150563899D01*
X101984608Y-150345392D01*
X101766101Y-150166068D01*
X101516808Y-150032818D01*
X101246309Y-149950764D01*
X100965000Y-149923057D01*
X100683692Y-149950764D01*
X100413193Y-150032818D01*
X100163900Y-150166068D01*
X99945393Y-150345392D01*
X99766068Y-150563899D01*
X99695000Y-150696858D01*
X99623932Y-150563899D01*
X99444608Y-150345392D01*
X99360000Y-150275956D01*
X99360000Y-148977289D01*
X99447289Y-148890000D01*
X113146275Y-148890000D01*
X113244866Y-149010134D01*
X113470986Y-149195706D01*
X113525791Y-149225000D01*
X113470986Y-149254294D01*
X113244866Y-149439866D01*
X113146275Y-149560000D01*
X111805932Y-149560000D01*
X111760000Y-149555476D01*
X111714068Y-149560000D01*
X111576708Y-149573529D01*
X111400460Y-149626993D01*
X111238028Y-149713814D01*
X111095656Y-149830656D01*
X110978814Y-149973028D01*
X110891993Y-150135460D01*
X110838529Y-150311708D01*
X110820476Y-150495000D01*
X110825001Y-150540942D01*
X110825000Y-155822711D01*
X109467711Y-157180000D01*
X105869396Y-157180000D01*
X105689759Y-157000363D01*
X105454727Y-156843320D01*
X105193574Y-156735147D01*
X104916335Y-156680000D01*
X104633665Y-156680000D01*
X104356426Y-156735147D01*
X104095273Y-156843320D01*
X103860241Y-157000363D01*
X103660363Y-157200241D01*
X103503320Y-157435273D01*
X103395147Y-157696426D01*
X103340000Y-157973665D01*
X103340000Y-158256335D01*
X103395147Y-158533574D01*
X103503320Y-158794727D01*
X103660363Y-159029759D01*
X103860241Y-159229637D01*
X104095273Y-159386680D01*
X104356426Y-159494853D01*
X104633665Y-159550000D01*
X104916335Y-159550000D01*
X105193574Y-159494853D01*
X105454727Y-159386680D01*
X105689759Y-159229637D01*
X105869396Y-159050000D01*
X109809068Y-159050000D01*
X109855000Y-159054524D01*
X109900932Y-159050000D01*
X110038292Y-159036471D01*
X110214540Y-158983007D01*
X110376972Y-158896186D01*
X110519344Y-158779344D01*
X110548630Y-158743659D01*
X112388660Y-156903629D01*
X112424344Y-156874344D01*
X112541186Y-156731972D01*
X112628007Y-156569540D01*
X112681471Y-156393292D01*
X112695000Y-156255932D01*
X112695000Y-156255931D01*
X112699524Y-156210000D01*
X112695000Y-156164068D01*
X112695000Y-153885000D01*
X112811928Y-153885000D01*
X112824188Y-154009482D01*
X112860498Y-154129180D01*
X112919463Y-154239494D01*
X112998815Y-154336185D01*
X113095506Y-154415537D01*
X113205820Y-154474502D01*
X113325518Y-154510812D01*
X113450000Y-154523072D01*
X114014250Y-154520000D01*
X114173000Y-154361250D01*
X114173000Y-153162000D01*
X114427000Y-153162000D01*
X114427000Y-154361250D01*
X114585750Y-154520000D01*
X115150000Y-154523072D01*
X115274482Y-154510812D01*
X115394180Y-154474502D01*
X115504494Y-154415537D01*
X115601185Y-154336185D01*
X115680537Y-154239494D01*
X115739502Y-154129180D01*
X115775812Y-154009482D01*
X115788072Y-153885000D01*
X115785000Y-153320750D01*
X115626250Y-153162000D01*
X114427000Y-153162000D01*
X114173000Y-153162000D01*
X112973750Y-153162000D01*
X112815000Y-153320750D01*
X112811928Y-153885000D01*
X112695000Y-153885000D01*
X112695000Y-151430000D01*
X113146275Y-151430000D01*
X113244866Y-151550134D01*
X113274687Y-151574607D01*
X113205820Y-151595498D01*
X113095506Y-151654463D01*
X112998815Y-151733815D01*
X112919463Y-151830506D01*
X112860498Y-151940820D01*
X112824188Y-152060518D01*
X112811928Y-152185000D01*
X112815000Y-152749250D01*
X112973750Y-152908000D01*
X114173000Y-152908000D01*
X114173000Y-152888000D01*
X114427000Y-152888000D01*
X114427000Y-152908000D01*
X115626250Y-152908000D01*
X115785000Y-152749250D01*
X115788072Y-152185000D01*
X115775812Y-152060518D01*
X115739502Y-151940820D01*
X115680537Y-151830506D01*
X115601185Y-151733815D01*
X115504494Y-151654463D01*
X115394180Y-151595498D01*
X115325313Y-151574607D01*
X115355134Y-151550134D01*
X115540706Y-151324014D01*
X115678599Y-151066034D01*
X115763513Y-150786111D01*
X115792185Y-150495000D01*
X115763513Y-150203889D01*
X115678599Y-149923966D01*
X115540706Y-149665986D01*
X115355134Y-149439866D01*
X115129014Y-149254294D01*
X115074209Y-149225000D01*
X115129014Y-149195706D01*
X115355134Y-149010134D01*
X115540706Y-148784014D01*
X115678599Y-148526034D01*
X115763513Y-148246111D01*
X115792185Y-147955000D01*
X115763513Y-147663889D01*
X115678599Y-147383966D01*
X115540706Y-147125986D01*
X115355134Y-146899866D01*
X115129014Y-146714294D01*
X115074209Y-146685000D01*
X115129014Y-146655706D01*
X115355134Y-146470134D01*
X115540706Y-146244014D01*
X115678599Y-145986034D01*
X115763513Y-145706111D01*
X115792185Y-145415000D01*
X115763513Y-145123889D01*
X115678599Y-144843966D01*
X115540706Y-144585986D01*
X115355134Y-144359866D01*
X115129014Y-144174294D01*
X115074209Y-144145000D01*
X115129014Y-144115706D01*
X115355134Y-143930134D01*
X115540706Y-143704014D01*
X115678599Y-143446034D01*
X115763513Y-143166111D01*
X115792185Y-142875000D01*
X115763513Y-142583889D01*
X115678599Y-142303966D01*
X115540706Y-142045986D01*
X115355134Y-141819866D01*
X115129014Y-141634294D01*
X114871034Y-141496401D01*
X114591111Y-141411487D01*
X114372950Y-141390000D01*
X114227050Y-141390000D01*
X114008889Y-141411487D01*
X113728966Y-141496401D01*
X113470986Y-141634294D01*
X113244866Y-141819866D01*
X113059294Y-142045986D01*
X112921401Y-142303966D01*
X112836487Y-142583889D01*
X112807815Y-142875000D01*
X112836487Y-143166111D01*
X112921401Y-143446034D01*
X113059294Y-143704014D01*
X113244866Y-143930134D01*
X113470986Y-144115706D01*
X113525791Y-144145000D01*
X113470986Y-144174294D01*
X113244866Y-144359866D01*
X113059294Y-144585986D01*
X112921401Y-144843966D01*
X112836487Y-145123889D01*
X112807815Y-145415000D01*
X112836487Y-145706111D01*
X112921401Y-145986034D01*
X113059294Y-146244014D01*
X113244866Y-146470134D01*
X113470986Y-146655706D01*
X113525791Y-146685000D01*
X113470986Y-146714294D01*
X113244866Y-146899866D01*
X113146275Y-147020000D01*
X99105935Y-147020000D01*
X99060000Y-147015476D01*
X98876708Y-147033528D01*
X98700459Y-147086993D01*
X98643880Y-147117235D01*
X98538028Y-147173814D01*
X98395656Y-147290656D01*
X98366370Y-147326341D01*
X97796336Y-147896375D01*
X97760657Y-147925656D01*
X97643815Y-148068028D01*
X97556994Y-148230460D01*
X97503529Y-148406709D01*
X97485476Y-148590000D01*
X97490001Y-148635942D01*
X97490000Y-150275956D01*
X97405393Y-150345392D01*
X97226068Y-150563899D01*
X97155000Y-150696858D01*
X97083932Y-150563899D01*
X96904608Y-150345392D01*
X96686101Y-150166068D01*
X96436808Y-150032818D01*
X96166309Y-149950764D01*
X95885000Y-149923057D01*
X95603692Y-149950764D01*
X95333193Y-150032818D01*
X95083900Y-150166068D01*
X94865393Y-150345392D01*
X94686068Y-150563899D01*
X94552818Y-150813192D01*
X94470764Y-151083691D01*
X94450000Y-151294508D01*
X93409903Y-151294508D01*
X92710000Y-150594605D01*
X91896903Y-151407702D01*
X91005000Y-151407702D01*
X91005000Y-150485512D01*
X91269783Y-150485512D01*
X91311213Y-150765130D01*
X91406397Y-151031292D01*
X91473329Y-151156514D01*
X91717298Y-151228097D01*
X92530395Y-150415000D01*
X92889605Y-150415000D01*
X93702702Y-151228097D01*
X93946671Y-151156514D01*
X94067571Y-150901004D01*
X94136300Y-150626816D01*
X94150217Y-150344488D01*
X94108787Y-150064870D01*
X94013603Y-149798708D01*
X93946671Y-149673486D01*
X93702702Y-149601903D01*
X92889605Y-150415000D01*
X92530395Y-150415000D01*
X91717298Y-149601903D01*
X91473329Y-149673486D01*
X91352429Y-149928996D01*
X91283700Y-150203184D01*
X91269783Y-150485512D01*
X91005000Y-150485512D01*
X91005000Y-149422298D01*
X91896903Y-149422298D01*
X92710000Y-150235395D01*
X93523097Y-149422298D01*
X93451514Y-149178329D01*
X93196004Y-149057429D01*
X92921816Y-148988700D01*
X92639488Y-148974783D01*
X92359870Y-149016213D01*
X92093708Y-149111397D01*
X91968486Y-149178329D01*
X91896903Y-149422298D01*
X91005000Y-149422298D01*
X91005000Y-145273665D01*
X91275000Y-145273665D01*
X91275000Y-145556335D01*
X91330147Y-145833574D01*
X91438320Y-146094727D01*
X91595363Y-146329759D01*
X91795241Y-146529637D01*
X92030273Y-146686680D01*
X92291426Y-146794853D01*
X92568665Y-146850000D01*
X92851335Y-146850000D01*
X93128574Y-146794853D01*
X93389727Y-146686680D01*
X93624759Y-146529637D01*
X93824637Y-146329759D01*
X93981680Y-146094727D01*
X94089853Y-145833574D01*
X94145000Y-145556335D01*
X94145000Y-145273665D01*
X94089853Y-144996426D01*
X93981680Y-144735273D01*
X93824637Y-144500241D01*
X93624759Y-144300363D01*
X93582311Y-144272000D01*
X94450000Y-144272000D01*
X94450000Y-144672000D01*
X94502350Y-144949514D01*
X94607834Y-145211483D01*
X94762399Y-145447839D01*
X94960105Y-145649500D01*
X95193354Y-145808715D01*
X95453182Y-145919367D01*
X95535961Y-145936904D01*
X95758000Y-145814915D01*
X95758000Y-144272000D01*
X94450000Y-144272000D01*
X93582311Y-144272000D01*
X93389727Y-144143320D01*
X93128574Y-144035147D01*
X92851335Y-143980000D01*
X92568665Y-143980000D01*
X92291426Y-144035147D01*
X92030273Y-144143320D01*
X91795241Y-144300363D01*
X91595363Y-144500241D01*
X91438320Y-144735273D01*
X91330147Y-144996426D01*
X91275000Y-145273665D01*
X91005000Y-145273665D01*
X91005000Y-143618000D01*
X94450000Y-143618000D01*
X94450000Y-144018000D01*
X95758000Y-144018000D01*
X95758000Y-142475085D01*
X96012000Y-142475085D01*
X96012000Y-144018000D01*
X96032000Y-144018000D01*
X96032000Y-144272000D01*
X96012000Y-144272000D01*
X96012000Y-145814915D01*
X96234039Y-145936904D01*
X96316818Y-145919367D01*
X96576646Y-145808715D01*
X96809895Y-145649500D01*
X97007601Y-145447839D01*
X97157735Y-145218258D01*
X97226068Y-145346100D01*
X97405392Y-145564607D01*
X97623899Y-145743932D01*
X97873192Y-145877182D01*
X98143691Y-145959236D01*
X98425000Y-145986943D01*
X98706308Y-145959236D01*
X98976807Y-145877182D01*
X99226100Y-145743932D01*
X99444607Y-145564608D01*
X99623932Y-145346101D01*
X99695000Y-145213142D01*
X99766068Y-145346100D01*
X99945392Y-145564607D01*
X100163899Y-145743932D01*
X100413192Y-145877182D01*
X100683691Y-145959236D01*
X100965000Y-145986943D01*
X101246308Y-145959236D01*
X101516807Y-145877182D01*
X101766100Y-145743932D01*
X101984607Y-145564608D01*
X102077419Y-145451517D01*
X102079188Y-145469482D01*
X102115498Y-145589180D01*
X102174463Y-145699494D01*
X102253815Y-145796185D01*
X102350506Y-145875537D01*
X102460820Y-145934502D01*
X102580518Y-145970812D01*
X102705000Y-145983072D01*
X104305000Y-145983072D01*
X104429482Y-145970812D01*
X104549180Y-145934502D01*
X104659494Y-145875537D01*
X104756185Y-145796185D01*
X104835537Y-145699494D01*
X104894502Y-145589180D01*
X104930812Y-145469482D01*
X104943072Y-145345000D01*
X104943072Y-142945000D01*
X104936178Y-142875000D01*
X106942089Y-142875000D01*
X106973657Y-143195516D01*
X107067148Y-143503715D01*
X107218969Y-143787752D01*
X107423286Y-144036714D01*
X107672248Y-144241031D01*
X107956285Y-144392852D01*
X108264484Y-144486343D01*
X108504678Y-144510000D01*
X108665322Y-144510000D01*
X108905516Y-144486343D01*
X109213715Y-144392852D01*
X109497752Y-144241031D01*
X109746714Y-144036714D01*
X109951031Y-143787752D01*
X110102852Y-143503715D01*
X110196343Y-143195516D01*
X110227911Y-142875000D01*
X110196343Y-142554484D01*
X110102852Y-142246285D01*
X109951031Y-141962248D01*
X109746714Y-141713286D01*
X109497752Y-141508969D01*
X109213715Y-141357148D01*
X108905516Y-141263657D01*
X108665322Y-141240000D01*
X108504678Y-141240000D01*
X108264484Y-141263657D01*
X107956285Y-141357148D01*
X107672248Y-141508969D01*
X107423286Y-141713286D01*
X107218969Y-141962248D01*
X107067148Y-142246285D01*
X106973657Y-142554484D01*
X106942089Y-142875000D01*
X104936178Y-142875000D01*
X104930812Y-142820518D01*
X104894502Y-142700820D01*
X104835537Y-142590506D01*
X104756185Y-142493815D01*
X104659494Y-142414463D01*
X104549180Y-142355498D01*
X104429482Y-142319188D01*
X104305000Y-142306928D01*
X102705000Y-142306928D01*
X102580518Y-142319188D01*
X102460820Y-142355498D01*
X102350506Y-142414463D01*
X102253815Y-142493815D01*
X102174463Y-142590506D01*
X102115498Y-142700820D01*
X102079188Y-142820518D01*
X102077419Y-142838482D01*
X101984608Y-142725392D01*
X101766101Y-142546068D01*
X101516808Y-142412818D01*
X101246309Y-142330764D01*
X100965000Y-142303057D01*
X100683692Y-142330764D01*
X100413193Y-142412818D01*
X100163900Y-142546068D01*
X99945393Y-142725392D01*
X99766068Y-142943899D01*
X99695000Y-143076858D01*
X99623932Y-142943899D01*
X99444608Y-142725392D01*
X99226101Y-142546068D01*
X98976808Y-142412818D01*
X98706309Y-142330764D01*
X98425000Y-142303057D01*
X98143692Y-142330764D01*
X97873193Y-142412818D01*
X97623900Y-142546068D01*
X97405393Y-142725392D01*
X97226068Y-142943899D01*
X97157735Y-143071741D01*
X97007601Y-142842161D01*
X96809895Y-142640500D01*
X96576646Y-142481285D01*
X96316818Y-142370633D01*
X96234039Y-142353096D01*
X96012000Y-142475085D01*
X95758000Y-142475085D01*
X95535961Y-142353096D01*
X95453182Y-142370633D01*
X95193354Y-142481285D01*
X94960105Y-142640500D01*
X94762399Y-142842161D01*
X94607834Y-143078517D01*
X94502350Y-143340486D01*
X94450000Y-143618000D01*
X91005000Y-143618000D01*
X91005000Y-140193665D01*
X93180000Y-140193665D01*
X93180000Y-140476335D01*
X93235147Y-140753574D01*
X93343320Y-141014727D01*
X93500363Y-141249759D01*
X93700241Y-141449637D01*
X93935273Y-141606680D01*
X94196426Y-141714853D01*
X94473665Y-141770000D01*
X94756335Y-141770000D01*
X95033574Y-141714853D01*
X95294727Y-141606680D01*
X95529759Y-141449637D01*
X95729637Y-141249759D01*
X95886680Y-141014727D01*
X95994853Y-140753574D01*
X96050000Y-140476335D01*
X96050000Y-140335000D01*
X103333057Y-140335000D01*
X103360764Y-140616309D01*
X103442818Y-140886808D01*
X103576068Y-141136101D01*
X103755392Y-141354608D01*
X103973899Y-141533932D01*
X104223192Y-141667182D01*
X104493691Y-141749236D01*
X104704508Y-141770000D01*
X104845492Y-141770000D01*
X105056309Y-141749236D01*
X105326808Y-141667182D01*
X105576101Y-141533932D01*
X105794608Y-141354608D01*
X105973932Y-141136101D01*
X106107182Y-140886808D01*
X106189236Y-140616309D01*
X106216943Y-140335000D01*
X106189236Y-140053691D01*
X106107182Y-139783192D01*
X105973932Y-139533899D01*
X105794608Y-139315392D01*
X105576101Y-139136068D01*
X105326808Y-139002818D01*
X105056309Y-138920764D01*
X104845492Y-138900000D01*
X104704508Y-138900000D01*
X104493691Y-138920764D01*
X104223192Y-139002818D01*
X103973899Y-139136068D01*
X103755392Y-139315392D01*
X103576068Y-139533899D01*
X103442818Y-139783192D01*
X103360764Y-140053691D01*
X103333057Y-140335000D01*
X96050000Y-140335000D01*
X96050000Y-140193665D01*
X95994853Y-139916426D01*
X95886680Y-139655273D01*
X95729637Y-139420241D01*
X95529759Y-139220363D01*
X95294727Y-139063320D01*
X95033574Y-138955147D01*
X94756335Y-138900000D01*
X94473665Y-138900000D01*
X94196426Y-138955147D01*
X93935273Y-139063320D01*
X93700241Y-139220363D01*
X93500363Y-139420241D01*
X93343320Y-139655273D01*
X93235147Y-139916426D01*
X93180000Y-140193665D01*
X91005000Y-140193665D01*
X91005000Y-136795000D01*
X108851928Y-136795000D01*
X108851928Y-138795000D01*
X108864188Y-138919482D01*
X108900498Y-139039180D01*
X108959463Y-139149494D01*
X109038815Y-139246185D01*
X109135506Y-139325537D01*
X109245820Y-139384502D01*
X109365518Y-139420812D01*
X109490000Y-139433072D01*
X111490000Y-139433072D01*
X111614482Y-139420812D01*
X111734180Y-139384502D01*
X111844494Y-139325537D01*
X111941185Y-139246185D01*
X112020537Y-139149494D01*
X112079502Y-139039180D01*
X112115812Y-138919482D01*
X112128072Y-138795000D01*
X112128072Y-136795000D01*
X112115812Y-136670518D01*
X112079502Y-136550820D01*
X112020537Y-136440506D01*
X111941185Y-136343815D01*
X111844494Y-136264463D01*
X111734180Y-136205498D01*
X111614482Y-136169188D01*
X111490000Y-136156928D01*
X109490000Y-136156928D01*
X109365518Y-136169188D01*
X109245820Y-136205498D01*
X109135506Y-136264463D01*
X109038815Y-136343815D01*
X108959463Y-136440506D01*
X108900498Y-136550820D01*
X108864188Y-136670518D01*
X108851928Y-136795000D01*
X91005000Y-136795000D01*
X91005000Y-133930413D01*
X109534192Y-133930413D01*
X109629956Y-134194814D01*
X109919571Y-134335704D01*
X110231108Y-134417384D01*
X110552595Y-134436718D01*
X110871675Y-134392961D01*
X111176088Y-134287795D01*
X111350044Y-134194814D01*
X111445808Y-133930413D01*
X110490000Y-132974605D01*
X109534192Y-133930413D01*
X91005000Y-133930413D01*
X91005000Y-132857595D01*
X108848282Y-132857595D01*
X108892039Y-133176675D01*
X108997205Y-133481088D01*
X109090186Y-133655044D01*
X109354587Y-133750808D01*
X110310395Y-132795000D01*
X110669605Y-132795000D01*
X111625413Y-133750808D01*
X111889814Y-133655044D01*
X112030704Y-133365429D01*
X112112384Y-133053892D01*
X112131718Y-132732405D01*
X112087961Y-132413325D01*
X111982795Y-132108912D01*
X111889814Y-131934956D01*
X111625413Y-131839192D01*
X110669605Y-132795000D01*
X110310395Y-132795000D01*
X109354587Y-131839192D01*
X109090186Y-131934956D01*
X108949296Y-132224571D01*
X108867616Y-132536108D01*
X108848282Y-132857595D01*
X91005000Y-132857595D01*
X91005000Y-131659587D01*
X109534192Y-131659587D01*
X110490000Y-132615395D01*
X111445808Y-131659587D01*
X111350044Y-131395186D01*
X111060429Y-131254296D01*
X110748892Y-131172616D01*
X110427405Y-131153282D01*
X110108325Y-131197039D01*
X109803912Y-131302205D01*
X109629956Y-131395186D01*
X109534192Y-131659587D01*
X91005000Y-131659587D01*
X91005000Y-130375000D01*
X116005000Y-130375000D01*
X116005001Y-162995000D01*
X116005001Y-162995000D01*
G37*
X116005001Y-162995000D02*
X91005000Y-162995000D01*
X91005000Y-161290000D01*
X93173057Y-161290000D01*
X93200764Y-161571309D01*
X93282818Y-161841808D01*
X93416068Y-162091101D01*
X93595392Y-162309608D01*
X93813899Y-162488932D01*
X94063192Y-162622182D01*
X94333691Y-162704236D01*
X94544508Y-162725000D01*
X94685492Y-162725000D01*
X94896309Y-162704236D01*
X95166808Y-162622182D01*
X95416101Y-162488932D01*
X95634608Y-162309608D01*
X95813932Y-162091101D01*
X95947182Y-161841808D01*
X96029236Y-161571309D01*
X96056943Y-161290000D01*
X96043023Y-161148665D01*
X103340000Y-161148665D01*
X103340000Y-161431335D01*
X103395147Y-161708574D01*
X103503320Y-161969727D01*
X103660363Y-162204759D01*
X103860241Y-162404637D01*
X104095273Y-162561680D01*
X104356426Y-162669853D01*
X104633665Y-162725000D01*
X104916335Y-162725000D01*
X105193574Y-162669853D01*
X105454727Y-162561680D01*
X105689759Y-162404637D01*
X105889637Y-162204759D01*
X106046680Y-161969727D01*
X106154853Y-161708574D01*
X106210000Y-161431335D01*
X106210000Y-161148665D01*
X106154853Y-160871426D01*
X106046680Y-160610273D01*
X105889637Y-160375241D01*
X105689759Y-160175363D01*
X105454727Y-160018320D01*
X105193574Y-159910147D01*
X104916335Y-159855000D01*
X104633665Y-159855000D01*
X104356426Y-159910147D01*
X104095273Y-160018320D01*
X103860241Y-160175363D01*
X103660363Y-160375241D01*
X103503320Y-160610273D01*
X103395147Y-160871426D01*
X103340000Y-161148665D01*
X96043023Y-161148665D01*
X96029236Y-161008691D01*
X95947182Y-160738192D01*
X95813932Y-160488899D01*
X95634608Y-160270392D01*
X95416101Y-160091068D01*
X95166808Y-159957818D01*
X94896309Y-159875764D01*
X94685492Y-159855000D01*
X94544508Y-159855000D01*
X94333691Y-159875764D01*
X94063192Y-159957818D01*
X93813899Y-160091068D01*
X93595392Y-160270392D01*
X93416068Y-160488899D01*
X93282818Y-160738192D01*
X93200764Y-161008691D01*
X93173057Y-161290000D01*
X91005000Y-161290000D01*
X91005000Y-158115000D01*
X93173057Y-158115000D01*
X93200764Y-158396309D01*
X93282818Y-158666808D01*
X93416068Y-158916101D01*
X93595392Y-159134608D01*
X93813899Y-159313932D01*
X94063192Y-159447182D01*
X94333691Y-159529236D01*
X94544508Y-159550000D01*
X94685492Y-159550000D01*
X94896309Y-159529236D01*
X95166808Y-159447182D01*
X95416101Y-159313932D01*
X95634608Y-159134608D01*
X95813932Y-158916101D01*
X95947182Y-158666808D01*
X96029236Y-158396309D01*
X96056943Y-158115000D01*
X96029236Y-157833691D01*
X95947182Y-157563192D01*
X95813932Y-157313899D01*
X95634608Y-157095392D01*
X95416101Y-156916068D01*
X95166808Y-156782818D01*
X94896309Y-156700764D01*
X94685492Y-156680000D01*
X94544508Y-156680000D01*
X94333691Y-156700764D01*
X94063192Y-156782818D01*
X93813899Y-156916068D01*
X93595392Y-157095392D01*
X93416068Y-157313899D01*
X93282818Y-157563192D01*
X93200764Y-157833691D01*
X93173057Y-158115000D01*
X91005000Y-158115000D01*
X91005000Y-154798665D01*
X95800000Y-154798665D01*
X95800000Y-155081335D01*
X95855147Y-155358574D01*
X95963320Y-155619727D01*
X96120363Y-155854759D01*
X96320241Y-156054637D01*
X96555273Y-156211680D01*
X96816426Y-156319853D01*
X97093665Y-156375000D01*
X97376335Y-156375000D01*
X97653574Y-156319853D01*
X97914727Y-156211680D01*
X98149759Y-156054637D01*
X98349637Y-155854759D01*
X98506680Y-155619727D01*
X98614853Y-155358574D01*
X98670000Y-155081335D01*
X98670000Y-154798665D01*
X100800000Y-154798665D01*
X100800000Y-155081335D01*
X100855147Y-155358574D01*
X100963320Y-155619727D01*
X101120363Y-155854759D01*
X101320241Y-156054637D01*
X101555273Y-156211680D01*
X101816426Y-156319853D01*
X102093665Y-156375000D01*
X102376335Y-156375000D01*
X102653574Y-156319853D01*
X102914727Y-156211680D01*
X103149759Y-156054637D01*
X103349637Y-155854759D01*
X103506680Y-155619727D01*
X103614853Y-155358574D01*
X103670000Y-155081335D01*
X103670000Y-154798665D01*
X103614853Y-154521426D01*
X103506680Y-154260273D01*
X103349637Y-154025241D01*
X103149759Y-153825363D01*
X102914727Y-153668320D01*
X102653574Y-153560147D01*
X102376335Y-153505000D01*
X102093665Y-153505000D01*
X101816426Y-153560147D01*
X101555273Y-153668320D01*
X101320241Y-153825363D01*
X101120363Y-154025241D01*
X100963320Y-154260273D01*
X100855147Y-154521426D01*
X100800000Y-154798665D01*
X98670000Y-154798665D01*
X98614853Y-154521426D01*
X98506680Y-154260273D01*
X98349637Y-154025241D01*
X98149759Y-153825363D01*
X97914727Y-153668320D01*
X97653574Y-153560147D01*
X97376335Y-153505000D01*
X97093665Y-153505000D01*
X96816426Y-153560147D01*
X96555273Y-153668320D01*
X96320241Y-153825363D01*
X96120363Y-154025241D01*
X95963320Y-154260273D01*
X95855147Y-154521426D01*
X95800000Y-154798665D01*
X91005000Y-154798665D01*
X91005000Y-151407702D01*
X91896903Y-151407702D01*
X91968486Y-151651671D01*
X92223996Y-151772571D01*
X92498184Y-151841300D01*
X92780512Y-151855217D01*
X93060130Y-151813787D01*
X93326292Y-151718603D01*
X93451514Y-151651671D01*
X93523097Y-151407702D01*
X93409903Y-151294508D01*
X94450000Y-151294508D01*
X94450000Y-152235491D01*
X94470764Y-152446308D01*
X94552818Y-152716807D01*
X94686068Y-152966100D01*
X94865392Y-153184607D01*
X95083899Y-153363932D01*
X95333192Y-153497182D01*
X95603691Y-153579236D01*
X95885000Y-153606943D01*
X96166308Y-153579236D01*
X96436807Y-153497182D01*
X96686100Y-153363932D01*
X96904607Y-153184608D01*
X97083932Y-152966101D01*
X97155000Y-152833142D01*
X97226068Y-152966100D01*
X97405392Y-153184607D01*
X97623899Y-153363932D01*
X97873192Y-153497182D01*
X98143691Y-153579236D01*
X98425000Y-153606943D01*
X98706308Y-153579236D01*
X98976807Y-153497182D01*
X99226100Y-153363932D01*
X99444607Y-153184608D01*
X99623932Y-152966101D01*
X99695000Y-152833142D01*
X99766068Y-152966100D01*
X99945392Y-153184607D01*
X100163899Y-153363932D01*
X100413192Y-153497182D01*
X100683691Y-153579236D01*
X100965000Y-153606943D01*
X101246308Y-153579236D01*
X101516807Y-153497182D01*
X101766100Y-153363932D01*
X101984607Y-153184608D01*
X102163932Y-152966101D01*
X102235000Y-152833142D01*
X102306068Y-152966100D01*
X102485392Y-153184607D01*
X102703899Y-153363932D01*
X102953192Y-153497182D01*
X103223691Y-153579236D01*
X103505000Y-153606943D01*
X103786308Y-153579236D01*
X104056807Y-153497182D01*
X104306100Y-153363932D01*
X104524607Y-153184608D01*
X104703932Y-152966101D01*
X104837182Y-152716808D01*
X104919236Y-152446309D01*
X104940000Y-152235492D01*
X104940000Y-152035000D01*
X106946928Y-152035000D01*
X106946928Y-154035000D01*
X106959188Y-154159482D01*
X106995498Y-154279180D01*
X107054463Y-154389494D01*
X107133815Y-154486185D01*
X107230506Y-154565537D01*
X107340820Y-154624502D01*
X107460518Y-154660812D01*
X107585000Y-154673072D01*
X109585000Y-154673072D01*
X109709482Y-154660812D01*
X109829180Y-154624502D01*
X109939494Y-154565537D01*
X110036185Y-154486185D01*
X110115537Y-154389494D01*
X110174502Y-154279180D01*
X110210812Y-154159482D01*
X110223072Y-154035000D01*
X110223072Y-152035000D01*
X110210812Y-151910518D01*
X110174502Y-151790820D01*
X110115537Y-151680506D01*
X110036185Y-151583815D01*
X109939494Y-151504463D01*
X109829180Y-151445498D01*
X109709482Y-151409188D01*
X109585000Y-151396928D01*
X107585000Y-151396928D01*
X107460518Y-151409188D01*
X107340820Y-151445498D01*
X107230506Y-151504463D01*
X107133815Y-151583815D01*
X107054463Y-151680506D01*
X106995498Y-151790820D01*
X106959188Y-151910518D01*
X106946928Y-152035000D01*
X104940000Y-152035000D01*
X104940000Y-151294509D01*
X104919236Y-151083691D01*
X104837182Y-150813192D01*
X104703932Y-150563899D01*
X104524608Y-150345392D01*
X104306101Y-150166068D01*
X104056808Y-150032818D01*
X103786309Y-149950764D01*
X103505000Y-149923057D01*
X103223692Y-149950764D01*
X102953193Y-150032818D01*
X102703900Y-150166068D01*
X102485393Y-150345392D01*
X102306068Y-150563899D01*
X102235000Y-150696858D01*
X102163932Y-150563899D01*
X101984608Y-150345392D01*
X101766101Y-150166068D01*
X101516808Y-150032818D01*
X101246309Y-149950764D01*
X100965000Y-149923057D01*
X100683692Y-149950764D01*
X100413193Y-150032818D01*
X100163900Y-150166068D01*
X99945393Y-150345392D01*
X99766068Y-150563899D01*
X99695000Y-150696858D01*
X99623932Y-150563899D01*
X99444608Y-150345392D01*
X99360000Y-150275956D01*
X99360000Y-148977289D01*
X99447289Y-148890000D01*
X113146275Y-148890000D01*
X113244866Y-149010134D01*
X113470986Y-149195706D01*
X113525791Y-149225000D01*
X113470986Y-149254294D01*
X113244866Y-149439866D01*
X113146275Y-149560000D01*
X111805932Y-149560000D01*
X111760000Y-149555476D01*
X111714068Y-149560000D01*
X111576708Y-149573529D01*
X111400460Y-149626993D01*
X111238028Y-149713814D01*
X111095656Y-149830656D01*
X110978814Y-149973028D01*
X110891993Y-150135460D01*
X110838529Y-150311708D01*
X110820476Y-150495000D01*
X110825001Y-150540942D01*
X110825000Y-155822711D01*
X109467711Y-157180000D01*
X105869396Y-157180000D01*
X105689759Y-157000363D01*
X105454727Y-156843320D01*
X105193574Y-156735147D01*
X104916335Y-156680000D01*
X104633665Y-156680000D01*
X104356426Y-156735147D01*
X104095273Y-156843320D01*
X103860241Y-157000363D01*
X103660363Y-157200241D01*
X103503320Y-157435273D01*
X103395147Y-157696426D01*
X103340000Y-157973665D01*
X103340000Y-158256335D01*
X103395147Y-158533574D01*
X103503320Y-158794727D01*
X103660363Y-159029759D01*
X103860241Y-159229637D01*
X104095273Y-159386680D01*
X104356426Y-159494853D01*
X104633665Y-159550000D01*
X104916335Y-159550000D01*
X105193574Y-159494853D01*
X105454727Y-159386680D01*
X105689759Y-159229637D01*
X105869396Y-159050000D01*
X109809068Y-159050000D01*
X109855000Y-159054524D01*
X109900932Y-159050000D01*
X110038292Y-159036471D01*
X110214540Y-158983007D01*
X110376972Y-158896186D01*
X110519344Y-158779344D01*
X110548630Y-158743659D01*
X112388660Y-156903629D01*
X112424344Y-156874344D01*
X112541186Y-156731972D01*
X112628007Y-156569540D01*
X112681471Y-156393292D01*
X112695000Y-156255932D01*
X112695000Y-156255931D01*
X112699524Y-156210000D01*
X112695000Y-156164068D01*
X112695000Y-153885000D01*
X112811928Y-153885000D01*
X112824188Y-154009482D01*
X112860498Y-154129180D01*
X112919463Y-154239494D01*
X112998815Y-154336185D01*
X113095506Y-154415537D01*
X113205820Y-154474502D01*
X113325518Y-154510812D01*
X113450000Y-154523072D01*
X114014250Y-154520000D01*
X114173000Y-154361250D01*
X114173000Y-153162000D01*
X114427000Y-153162000D01*
X114427000Y-154361250D01*
X114585750Y-154520000D01*
X115150000Y-154523072D01*
X115274482Y-154510812D01*
X115394180Y-154474502D01*
X115504494Y-154415537D01*
X115601185Y-154336185D01*
X115680537Y-154239494D01*
X115739502Y-154129180D01*
X115775812Y-154009482D01*
X115788072Y-153885000D01*
X115785000Y-153320750D01*
X115626250Y-153162000D01*
X114427000Y-153162000D01*
X114173000Y-153162000D01*
X112973750Y-153162000D01*
X112815000Y-153320750D01*
X112811928Y-153885000D01*
X112695000Y-153885000D01*
X112695000Y-151430000D01*
X113146275Y-151430000D01*
X113244866Y-151550134D01*
X113274687Y-151574607D01*
X113205820Y-151595498D01*
X113095506Y-151654463D01*
X112998815Y-151733815D01*
X112919463Y-151830506D01*
X112860498Y-151940820D01*
X112824188Y-152060518D01*
X112811928Y-152185000D01*
X112815000Y-152749250D01*
X112973750Y-152908000D01*
X114173000Y-152908000D01*
X114173000Y-152888000D01*
X114427000Y-152888000D01*
X114427000Y-152908000D01*
X115626250Y-152908000D01*
X115785000Y-152749250D01*
X115788072Y-152185000D01*
X115775812Y-152060518D01*
X115739502Y-151940820D01*
X115680537Y-151830506D01*
X115601185Y-151733815D01*
X115504494Y-151654463D01*
X115394180Y-151595498D01*
X115325313Y-151574607D01*
X115355134Y-151550134D01*
X115540706Y-151324014D01*
X115678599Y-151066034D01*
X115763513Y-150786111D01*
X115792185Y-150495000D01*
X115763513Y-150203889D01*
X115678599Y-149923966D01*
X115540706Y-149665986D01*
X115355134Y-149439866D01*
X115129014Y-149254294D01*
X115074209Y-149225000D01*
X115129014Y-149195706D01*
X115355134Y-149010134D01*
X115540706Y-148784014D01*
X115678599Y-148526034D01*
X115763513Y-148246111D01*
X115792185Y-147955000D01*
X115763513Y-147663889D01*
X115678599Y-147383966D01*
X115540706Y-147125986D01*
X115355134Y-146899866D01*
X115129014Y-146714294D01*
X115074209Y-146685000D01*
X115129014Y-146655706D01*
X115355134Y-146470134D01*
X115540706Y-146244014D01*
X115678599Y-145986034D01*
X115763513Y-145706111D01*
X115792185Y-145415000D01*
X115763513Y-145123889D01*
X115678599Y-144843966D01*
X115540706Y-144585986D01*
X115355134Y-144359866D01*
X115129014Y-144174294D01*
X115074209Y-144145000D01*
X115129014Y-144115706D01*
X115355134Y-143930134D01*
X115540706Y-143704014D01*
X115678599Y-143446034D01*
X115763513Y-143166111D01*
X115792185Y-142875000D01*
X115763513Y-142583889D01*
X115678599Y-142303966D01*
X115540706Y-142045986D01*
X115355134Y-141819866D01*
X115129014Y-141634294D01*
X114871034Y-141496401D01*
X114591111Y-141411487D01*
X114372950Y-141390000D01*
X114227050Y-141390000D01*
X114008889Y-141411487D01*
X113728966Y-141496401D01*
X113470986Y-141634294D01*
X113244866Y-141819866D01*
X113059294Y-142045986D01*
X112921401Y-142303966D01*
X112836487Y-142583889D01*
X112807815Y-142875000D01*
X112836487Y-143166111D01*
X112921401Y-143446034D01*
X113059294Y-143704014D01*
X113244866Y-143930134D01*
X113470986Y-144115706D01*
X113525791Y-144145000D01*
X113470986Y-144174294D01*
X113244866Y-144359866D01*
X113059294Y-144585986D01*
X112921401Y-144843966D01*
X112836487Y-145123889D01*
X112807815Y-145415000D01*
X112836487Y-145706111D01*
X112921401Y-145986034D01*
X113059294Y-146244014D01*
X113244866Y-146470134D01*
X113470986Y-146655706D01*
X113525791Y-146685000D01*
X113470986Y-146714294D01*
X113244866Y-146899866D01*
X113146275Y-147020000D01*
X99105935Y-147020000D01*
X99060000Y-147015476D01*
X98876708Y-147033528D01*
X98700459Y-147086993D01*
X98643880Y-147117235D01*
X98538028Y-147173814D01*
X98395656Y-147290656D01*
X98366370Y-147326341D01*
X97796336Y-147896375D01*
X97760657Y-147925656D01*
X97643815Y-148068028D01*
X97556994Y-148230460D01*
X97503529Y-148406709D01*
X97485476Y-148590000D01*
X97490001Y-148635942D01*
X97490000Y-150275956D01*
X97405393Y-150345392D01*
X97226068Y-150563899D01*
X97155000Y-150696858D01*
X97083932Y-150563899D01*
X96904608Y-150345392D01*
X96686101Y-150166068D01*
X96436808Y-150032818D01*
X96166309Y-149950764D01*
X95885000Y-149923057D01*
X95603692Y-149950764D01*
X95333193Y-150032818D01*
X95083900Y-150166068D01*
X94865393Y-150345392D01*
X94686068Y-150563899D01*
X94552818Y-150813192D01*
X94470764Y-151083691D01*
X94450000Y-151294508D01*
X93409903Y-151294508D01*
X92710000Y-150594605D01*
X91896903Y-151407702D01*
X91005000Y-151407702D01*
X91005000Y-150485512D01*
X91269783Y-150485512D01*
X91311213Y-150765130D01*
X91406397Y-151031292D01*
X91473329Y-151156514D01*
X91717298Y-151228097D01*
X92530395Y-150415000D01*
X92889605Y-150415000D01*
X93702702Y-151228097D01*
X93946671Y-151156514D01*
X94067571Y-150901004D01*
X94136300Y-150626816D01*
X94150217Y-150344488D01*
X94108787Y-150064870D01*
X94013603Y-149798708D01*
X93946671Y-149673486D01*
X93702702Y-149601903D01*
X92889605Y-150415000D01*
X92530395Y-150415000D01*
X91717298Y-149601903D01*
X91473329Y-149673486D01*
X91352429Y-149928996D01*
X91283700Y-150203184D01*
X91269783Y-150485512D01*
X91005000Y-150485512D01*
X91005000Y-149422298D01*
X91896903Y-149422298D01*
X92710000Y-150235395D01*
X93523097Y-149422298D01*
X93451514Y-149178329D01*
X93196004Y-149057429D01*
X92921816Y-148988700D01*
X92639488Y-148974783D01*
X92359870Y-149016213D01*
X92093708Y-149111397D01*
X91968486Y-149178329D01*
X91896903Y-149422298D01*
X91005000Y-149422298D01*
X91005000Y-145273665D01*
X91275000Y-145273665D01*
X91275000Y-145556335D01*
X91330147Y-145833574D01*
X91438320Y-146094727D01*
X91595363Y-146329759D01*
X91795241Y-146529637D01*
X92030273Y-146686680D01*
X92291426Y-146794853D01*
X92568665Y-146850000D01*
X92851335Y-146850000D01*
X93128574Y-146794853D01*
X93389727Y-146686680D01*
X93624759Y-146529637D01*
X93824637Y-146329759D01*
X93981680Y-146094727D01*
X94089853Y-145833574D01*
X94145000Y-145556335D01*
X94145000Y-145273665D01*
X94089853Y-144996426D01*
X93981680Y-144735273D01*
X93824637Y-144500241D01*
X93624759Y-144300363D01*
X93582311Y-144272000D01*
X94450000Y-144272000D01*
X94450000Y-144672000D01*
X94502350Y-144949514D01*
X94607834Y-145211483D01*
X94762399Y-145447839D01*
X94960105Y-145649500D01*
X95193354Y-145808715D01*
X95453182Y-145919367D01*
X95535961Y-145936904D01*
X95758000Y-145814915D01*
X95758000Y-144272000D01*
X94450000Y-144272000D01*
X93582311Y-144272000D01*
X93389727Y-144143320D01*
X93128574Y-144035147D01*
X92851335Y-143980000D01*
X92568665Y-143980000D01*
X92291426Y-144035147D01*
X92030273Y-144143320D01*
X91795241Y-144300363D01*
X91595363Y-144500241D01*
X91438320Y-144735273D01*
X91330147Y-144996426D01*
X91275000Y-145273665D01*
X91005000Y-145273665D01*
X91005000Y-143618000D01*
X94450000Y-143618000D01*
X94450000Y-144018000D01*
X95758000Y-144018000D01*
X95758000Y-142475085D01*
X96012000Y-142475085D01*
X96012000Y-144018000D01*
X96032000Y-144018000D01*
X96032000Y-144272000D01*
X96012000Y-144272000D01*
X96012000Y-145814915D01*
X96234039Y-145936904D01*
X96316818Y-145919367D01*
X96576646Y-145808715D01*
X96809895Y-145649500D01*
X97007601Y-145447839D01*
X97157735Y-145218258D01*
X97226068Y-145346100D01*
X97405392Y-145564607D01*
X97623899Y-145743932D01*
X97873192Y-145877182D01*
X98143691Y-145959236D01*
X98425000Y-145986943D01*
X98706308Y-145959236D01*
X98976807Y-145877182D01*
X99226100Y-145743932D01*
X99444607Y-145564608D01*
X99623932Y-145346101D01*
X99695000Y-145213142D01*
X99766068Y-145346100D01*
X99945392Y-145564607D01*
X100163899Y-145743932D01*
X100413192Y-145877182D01*
X100683691Y-145959236D01*
X100965000Y-145986943D01*
X101246308Y-145959236D01*
X101516807Y-145877182D01*
X101766100Y-145743932D01*
X101984607Y-145564608D01*
X102077419Y-145451517D01*
X102079188Y-145469482D01*
X102115498Y-145589180D01*
X102174463Y-145699494D01*
X102253815Y-145796185D01*
X102350506Y-145875537D01*
X102460820Y-145934502D01*
X102580518Y-145970812D01*
X102705000Y-145983072D01*
X104305000Y-145983072D01*
X104429482Y-145970812D01*
X104549180Y-145934502D01*
X104659494Y-145875537D01*
X104756185Y-145796185D01*
X104835537Y-145699494D01*
X104894502Y-145589180D01*
X104930812Y-145469482D01*
X104943072Y-145345000D01*
X104943072Y-142945000D01*
X104936178Y-142875000D01*
X106942089Y-142875000D01*
X106973657Y-143195516D01*
X107067148Y-143503715D01*
X107218969Y-143787752D01*
X107423286Y-144036714D01*
X107672248Y-144241031D01*
X107956285Y-144392852D01*
X108264484Y-144486343D01*
X108504678Y-144510000D01*
X108665322Y-144510000D01*
X108905516Y-144486343D01*
X109213715Y-144392852D01*
X109497752Y-144241031D01*
X109746714Y-144036714D01*
X109951031Y-143787752D01*
X110102852Y-143503715D01*
X110196343Y-143195516D01*
X110227911Y-142875000D01*
X110196343Y-142554484D01*
X110102852Y-142246285D01*
X109951031Y-141962248D01*
X109746714Y-141713286D01*
X109497752Y-141508969D01*
X109213715Y-141357148D01*
X108905516Y-141263657D01*
X108665322Y-141240000D01*
X108504678Y-141240000D01*
X108264484Y-141263657D01*
X107956285Y-141357148D01*
X107672248Y-141508969D01*
X107423286Y-141713286D01*
X107218969Y-141962248D01*
X107067148Y-142246285D01*
X106973657Y-142554484D01*
X106942089Y-142875000D01*
X104936178Y-142875000D01*
X104930812Y-142820518D01*
X104894502Y-142700820D01*
X104835537Y-142590506D01*
X104756185Y-142493815D01*
X104659494Y-142414463D01*
X104549180Y-142355498D01*
X104429482Y-142319188D01*
X104305000Y-142306928D01*
X102705000Y-142306928D01*
X102580518Y-142319188D01*
X102460820Y-142355498D01*
X102350506Y-142414463D01*
X102253815Y-142493815D01*
X102174463Y-142590506D01*
X102115498Y-142700820D01*
X102079188Y-142820518D01*
X102077419Y-142838482D01*
X101984608Y-142725392D01*
X101766101Y-142546068D01*
X101516808Y-142412818D01*
X101246309Y-142330764D01*
X100965000Y-142303057D01*
X100683692Y-142330764D01*
X100413193Y-142412818D01*
X100163900Y-142546068D01*
X99945393Y-142725392D01*
X99766068Y-142943899D01*
X99695000Y-143076858D01*
X99623932Y-142943899D01*
X99444608Y-142725392D01*
X99226101Y-142546068D01*
X98976808Y-142412818D01*
X98706309Y-142330764D01*
X98425000Y-142303057D01*
X98143692Y-142330764D01*
X97873193Y-142412818D01*
X97623900Y-142546068D01*
X97405393Y-142725392D01*
X97226068Y-142943899D01*
X97157735Y-143071741D01*
X97007601Y-142842161D01*
X96809895Y-142640500D01*
X96576646Y-142481285D01*
X96316818Y-142370633D01*
X96234039Y-142353096D01*
X96012000Y-142475085D01*
X95758000Y-142475085D01*
X95535961Y-142353096D01*
X95453182Y-142370633D01*
X95193354Y-142481285D01*
X94960105Y-142640500D01*
X94762399Y-142842161D01*
X94607834Y-143078517D01*
X94502350Y-143340486D01*
X94450000Y-143618000D01*
X91005000Y-143618000D01*
X91005000Y-140193665D01*
X93180000Y-140193665D01*
X93180000Y-140476335D01*
X93235147Y-140753574D01*
X93343320Y-141014727D01*
X93500363Y-141249759D01*
X93700241Y-141449637D01*
X93935273Y-141606680D01*
X94196426Y-141714853D01*
X94473665Y-141770000D01*
X94756335Y-141770000D01*
X95033574Y-141714853D01*
X95294727Y-141606680D01*
X95529759Y-141449637D01*
X95729637Y-141249759D01*
X95886680Y-141014727D01*
X95994853Y-140753574D01*
X96050000Y-140476335D01*
X96050000Y-140335000D01*
X103333057Y-140335000D01*
X103360764Y-140616309D01*
X103442818Y-140886808D01*
X103576068Y-141136101D01*
X103755392Y-141354608D01*
X103973899Y-141533932D01*
X104223192Y-141667182D01*
X104493691Y-141749236D01*
X104704508Y-141770000D01*
X104845492Y-141770000D01*
X105056309Y-141749236D01*
X105326808Y-141667182D01*
X105576101Y-141533932D01*
X105794608Y-141354608D01*
X105973932Y-141136101D01*
X106107182Y-140886808D01*
X106189236Y-140616309D01*
X106216943Y-140335000D01*
X106189236Y-140053691D01*
X106107182Y-139783192D01*
X105973932Y-139533899D01*
X105794608Y-139315392D01*
X105576101Y-139136068D01*
X105326808Y-139002818D01*
X105056309Y-138920764D01*
X104845492Y-138900000D01*
X104704508Y-138900000D01*
X104493691Y-138920764D01*
X104223192Y-139002818D01*
X103973899Y-139136068D01*
X103755392Y-139315392D01*
X103576068Y-139533899D01*
X103442818Y-139783192D01*
X103360764Y-140053691D01*
X103333057Y-140335000D01*
X96050000Y-140335000D01*
X96050000Y-140193665D01*
X95994853Y-139916426D01*
X95886680Y-139655273D01*
X95729637Y-139420241D01*
X95529759Y-139220363D01*
X95294727Y-139063320D01*
X95033574Y-138955147D01*
X94756335Y-138900000D01*
X94473665Y-138900000D01*
X94196426Y-138955147D01*
X93935273Y-139063320D01*
X93700241Y-139220363D01*
X93500363Y-139420241D01*
X93343320Y-139655273D01*
X93235147Y-139916426D01*
X93180000Y-140193665D01*
X91005000Y-140193665D01*
X91005000Y-136795000D01*
X108851928Y-136795000D01*
X108851928Y-138795000D01*
X108864188Y-138919482D01*
X108900498Y-139039180D01*
X108959463Y-139149494D01*
X109038815Y-139246185D01*
X109135506Y-139325537D01*
X109245820Y-139384502D01*
X109365518Y-139420812D01*
X109490000Y-139433072D01*
X111490000Y-139433072D01*
X111614482Y-139420812D01*
X111734180Y-139384502D01*
X111844494Y-139325537D01*
X111941185Y-139246185D01*
X112020537Y-139149494D01*
X112079502Y-139039180D01*
X112115812Y-138919482D01*
X112128072Y-138795000D01*
X112128072Y-136795000D01*
X112115812Y-136670518D01*
X112079502Y-136550820D01*
X112020537Y-136440506D01*
X111941185Y-136343815D01*
X111844494Y-136264463D01*
X111734180Y-136205498D01*
X111614482Y-136169188D01*
X111490000Y-136156928D01*
X109490000Y-136156928D01*
X109365518Y-136169188D01*
X109245820Y-136205498D01*
X109135506Y-136264463D01*
X109038815Y-136343815D01*
X108959463Y-136440506D01*
X108900498Y-136550820D01*
X108864188Y-136670518D01*
X108851928Y-136795000D01*
X91005000Y-136795000D01*
X91005000Y-133930413D01*
X109534192Y-133930413D01*
X109629956Y-134194814D01*
X109919571Y-134335704D01*
X110231108Y-134417384D01*
X110552595Y-134436718D01*
X110871675Y-134392961D01*
X111176088Y-134287795D01*
X111350044Y-134194814D01*
X111445808Y-133930413D01*
X110490000Y-132974605D01*
X109534192Y-133930413D01*
X91005000Y-133930413D01*
X91005000Y-132857595D01*
X108848282Y-132857595D01*
X108892039Y-133176675D01*
X108997205Y-133481088D01*
X109090186Y-133655044D01*
X109354587Y-133750808D01*
X110310395Y-132795000D01*
X110669605Y-132795000D01*
X111625413Y-133750808D01*
X111889814Y-133655044D01*
X112030704Y-133365429D01*
X112112384Y-133053892D01*
X112131718Y-132732405D01*
X112087961Y-132413325D01*
X111982795Y-132108912D01*
X111889814Y-131934956D01*
X111625413Y-131839192D01*
X110669605Y-132795000D01*
X110310395Y-132795000D01*
X109354587Y-131839192D01*
X109090186Y-131934956D01*
X108949296Y-132224571D01*
X108867616Y-132536108D01*
X108848282Y-132857595D01*
X91005000Y-132857595D01*
X91005000Y-131659587D01*
X109534192Y-131659587D01*
X110490000Y-132615395D01*
X111445808Y-131659587D01*
X111350044Y-131395186D01*
X111060429Y-131254296D01*
X110748892Y-131172616D01*
X110427405Y-131153282D01*
X110108325Y-131197039D01*
X109803912Y-131302205D01*
X109629956Y-131395186D01*
X109534192Y-131659587D01*
X91005000Y-131659587D01*
X91005000Y-130375000D01*
X116005000Y-130375000D01*
X116005001Y-162995000D01*
M02*
