G04 #@! TF.GenerationSoftware,KiCad,Pcbnew,5.1.2-f72e74a~84~ubuntu19.04.1*
G04 #@! TF.CreationDate,2019-06-26T10:30:51+03:00*
G04 #@! TF.ProjectId,IR2153_Board,49523231-3533-45f4-926f-6172642e6b69,rev?*
G04 #@! TF.SameCoordinates,Original*
G04 #@! TF.FileFunction,Soldermask,Bot*
G04 #@! TF.FilePolarity,Negative*
%FSLAX46Y46*%
G04 Gerber Fmt 4.6, Leading zero omitted, Abs format (unit mm)*
G04 Created by KiCad (PCBNEW 5.1.2-f72e74a~84~ubuntu19.04.1) date 2019-06-26 10:30:51*
%MOMM*%
%LPD*%
G04 APERTURE LIST*
%ADD10C,0.400000*%
%ADD11C,0.100000*%
G04 APERTURE END LIST*
D10*
X90170000Y-163830000D02*
X90170000Y-129540000D01*
X116840000Y-163830000D02*
X90170000Y-163830000D01*
X116840000Y-129540000D02*
X116840000Y-163830000D01*
X90170000Y-129540000D02*
X116840000Y-129540000D01*
D11*
G36*
X105023228Y-160471703D02*
G01*
X105178100Y-160535853D01*
X105317481Y-160628985D01*
X105436015Y-160747519D01*
X105529147Y-160886900D01*
X105593297Y-161041772D01*
X105626000Y-161206184D01*
X105626000Y-161373816D01*
X105593297Y-161538228D01*
X105529147Y-161693100D01*
X105436015Y-161832481D01*
X105317481Y-161951015D01*
X105178100Y-162044147D01*
X105023228Y-162108297D01*
X104858816Y-162141000D01*
X104691184Y-162141000D01*
X104526772Y-162108297D01*
X104371900Y-162044147D01*
X104232519Y-161951015D01*
X104113985Y-161832481D01*
X104020853Y-161693100D01*
X103956703Y-161538228D01*
X103924000Y-161373816D01*
X103924000Y-161206184D01*
X103956703Y-161041772D01*
X104020853Y-160886900D01*
X104113985Y-160747519D01*
X104232519Y-160628985D01*
X104371900Y-160535853D01*
X104526772Y-160471703D01*
X104691184Y-160439000D01*
X104858816Y-160439000D01*
X105023228Y-160471703D01*
X105023228Y-160471703D01*
G37*
G36*
X94781823Y-160451313D02*
G01*
X94942242Y-160499976D01*
X95009361Y-160535852D01*
X95090078Y-160578996D01*
X95219659Y-160685341D01*
X95326004Y-160814922D01*
X95326005Y-160814924D01*
X95405024Y-160962758D01*
X95453687Y-161123177D01*
X95470117Y-161290000D01*
X95453687Y-161456823D01*
X95405024Y-161617242D01*
X95364477Y-161693100D01*
X95326004Y-161765078D01*
X95219659Y-161894659D01*
X95090078Y-162001004D01*
X95090076Y-162001005D01*
X94942242Y-162080024D01*
X94781823Y-162128687D01*
X94656804Y-162141000D01*
X94573196Y-162141000D01*
X94448177Y-162128687D01*
X94287758Y-162080024D01*
X94139924Y-162001005D01*
X94139922Y-162001004D01*
X94010341Y-161894659D01*
X93903996Y-161765078D01*
X93865523Y-161693100D01*
X93824976Y-161617242D01*
X93776313Y-161456823D01*
X93759883Y-161290000D01*
X93776313Y-161123177D01*
X93824976Y-160962758D01*
X93903995Y-160814924D01*
X93903996Y-160814922D01*
X94010341Y-160685341D01*
X94139922Y-160578996D01*
X94220639Y-160535852D01*
X94287758Y-160499976D01*
X94448177Y-160451313D01*
X94573196Y-160439000D01*
X94656804Y-160439000D01*
X94781823Y-160451313D01*
X94781823Y-160451313D01*
G37*
G36*
X94781823Y-157276313D02*
G01*
X94942242Y-157324976D01*
X95009361Y-157360852D01*
X95090078Y-157403996D01*
X95219659Y-157510341D01*
X95326004Y-157639922D01*
X95326005Y-157639924D01*
X95405024Y-157787758D01*
X95453687Y-157948177D01*
X95470117Y-158115000D01*
X95453687Y-158281823D01*
X95405024Y-158442242D01*
X95364477Y-158518100D01*
X95326004Y-158590078D01*
X95219659Y-158719659D01*
X95090078Y-158826004D01*
X95090076Y-158826005D01*
X94942242Y-158905024D01*
X94781823Y-158953687D01*
X94656804Y-158966000D01*
X94573196Y-158966000D01*
X94448177Y-158953687D01*
X94287758Y-158905024D01*
X94139924Y-158826005D01*
X94139922Y-158826004D01*
X94010341Y-158719659D01*
X93903996Y-158590078D01*
X93865523Y-158518100D01*
X93824976Y-158442242D01*
X93776313Y-158281823D01*
X93759883Y-158115000D01*
X93776313Y-157948177D01*
X93824976Y-157787758D01*
X93903995Y-157639924D01*
X93903996Y-157639922D01*
X94010341Y-157510341D01*
X94139922Y-157403996D01*
X94220639Y-157360852D01*
X94287758Y-157324976D01*
X94448177Y-157276313D01*
X94573196Y-157264000D01*
X94656804Y-157264000D01*
X94781823Y-157276313D01*
X94781823Y-157276313D01*
G37*
G36*
X105023228Y-157296703D02*
G01*
X105178100Y-157360853D01*
X105317481Y-157453985D01*
X105436015Y-157572519D01*
X105529147Y-157711900D01*
X105593297Y-157866772D01*
X105626000Y-158031184D01*
X105626000Y-158198816D01*
X105593297Y-158363228D01*
X105529147Y-158518100D01*
X105436015Y-158657481D01*
X105317481Y-158776015D01*
X105178100Y-158869147D01*
X105023228Y-158933297D01*
X104858816Y-158966000D01*
X104691184Y-158966000D01*
X104526772Y-158933297D01*
X104371900Y-158869147D01*
X104232519Y-158776015D01*
X104113985Y-158657481D01*
X104020853Y-158518100D01*
X103956703Y-158363228D01*
X103924000Y-158198816D01*
X103924000Y-158031184D01*
X103956703Y-157866772D01*
X104020853Y-157711900D01*
X104113985Y-157572519D01*
X104232519Y-157453985D01*
X104371900Y-157360853D01*
X104526772Y-157296703D01*
X104691184Y-157264000D01*
X104858816Y-157264000D01*
X105023228Y-157296703D01*
X105023228Y-157296703D01*
G37*
G36*
X97483228Y-154121703D02*
G01*
X97638100Y-154185853D01*
X97777481Y-154278985D01*
X97896015Y-154397519D01*
X97989147Y-154536900D01*
X98053297Y-154691772D01*
X98086000Y-154856184D01*
X98086000Y-155023816D01*
X98053297Y-155188228D01*
X97989147Y-155343100D01*
X97896015Y-155482481D01*
X97777481Y-155601015D01*
X97638100Y-155694147D01*
X97483228Y-155758297D01*
X97318816Y-155791000D01*
X97151184Y-155791000D01*
X96986772Y-155758297D01*
X96831900Y-155694147D01*
X96692519Y-155601015D01*
X96573985Y-155482481D01*
X96480853Y-155343100D01*
X96416703Y-155188228D01*
X96384000Y-155023816D01*
X96384000Y-154856184D01*
X96416703Y-154691772D01*
X96480853Y-154536900D01*
X96573985Y-154397519D01*
X96692519Y-154278985D01*
X96831900Y-154185853D01*
X96986772Y-154121703D01*
X97151184Y-154089000D01*
X97318816Y-154089000D01*
X97483228Y-154121703D01*
X97483228Y-154121703D01*
G37*
G36*
X102483228Y-154121703D02*
G01*
X102638100Y-154185853D01*
X102777481Y-154278985D01*
X102896015Y-154397519D01*
X102989147Y-154536900D01*
X103053297Y-154691772D01*
X103086000Y-154856184D01*
X103086000Y-155023816D01*
X103053297Y-155188228D01*
X102989147Y-155343100D01*
X102896015Y-155482481D01*
X102777481Y-155601015D01*
X102638100Y-155694147D01*
X102483228Y-155758297D01*
X102318816Y-155791000D01*
X102151184Y-155791000D01*
X101986772Y-155758297D01*
X101831900Y-155694147D01*
X101692519Y-155601015D01*
X101573985Y-155482481D01*
X101480853Y-155343100D01*
X101416703Y-155188228D01*
X101384000Y-155023816D01*
X101384000Y-154856184D01*
X101416703Y-154691772D01*
X101480853Y-154536900D01*
X101573985Y-154397519D01*
X101692519Y-154278985D01*
X101831900Y-154185853D01*
X101986772Y-154121703D01*
X102151184Y-154089000D01*
X102318816Y-154089000D01*
X102483228Y-154121703D01*
X102483228Y-154121703D01*
G37*
G36*
X109636000Y-154086000D02*
G01*
X107534000Y-154086000D01*
X107534000Y-151984000D01*
X109636000Y-151984000D01*
X109636000Y-154086000D01*
X109636000Y-154086000D01*
G37*
G36*
X115201000Y-153936000D02*
G01*
X113399000Y-153936000D01*
X113399000Y-152134000D01*
X115201000Y-152134000D01*
X115201000Y-153936000D01*
X115201000Y-153936000D01*
G37*
G36*
X103671823Y-150526313D02*
G01*
X103832242Y-150574976D01*
X103964906Y-150645886D01*
X103980078Y-150653996D01*
X104109659Y-150760341D01*
X104216004Y-150889922D01*
X104216005Y-150889924D01*
X104295024Y-151037758D01*
X104343687Y-151198178D01*
X104356000Y-151323197D01*
X104356000Y-152206804D01*
X104343687Y-152331823D01*
X104295024Y-152492242D01*
X104224114Y-152624906D01*
X104216004Y-152640078D01*
X104109659Y-152769659D01*
X103980077Y-152876005D01*
X103832241Y-152955024D01*
X103671822Y-153003687D01*
X103505000Y-153020117D01*
X103338177Y-153003687D01*
X103177758Y-152955024D01*
X103029924Y-152876005D01*
X103029922Y-152876004D01*
X102900341Y-152769659D01*
X102793995Y-152640077D01*
X102714976Y-152492241D01*
X102666313Y-152331822D01*
X102654000Y-152206803D01*
X102654000Y-151323197D01*
X102666314Y-151198177D01*
X102714977Y-151037758D01*
X102793996Y-150889924D01*
X102793997Y-150889922D01*
X102900342Y-150760341D01*
X103029923Y-150653996D01*
X103045095Y-150645886D01*
X103177759Y-150574976D01*
X103338178Y-150526313D01*
X103505000Y-150509883D01*
X103671823Y-150526313D01*
X103671823Y-150526313D01*
G37*
G36*
X101131823Y-150526313D02*
G01*
X101292242Y-150574976D01*
X101424906Y-150645886D01*
X101440078Y-150653996D01*
X101569659Y-150760341D01*
X101676004Y-150889922D01*
X101676005Y-150889924D01*
X101755024Y-151037758D01*
X101803687Y-151198178D01*
X101816000Y-151323197D01*
X101816000Y-152206804D01*
X101803687Y-152331823D01*
X101755024Y-152492242D01*
X101684114Y-152624906D01*
X101676004Y-152640078D01*
X101569659Y-152769659D01*
X101440077Y-152876005D01*
X101292241Y-152955024D01*
X101131822Y-153003687D01*
X100965000Y-153020117D01*
X100798177Y-153003687D01*
X100637758Y-152955024D01*
X100489924Y-152876005D01*
X100489922Y-152876004D01*
X100360341Y-152769659D01*
X100253995Y-152640077D01*
X100174976Y-152492241D01*
X100126313Y-152331822D01*
X100114000Y-152206803D01*
X100114000Y-151323197D01*
X100126314Y-151198177D01*
X100174977Y-151037758D01*
X100253996Y-150889924D01*
X100253997Y-150889922D01*
X100360342Y-150760341D01*
X100489923Y-150653996D01*
X100505095Y-150645886D01*
X100637759Y-150574976D01*
X100798178Y-150526313D01*
X100965000Y-150509883D01*
X101131823Y-150526313D01*
X101131823Y-150526313D01*
G37*
G36*
X98591823Y-150526313D02*
G01*
X98752242Y-150574976D01*
X98884906Y-150645886D01*
X98900078Y-150653996D01*
X99029659Y-150760341D01*
X99136004Y-150889922D01*
X99136005Y-150889924D01*
X99215024Y-151037758D01*
X99263687Y-151198178D01*
X99276000Y-151323197D01*
X99276000Y-152206804D01*
X99263687Y-152331823D01*
X99215024Y-152492242D01*
X99144114Y-152624906D01*
X99136004Y-152640078D01*
X99029659Y-152769659D01*
X98900077Y-152876005D01*
X98752241Y-152955024D01*
X98591822Y-153003687D01*
X98425000Y-153020117D01*
X98258177Y-153003687D01*
X98097758Y-152955024D01*
X97949924Y-152876005D01*
X97949922Y-152876004D01*
X97820341Y-152769659D01*
X97713995Y-152640077D01*
X97634976Y-152492241D01*
X97586313Y-152331822D01*
X97574000Y-152206803D01*
X97574000Y-151323197D01*
X97586314Y-151198177D01*
X97634977Y-151037758D01*
X97713996Y-150889924D01*
X97713997Y-150889922D01*
X97820342Y-150760341D01*
X97949923Y-150653996D01*
X97965095Y-150645886D01*
X98097759Y-150574976D01*
X98258178Y-150526313D01*
X98425000Y-150509883D01*
X98591823Y-150526313D01*
X98591823Y-150526313D01*
G37*
G36*
X96051823Y-150526313D02*
G01*
X96212242Y-150574976D01*
X96344906Y-150645886D01*
X96360078Y-150653996D01*
X96489659Y-150760341D01*
X96596004Y-150889922D01*
X96596005Y-150889924D01*
X96675024Y-151037758D01*
X96723687Y-151198178D01*
X96736000Y-151323197D01*
X96736000Y-152206804D01*
X96723687Y-152331823D01*
X96675024Y-152492242D01*
X96604114Y-152624906D01*
X96596004Y-152640078D01*
X96489659Y-152769659D01*
X96360077Y-152876005D01*
X96212241Y-152955024D01*
X96051822Y-153003687D01*
X95885000Y-153020117D01*
X95718177Y-153003687D01*
X95557758Y-152955024D01*
X95409924Y-152876005D01*
X95409922Y-152876004D01*
X95280341Y-152769659D01*
X95173995Y-152640077D01*
X95094976Y-152492241D01*
X95046313Y-152331822D01*
X95034000Y-152206803D01*
X95034000Y-151323197D01*
X95046314Y-151198177D01*
X95094977Y-151037758D01*
X95173996Y-150889924D01*
X95173997Y-150889922D01*
X95280342Y-150760341D01*
X95409923Y-150653996D01*
X95425095Y-150645886D01*
X95557759Y-150574976D01*
X95718178Y-150526313D01*
X95885000Y-150509883D01*
X96051823Y-150526313D01*
X96051823Y-150526313D01*
G37*
G36*
X114410443Y-149600519D02*
G01*
X114476627Y-149607037D01*
X114646466Y-149658557D01*
X114646468Y-149658558D01*
X114724729Y-149700390D01*
X114802991Y-149742222D01*
X114817324Y-149753985D01*
X114940186Y-149854814D01*
X115023448Y-149956271D01*
X115052778Y-149992009D01*
X115136443Y-150148534D01*
X115187963Y-150318373D01*
X115205359Y-150495000D01*
X115187963Y-150671627D01*
X115136443Y-150841466D01*
X115052778Y-150997991D01*
X115023448Y-151033729D01*
X114940186Y-151135186D01*
X114838729Y-151218448D01*
X114802991Y-151247778D01*
X114802989Y-151247779D01*
X114661888Y-151323200D01*
X114646466Y-151331443D01*
X114476627Y-151382963D01*
X114410443Y-151389481D01*
X114344260Y-151396000D01*
X114255740Y-151396000D01*
X114189557Y-151389481D01*
X114123373Y-151382963D01*
X113953534Y-151331443D01*
X113938113Y-151323200D01*
X113797011Y-151247779D01*
X113797009Y-151247778D01*
X113761271Y-151218448D01*
X113659814Y-151135186D01*
X113576552Y-151033729D01*
X113547222Y-150997991D01*
X113463557Y-150841466D01*
X113412037Y-150671627D01*
X113394641Y-150495000D01*
X113412037Y-150318373D01*
X113463557Y-150148534D01*
X113547222Y-149992009D01*
X113576552Y-149956271D01*
X113659814Y-149854814D01*
X113782676Y-149753985D01*
X113797009Y-149742222D01*
X113875271Y-149700390D01*
X113953532Y-149658558D01*
X113953534Y-149658557D01*
X114123373Y-149607037D01*
X114189557Y-149600519D01*
X114255740Y-149594000D01*
X114344260Y-149594000D01*
X114410443Y-149600519D01*
X114410443Y-149600519D01*
G37*
G36*
X92958228Y-149596703D02*
G01*
X93113100Y-149660853D01*
X93252481Y-149753985D01*
X93371015Y-149872519D01*
X93464147Y-150011900D01*
X93528297Y-150166772D01*
X93561000Y-150331184D01*
X93561000Y-150498816D01*
X93528297Y-150663228D01*
X93464147Y-150818100D01*
X93371015Y-150957481D01*
X93252481Y-151076015D01*
X93113100Y-151169147D01*
X92958228Y-151233297D01*
X92793816Y-151266000D01*
X92626184Y-151266000D01*
X92461772Y-151233297D01*
X92306900Y-151169147D01*
X92167519Y-151076015D01*
X92048985Y-150957481D01*
X91955853Y-150818100D01*
X91891703Y-150663228D01*
X91859000Y-150498816D01*
X91859000Y-150331184D01*
X91891703Y-150166772D01*
X91955853Y-150011900D01*
X92048985Y-149872519D01*
X92167519Y-149753985D01*
X92306900Y-149660853D01*
X92461772Y-149596703D01*
X92626184Y-149564000D01*
X92793816Y-149564000D01*
X92958228Y-149596703D01*
X92958228Y-149596703D01*
G37*
G36*
X101795562Y-147033181D02*
G01*
X101830481Y-147043774D01*
X101862663Y-147060976D01*
X101890873Y-147084127D01*
X101914024Y-147112337D01*
X101931226Y-147144519D01*
X101941819Y-147179438D01*
X101946000Y-147221895D01*
X101946000Y-148688105D01*
X101941819Y-148730562D01*
X101931226Y-148765481D01*
X101914024Y-148797663D01*
X101890873Y-148825873D01*
X101862663Y-148849024D01*
X101830481Y-148866226D01*
X101795562Y-148876819D01*
X101753105Y-148881000D01*
X100611895Y-148881000D01*
X100569438Y-148876819D01*
X100534519Y-148866226D01*
X100502337Y-148849024D01*
X100474127Y-148825873D01*
X100450976Y-148797663D01*
X100433774Y-148765481D01*
X100423181Y-148730562D01*
X100419000Y-148688105D01*
X100419000Y-147221895D01*
X100423181Y-147179438D01*
X100433774Y-147144519D01*
X100450976Y-147112337D01*
X100474127Y-147084127D01*
X100502337Y-147060976D01*
X100534519Y-147043774D01*
X100569438Y-147033181D01*
X100611895Y-147029000D01*
X101753105Y-147029000D01*
X101795562Y-147033181D01*
X101795562Y-147033181D01*
G37*
G36*
X98820562Y-147033181D02*
G01*
X98855481Y-147043774D01*
X98887663Y-147060976D01*
X98915873Y-147084127D01*
X98939024Y-147112337D01*
X98956226Y-147144519D01*
X98966819Y-147179438D01*
X98971000Y-147221895D01*
X98971000Y-148688105D01*
X98966819Y-148730562D01*
X98956226Y-148765481D01*
X98939024Y-148797663D01*
X98915873Y-148825873D01*
X98887663Y-148849024D01*
X98855481Y-148866226D01*
X98820562Y-148876819D01*
X98778105Y-148881000D01*
X97636895Y-148881000D01*
X97594438Y-148876819D01*
X97559519Y-148866226D01*
X97527337Y-148849024D01*
X97499127Y-148825873D01*
X97475976Y-148797663D01*
X97458774Y-148765481D01*
X97448181Y-148730562D01*
X97444000Y-148688105D01*
X97444000Y-147221895D01*
X97448181Y-147179438D01*
X97458774Y-147144519D01*
X97475976Y-147112337D01*
X97499127Y-147084127D01*
X97527337Y-147060976D01*
X97559519Y-147043774D01*
X97594438Y-147033181D01*
X97636895Y-147029000D01*
X98778105Y-147029000D01*
X98820562Y-147033181D01*
X98820562Y-147033181D01*
G37*
G36*
X114410442Y-147060518D02*
G01*
X114476627Y-147067037D01*
X114646466Y-147118557D01*
X114802991Y-147202222D01*
X114826962Y-147221895D01*
X114940186Y-147314814D01*
X115023448Y-147416271D01*
X115052778Y-147452009D01*
X115136443Y-147608534D01*
X115187963Y-147778373D01*
X115205359Y-147955000D01*
X115187963Y-148131627D01*
X115136443Y-148301466D01*
X115052778Y-148457991D01*
X115023448Y-148493729D01*
X114940186Y-148595186D01*
X114838729Y-148678448D01*
X114802991Y-148707778D01*
X114646466Y-148791443D01*
X114476627Y-148842963D01*
X114415088Y-148849024D01*
X114344260Y-148856000D01*
X114255740Y-148856000D01*
X114184912Y-148849024D01*
X114123373Y-148842963D01*
X113953534Y-148791443D01*
X113797009Y-148707778D01*
X113761271Y-148678448D01*
X113659814Y-148595186D01*
X113576552Y-148493729D01*
X113547222Y-148457991D01*
X113463557Y-148301466D01*
X113412037Y-148131627D01*
X113394641Y-147955000D01*
X113412037Y-147778373D01*
X113463557Y-147608534D01*
X113547222Y-147452009D01*
X113576552Y-147416271D01*
X113659814Y-147314814D01*
X113773038Y-147221895D01*
X113797009Y-147202222D01*
X113953534Y-147118557D01*
X114123373Y-147067037D01*
X114189558Y-147060518D01*
X114255740Y-147054000D01*
X114344260Y-147054000D01*
X114410442Y-147060518D01*
X114410442Y-147060518D01*
G37*
G36*
X114410442Y-144520518D02*
G01*
X114476627Y-144527037D01*
X114646466Y-144578557D01*
X114646468Y-144578558D01*
X114661893Y-144586803D01*
X114802991Y-144662222D01*
X114838729Y-144691552D01*
X114940186Y-144774814D01*
X115020139Y-144872238D01*
X115052778Y-144912009D01*
X115136443Y-145068534D01*
X115187963Y-145238373D01*
X115205359Y-145415000D01*
X115187963Y-145591627D01*
X115136443Y-145761466D01*
X115052778Y-145917991D01*
X115023448Y-145953729D01*
X114940186Y-146055186D01*
X114838729Y-146138448D01*
X114802991Y-146167778D01*
X114646466Y-146251443D01*
X114476627Y-146302963D01*
X114410442Y-146309482D01*
X114344260Y-146316000D01*
X114255740Y-146316000D01*
X114189558Y-146309482D01*
X114123373Y-146302963D01*
X113953534Y-146251443D01*
X113797009Y-146167778D01*
X113761271Y-146138448D01*
X113659814Y-146055186D01*
X113576552Y-145953729D01*
X113547222Y-145917991D01*
X113463557Y-145761466D01*
X113412037Y-145591627D01*
X113394641Y-145415000D01*
X113412037Y-145238373D01*
X113463557Y-145068534D01*
X113547222Y-144912009D01*
X113579861Y-144872238D01*
X113659814Y-144774814D01*
X113761271Y-144691552D01*
X113797009Y-144662222D01*
X113938107Y-144586803D01*
X113953532Y-144578558D01*
X113953534Y-144578557D01*
X114123373Y-144527037D01*
X114189558Y-144520518D01*
X114255740Y-144514000D01*
X114344260Y-144514000D01*
X114410442Y-144520518D01*
X114410442Y-144520518D01*
G37*
G36*
X92958228Y-144596703D02*
G01*
X93113100Y-144660853D01*
X93252481Y-144753985D01*
X93371015Y-144872519D01*
X93464147Y-145011900D01*
X93528297Y-145166772D01*
X93561000Y-145331184D01*
X93561000Y-145498816D01*
X93528297Y-145663228D01*
X93464147Y-145818100D01*
X93371015Y-145957481D01*
X93252481Y-146076015D01*
X93113100Y-146169147D01*
X92958228Y-146233297D01*
X92793816Y-146266000D01*
X92626184Y-146266000D01*
X92461772Y-146233297D01*
X92306900Y-146169147D01*
X92167519Y-146076015D01*
X92048985Y-145957481D01*
X91955853Y-145818100D01*
X91891703Y-145663228D01*
X91859000Y-145498816D01*
X91859000Y-145331184D01*
X91891703Y-145166772D01*
X91955853Y-145011900D01*
X92048985Y-144872519D01*
X92167519Y-144753985D01*
X92306900Y-144660853D01*
X92461772Y-144596703D01*
X92626184Y-144564000D01*
X92793816Y-144564000D01*
X92958228Y-144596703D01*
X92958228Y-144596703D01*
G37*
G36*
X101131823Y-142906313D02*
G01*
X101292242Y-142954976D01*
X101424906Y-143025886D01*
X101440078Y-143033996D01*
X101569659Y-143140341D01*
X101676004Y-143269922D01*
X101676005Y-143269924D01*
X101755024Y-143417758D01*
X101755025Y-143417761D01*
X101779355Y-143497968D01*
X101803687Y-143578178D01*
X101816000Y-143703197D01*
X101816000Y-144586804D01*
X101803687Y-144711823D01*
X101755024Y-144872242D01*
X101754875Y-144872520D01*
X101676004Y-145020078D01*
X101636237Y-145068534D01*
X101569659Y-145149659D01*
X101440077Y-145256005D01*
X101292241Y-145335024D01*
X101131822Y-145383687D01*
X100965000Y-145400117D01*
X100798177Y-145383687D01*
X100637758Y-145335024D01*
X100489924Y-145256005D01*
X100489922Y-145256004D01*
X100360341Y-145149659D01*
X100253995Y-145020077D01*
X100174976Y-144872241D01*
X100126313Y-144711822D01*
X100114000Y-144586803D01*
X100114000Y-143703197D01*
X100126314Y-143578177D01*
X100174977Y-143417758D01*
X100253996Y-143269924D01*
X100253997Y-143269922D01*
X100360342Y-143140341D01*
X100489923Y-143033996D01*
X100505095Y-143025886D01*
X100637759Y-142954976D01*
X100798178Y-142906313D01*
X100965000Y-142889883D01*
X101131823Y-142906313D01*
X101131823Y-142906313D01*
G37*
G36*
X96051823Y-142906313D02*
G01*
X96212242Y-142954976D01*
X96344906Y-143025886D01*
X96360078Y-143033996D01*
X96489659Y-143140341D01*
X96596004Y-143269922D01*
X96596005Y-143269924D01*
X96675024Y-143417758D01*
X96675025Y-143417761D01*
X96699355Y-143497968D01*
X96723687Y-143578178D01*
X96736000Y-143703197D01*
X96736000Y-144586804D01*
X96723687Y-144711823D01*
X96675024Y-144872242D01*
X96674875Y-144872520D01*
X96596004Y-145020078D01*
X96556237Y-145068534D01*
X96489659Y-145149659D01*
X96360077Y-145256005D01*
X96212241Y-145335024D01*
X96051822Y-145383687D01*
X95885000Y-145400117D01*
X95718177Y-145383687D01*
X95557758Y-145335024D01*
X95409924Y-145256005D01*
X95409922Y-145256004D01*
X95280341Y-145149659D01*
X95173995Y-145020077D01*
X95094976Y-144872241D01*
X95046313Y-144711822D01*
X95034000Y-144586803D01*
X95034000Y-143703197D01*
X95046314Y-143578177D01*
X95094977Y-143417758D01*
X95173996Y-143269924D01*
X95173997Y-143269922D01*
X95280342Y-143140341D01*
X95409923Y-143033996D01*
X95425095Y-143025886D01*
X95557759Y-142954976D01*
X95718178Y-142906313D01*
X95885000Y-142889883D01*
X96051823Y-142906313D01*
X96051823Y-142906313D01*
G37*
G36*
X98591823Y-142906313D02*
G01*
X98752242Y-142954976D01*
X98884906Y-143025886D01*
X98900078Y-143033996D01*
X99029659Y-143140341D01*
X99136004Y-143269922D01*
X99136005Y-143269924D01*
X99215024Y-143417758D01*
X99215025Y-143417761D01*
X99239355Y-143497968D01*
X99263687Y-143578178D01*
X99276000Y-143703197D01*
X99276000Y-144586804D01*
X99263687Y-144711823D01*
X99215024Y-144872242D01*
X99214875Y-144872520D01*
X99136004Y-145020078D01*
X99096237Y-145068534D01*
X99029659Y-145149659D01*
X98900077Y-145256005D01*
X98752241Y-145335024D01*
X98591822Y-145383687D01*
X98425000Y-145400117D01*
X98258177Y-145383687D01*
X98097758Y-145335024D01*
X97949924Y-145256005D01*
X97949922Y-145256004D01*
X97820341Y-145149659D01*
X97713995Y-145020077D01*
X97634976Y-144872241D01*
X97586313Y-144711822D01*
X97574000Y-144586803D01*
X97574000Y-143703197D01*
X97586314Y-143578177D01*
X97634977Y-143417758D01*
X97713996Y-143269924D01*
X97713997Y-143269922D01*
X97820342Y-143140341D01*
X97949923Y-143033996D01*
X97965095Y-143025886D01*
X98097759Y-142954976D01*
X98258178Y-142906313D01*
X98425000Y-142889883D01*
X98591823Y-142906313D01*
X98591823Y-142906313D01*
G37*
G36*
X104356000Y-145396000D02*
G01*
X102654000Y-145396000D01*
X102654000Y-142894000D01*
X104356000Y-142894000D01*
X104356000Y-145396000D01*
X104356000Y-145396000D01*
G37*
G36*
X108688097Y-141829069D02*
G01*
X108791032Y-141839207D01*
X108989146Y-141899305D01*
X108989149Y-141899306D01*
X109085975Y-141951061D01*
X109171729Y-141996897D01*
X109331765Y-142128235D01*
X109463103Y-142288271D01*
X109507862Y-142372009D01*
X109560694Y-142470851D01*
X109560695Y-142470854D01*
X109620793Y-142668968D01*
X109641085Y-142875000D01*
X109620793Y-143081032D01*
X109563493Y-143269922D01*
X109560694Y-143279149D01*
X109508939Y-143375975D01*
X109463103Y-143461729D01*
X109331765Y-143621765D01*
X109171729Y-143753103D01*
X109128891Y-143776000D01*
X108989149Y-143850694D01*
X108989146Y-143850695D01*
X108791032Y-143910793D01*
X108688097Y-143920931D01*
X108636631Y-143926000D01*
X108533369Y-143926000D01*
X108481903Y-143920931D01*
X108378968Y-143910793D01*
X108180854Y-143850695D01*
X108180851Y-143850694D01*
X108041109Y-143776000D01*
X107998271Y-143753103D01*
X107838235Y-143621765D01*
X107706897Y-143461729D01*
X107661061Y-143375975D01*
X107609306Y-143279149D01*
X107606507Y-143269922D01*
X107549207Y-143081032D01*
X107528915Y-142875000D01*
X107549207Y-142668968D01*
X107609305Y-142470854D01*
X107609306Y-142470851D01*
X107662138Y-142372009D01*
X107706897Y-142288271D01*
X107838235Y-142128235D01*
X107998271Y-141996897D01*
X108084025Y-141951061D01*
X108180851Y-141899306D01*
X108180854Y-141899305D01*
X108378968Y-141839207D01*
X108481903Y-141829069D01*
X108533369Y-141824000D01*
X108636631Y-141824000D01*
X108688097Y-141829069D01*
X108688097Y-141829069D01*
G37*
G36*
X114410443Y-141980519D02*
G01*
X114476627Y-141987037D01*
X114646466Y-142038557D01*
X114802991Y-142122222D01*
X114838729Y-142151552D01*
X114940186Y-142234814D01*
X115023448Y-142336271D01*
X115052778Y-142372009D01*
X115136443Y-142528534D01*
X115187963Y-142698373D01*
X115205359Y-142875000D01*
X115187963Y-143051627D01*
X115136443Y-143221466D01*
X115052778Y-143377991D01*
X115023448Y-143413729D01*
X114940186Y-143515186D01*
X114838729Y-143598448D01*
X114802991Y-143627778D01*
X114802989Y-143627779D01*
X114661888Y-143703200D01*
X114646466Y-143711443D01*
X114476627Y-143762963D01*
X114410442Y-143769482D01*
X114344260Y-143776000D01*
X114255740Y-143776000D01*
X114189558Y-143769482D01*
X114123373Y-143762963D01*
X113953534Y-143711443D01*
X113938113Y-143703200D01*
X113797011Y-143627779D01*
X113797009Y-143627778D01*
X113761271Y-143598448D01*
X113659814Y-143515186D01*
X113576552Y-143413729D01*
X113547222Y-143377991D01*
X113463557Y-143221466D01*
X113412037Y-143051627D01*
X113394641Y-142875000D01*
X113412037Y-142698373D01*
X113463557Y-142528534D01*
X113547222Y-142372009D01*
X113576552Y-142336271D01*
X113659814Y-142234814D01*
X113761271Y-142151552D01*
X113797009Y-142122222D01*
X113953534Y-142038557D01*
X114123373Y-141987037D01*
X114189557Y-141980519D01*
X114255740Y-141974000D01*
X114344260Y-141974000D01*
X114410443Y-141980519D01*
X114410443Y-141980519D01*
G37*
G36*
X94863228Y-139516703D02*
G01*
X95018100Y-139580853D01*
X95157481Y-139673985D01*
X95276015Y-139792519D01*
X95369147Y-139931900D01*
X95433297Y-140086772D01*
X95466000Y-140251184D01*
X95466000Y-140418816D01*
X95433297Y-140583228D01*
X95369147Y-140738100D01*
X95276015Y-140877481D01*
X95157481Y-140996015D01*
X95018100Y-141089147D01*
X94863228Y-141153297D01*
X94698816Y-141186000D01*
X94531184Y-141186000D01*
X94366772Y-141153297D01*
X94211900Y-141089147D01*
X94072519Y-140996015D01*
X93953985Y-140877481D01*
X93860853Y-140738100D01*
X93796703Y-140583228D01*
X93764000Y-140418816D01*
X93764000Y-140251184D01*
X93796703Y-140086772D01*
X93860853Y-139931900D01*
X93953985Y-139792519D01*
X94072519Y-139673985D01*
X94211900Y-139580853D01*
X94366772Y-139516703D01*
X94531184Y-139484000D01*
X94698816Y-139484000D01*
X94863228Y-139516703D01*
X94863228Y-139516703D01*
G37*
G36*
X104941823Y-139496313D02*
G01*
X105102242Y-139544976D01*
X105169361Y-139580852D01*
X105250078Y-139623996D01*
X105379659Y-139730341D01*
X105486004Y-139859922D01*
X105486005Y-139859924D01*
X105565024Y-140007758D01*
X105613687Y-140168177D01*
X105630117Y-140335000D01*
X105613687Y-140501823D01*
X105565024Y-140662242D01*
X105524477Y-140738100D01*
X105486004Y-140810078D01*
X105379659Y-140939659D01*
X105250078Y-141046004D01*
X105250076Y-141046005D01*
X105102242Y-141125024D01*
X104941823Y-141173687D01*
X104816804Y-141186000D01*
X104733196Y-141186000D01*
X104608177Y-141173687D01*
X104447758Y-141125024D01*
X104299924Y-141046005D01*
X104299922Y-141046004D01*
X104170341Y-140939659D01*
X104063996Y-140810078D01*
X104025523Y-140738100D01*
X103984976Y-140662242D01*
X103936313Y-140501823D01*
X103919883Y-140335000D01*
X103936313Y-140168177D01*
X103984976Y-140007758D01*
X104063995Y-139859924D01*
X104063996Y-139859922D01*
X104170341Y-139730341D01*
X104299922Y-139623996D01*
X104380639Y-139580852D01*
X104447758Y-139544976D01*
X104608177Y-139496313D01*
X104733196Y-139484000D01*
X104816804Y-139484000D01*
X104941823Y-139496313D01*
X104941823Y-139496313D01*
G37*
G36*
X111541000Y-138846000D02*
G01*
X109439000Y-138846000D01*
X109439000Y-136744000D01*
X111541000Y-136744000D01*
X111541000Y-138846000D01*
X111541000Y-138846000D01*
G37*
G36*
X110796564Y-131784389D02*
G01*
X110987833Y-131863615D01*
X110987835Y-131863616D01*
X111159973Y-131978635D01*
X111306365Y-132125027D01*
X111421385Y-132297167D01*
X111500611Y-132488436D01*
X111541000Y-132691484D01*
X111541000Y-132898516D01*
X111500611Y-133101564D01*
X111421385Y-133292833D01*
X111421384Y-133292835D01*
X111306365Y-133464973D01*
X111159973Y-133611365D01*
X110987835Y-133726384D01*
X110987834Y-133726385D01*
X110987833Y-133726385D01*
X110796564Y-133805611D01*
X110593516Y-133846000D01*
X110386484Y-133846000D01*
X110183436Y-133805611D01*
X109992167Y-133726385D01*
X109992166Y-133726385D01*
X109992165Y-133726384D01*
X109820027Y-133611365D01*
X109673635Y-133464973D01*
X109558616Y-133292835D01*
X109558615Y-133292833D01*
X109479389Y-133101564D01*
X109439000Y-132898516D01*
X109439000Y-132691484D01*
X109479389Y-132488436D01*
X109558615Y-132297167D01*
X109673635Y-132125027D01*
X109820027Y-131978635D01*
X109992165Y-131863616D01*
X109992167Y-131863615D01*
X110183436Y-131784389D01*
X110386484Y-131744000D01*
X110593516Y-131744000D01*
X110796564Y-131784389D01*
X110796564Y-131784389D01*
G37*
M02*
