G04 #@! TF.GenerationSoftware,KiCad,Pcbnew,5.1.2-f72e74a~84~ubuntu19.04.1*
G04 #@! TF.CreationDate,2019-06-26T10:30:51+03:00*
G04 #@! TF.ProjectId,IR2153_Board,49523231-3533-45f4-926f-6172642e6b69,rev?*
G04 #@! TF.SameCoordinates,Original*
G04 #@! TF.FileFunction,Copper,L2,Bot*
G04 #@! TF.FilePolarity,Positive*
%FSLAX46Y46*%
G04 Gerber Fmt 4.6, Leading zero omitted, Abs format (unit mm)*
G04 Created by KiCad (PCBNEW 5.1.2-f72e74a~84~ubuntu19.04.1) date 2019-06-26 10:30:51*
%MOMM*%
%LPD*%
G04 APERTURE LIST*
%ADD10C,0.400000*%
%ADD11C,0.100000*%
%ADD12C,1.425000*%
%ADD13O,1.700000X1.700000*%
%ADD14R,1.700000X1.700000*%
%ADD15O,1.600000X2.400000*%
%ADD16R,1.600000X2.400000*%
%ADD17O,1.600000X1.600000*%
%ADD18C,1.600000*%
%ADD19O,2.000000X2.000000*%
%ADD20R,2.000000X2.000000*%
%ADD21C,2.000000*%
%ADD22C,0.600000*%
%ADD23C,0.254000*%
G04 APERTURE END LIST*
D10*
X90170000Y-163830000D02*
X90170000Y-129540000D01*
X116840000Y-163830000D02*
X90170000Y-163830000D01*
X116840000Y-129540000D02*
X116840000Y-163830000D01*
X90170000Y-129540000D02*
X116840000Y-129540000D01*
D11*
G36*
X98694504Y-147081204D02*
G01*
X98718773Y-147084804D01*
X98742571Y-147090765D01*
X98765671Y-147099030D01*
X98787849Y-147109520D01*
X98808893Y-147122133D01*
X98828598Y-147136747D01*
X98846777Y-147153223D01*
X98863253Y-147171402D01*
X98877867Y-147191107D01*
X98890480Y-147212151D01*
X98900970Y-147234329D01*
X98909235Y-147257429D01*
X98915196Y-147281227D01*
X98918796Y-147305496D01*
X98920000Y-147330000D01*
X98920000Y-148580000D01*
X98918796Y-148604504D01*
X98915196Y-148628773D01*
X98909235Y-148652571D01*
X98900970Y-148675671D01*
X98890480Y-148697849D01*
X98877867Y-148718893D01*
X98863253Y-148738598D01*
X98846777Y-148756777D01*
X98828598Y-148773253D01*
X98808893Y-148787867D01*
X98787849Y-148800480D01*
X98765671Y-148810970D01*
X98742571Y-148819235D01*
X98718773Y-148825196D01*
X98694504Y-148828796D01*
X98670000Y-148830000D01*
X97745000Y-148830000D01*
X97720496Y-148828796D01*
X97696227Y-148825196D01*
X97672429Y-148819235D01*
X97649329Y-148810970D01*
X97627151Y-148800480D01*
X97606107Y-148787867D01*
X97586402Y-148773253D01*
X97568223Y-148756777D01*
X97551747Y-148738598D01*
X97537133Y-148718893D01*
X97524520Y-148697849D01*
X97514030Y-148675671D01*
X97505765Y-148652571D01*
X97499804Y-148628773D01*
X97496204Y-148604504D01*
X97495000Y-148580000D01*
X97495000Y-147330000D01*
X97496204Y-147305496D01*
X97499804Y-147281227D01*
X97505765Y-147257429D01*
X97514030Y-147234329D01*
X97524520Y-147212151D01*
X97537133Y-147191107D01*
X97551747Y-147171402D01*
X97568223Y-147153223D01*
X97586402Y-147136747D01*
X97606107Y-147122133D01*
X97627151Y-147109520D01*
X97649329Y-147099030D01*
X97672429Y-147090765D01*
X97696227Y-147084804D01*
X97720496Y-147081204D01*
X97745000Y-147080000D01*
X98670000Y-147080000D01*
X98694504Y-147081204D01*
X98694504Y-147081204D01*
G37*
D12*
X98207500Y-147955000D03*
D11*
G36*
X101669504Y-147081204D02*
G01*
X101693773Y-147084804D01*
X101717571Y-147090765D01*
X101740671Y-147099030D01*
X101762849Y-147109520D01*
X101783893Y-147122133D01*
X101803598Y-147136747D01*
X101821777Y-147153223D01*
X101838253Y-147171402D01*
X101852867Y-147191107D01*
X101865480Y-147212151D01*
X101875970Y-147234329D01*
X101884235Y-147257429D01*
X101890196Y-147281227D01*
X101893796Y-147305496D01*
X101895000Y-147330000D01*
X101895000Y-148580000D01*
X101893796Y-148604504D01*
X101890196Y-148628773D01*
X101884235Y-148652571D01*
X101875970Y-148675671D01*
X101865480Y-148697849D01*
X101852867Y-148718893D01*
X101838253Y-148738598D01*
X101821777Y-148756777D01*
X101803598Y-148773253D01*
X101783893Y-148787867D01*
X101762849Y-148800480D01*
X101740671Y-148810970D01*
X101717571Y-148819235D01*
X101693773Y-148825196D01*
X101669504Y-148828796D01*
X101645000Y-148830000D01*
X100720000Y-148830000D01*
X100695496Y-148828796D01*
X100671227Y-148825196D01*
X100647429Y-148819235D01*
X100624329Y-148810970D01*
X100602151Y-148800480D01*
X100581107Y-148787867D01*
X100561402Y-148773253D01*
X100543223Y-148756777D01*
X100526747Y-148738598D01*
X100512133Y-148718893D01*
X100499520Y-148697849D01*
X100489030Y-148675671D01*
X100480765Y-148652571D01*
X100474804Y-148628773D01*
X100471204Y-148604504D01*
X100470000Y-148580000D01*
X100470000Y-147330000D01*
X100471204Y-147305496D01*
X100474804Y-147281227D01*
X100480765Y-147257429D01*
X100489030Y-147234329D01*
X100499520Y-147212151D01*
X100512133Y-147191107D01*
X100526747Y-147171402D01*
X100543223Y-147153223D01*
X100561402Y-147136747D01*
X100581107Y-147122133D01*
X100602151Y-147109520D01*
X100624329Y-147099030D01*
X100647429Y-147090765D01*
X100671227Y-147084804D01*
X100695496Y-147081204D01*
X100720000Y-147080000D01*
X101645000Y-147080000D01*
X101669504Y-147081204D01*
X101669504Y-147081204D01*
G37*
D12*
X101182500Y-147955000D03*
D13*
X114300000Y-142875000D03*
X114300000Y-145415000D03*
X114300000Y-147955000D03*
X114300000Y-150495000D03*
D14*
X114300000Y-153035000D03*
D15*
X103505000Y-151765000D03*
X95885000Y-144145000D03*
X100965000Y-151765000D03*
X98425000Y-144145000D03*
X98425000Y-151765000D03*
X100965000Y-144145000D03*
X95885000Y-151765000D03*
D16*
X103505000Y-144145000D03*
D17*
X94615000Y-158115000D03*
D18*
X104775000Y-158115000D03*
D17*
X94615000Y-161290000D03*
D18*
X104775000Y-161290000D03*
D17*
X104775000Y-140335000D03*
D18*
X94615000Y-140335000D03*
D19*
X108585000Y-142875000D03*
D20*
X108585000Y-153035000D03*
D21*
X110490000Y-132795000D03*
D20*
X110490000Y-137795000D03*
D18*
X97235000Y-154940000D03*
X102235000Y-154940000D03*
X92710000Y-150415000D03*
X92710000Y-145415000D03*
D22*
X92710000Y-142240000D02*
X94615000Y-140335000D01*
X92710000Y-145415000D02*
X92710000Y-142240000D01*
X98425000Y-144145000D02*
X98425000Y-140970000D01*
X97790000Y-140335000D02*
X94615000Y-140335000D01*
X98425000Y-140970000D02*
X97790000Y-140335000D01*
X107315000Y-144145000D02*
X108585000Y-142875000D01*
X103505000Y-144145000D02*
X107315000Y-144145000D01*
X110490000Y-140970000D02*
X108585000Y-142875000D01*
X110490000Y-137795000D02*
X110490000Y-140970000D01*
X108585000Y-142875000D02*
X114300000Y-142875000D01*
X101182500Y-147955000D02*
X102235000Y-147955000D01*
X103505000Y-146685000D02*
X103505000Y-144145000D01*
X102235000Y-147955000D02*
X103505000Y-146685000D01*
X98425000Y-153750000D02*
X97235000Y-154940000D01*
X98425000Y-151765000D02*
X98425000Y-153750000D01*
X103505000Y-153670000D02*
X102235000Y-154940000D01*
X103505000Y-151765000D02*
X103505000Y-153670000D01*
X107315000Y-151765000D02*
X108585000Y-153035000D01*
X103505000Y-151765000D02*
X107315000Y-151765000D01*
X104775000Y-161290000D02*
X109855000Y-161290000D01*
X109855000Y-161290000D02*
X111760000Y-159385000D01*
X111760000Y-159385000D02*
X111760000Y-145415000D01*
X111760000Y-145415000D02*
X114300000Y-145415000D01*
X103643630Y-140335000D02*
X104775000Y-140335000D01*
X100965000Y-143013630D02*
X103643630Y-140335000D01*
X100965000Y-144145000D02*
X100965000Y-143013630D01*
X94615000Y-161290000D02*
X97790000Y-161290000D01*
X97790000Y-161290000D02*
X99695000Y-159385000D01*
X100965000Y-153565000D02*
X100965000Y-151765000D01*
X99695000Y-154835000D02*
X100965000Y-153565000D01*
X99695000Y-159385000D02*
X99695000Y-154835000D01*
X94615000Y-153035000D02*
X95885000Y-151765000D01*
X94615000Y-158115000D02*
X94615000Y-153035000D01*
D23*
G36*
X116005001Y-162995000D02*
G01*
X91005000Y-162995000D01*
X91005000Y-158115000D01*
X93173057Y-158115000D01*
X93200764Y-158396309D01*
X93282818Y-158666808D01*
X93416068Y-158916101D01*
X93595392Y-159134608D01*
X93813899Y-159313932D01*
X94063192Y-159447182D01*
X94333691Y-159529236D01*
X94544508Y-159550000D01*
X94685492Y-159550000D01*
X94896309Y-159529236D01*
X95166808Y-159447182D01*
X95416101Y-159313932D01*
X95634608Y-159134608D01*
X95813932Y-158916101D01*
X95947182Y-158666808D01*
X96029236Y-158396309D01*
X96056943Y-158115000D01*
X96029236Y-157833691D01*
X95947182Y-157563192D01*
X95813932Y-157313899D01*
X95634608Y-157095392D01*
X95550000Y-157025956D01*
X95550000Y-153562949D01*
X95603691Y-153579236D01*
X95885000Y-153606943D01*
X96166308Y-153579236D01*
X96436807Y-153497182D01*
X96686100Y-153363932D01*
X96904607Y-153184608D01*
X97083932Y-152966101D01*
X97155000Y-152833142D01*
X97226068Y-152966100D01*
X97405392Y-153184607D01*
X97490001Y-153254044D01*
X97490001Y-153362709D01*
X97347710Y-153505000D01*
X97093665Y-153505000D01*
X96816426Y-153560147D01*
X96555273Y-153668320D01*
X96320241Y-153825363D01*
X96120363Y-154025241D01*
X95963320Y-154260273D01*
X95855147Y-154521426D01*
X95800000Y-154798665D01*
X95800000Y-155081335D01*
X95855147Y-155358574D01*
X95963320Y-155619727D01*
X96120363Y-155854759D01*
X96320241Y-156054637D01*
X96555273Y-156211680D01*
X96816426Y-156319853D01*
X97093665Y-156375000D01*
X97376335Y-156375000D01*
X97653574Y-156319853D01*
X97914727Y-156211680D01*
X98149759Y-156054637D01*
X98349637Y-155854759D01*
X98506680Y-155619727D01*
X98614853Y-155358574D01*
X98670000Y-155081335D01*
X98670000Y-154827290D01*
X98765657Y-154731633D01*
X98755476Y-154835000D01*
X98760001Y-154880942D01*
X98760000Y-158997711D01*
X97402711Y-160355000D01*
X95704044Y-160355000D01*
X95634608Y-160270392D01*
X95416101Y-160091068D01*
X95166808Y-159957818D01*
X94896309Y-159875764D01*
X94685492Y-159855000D01*
X94544508Y-159855000D01*
X94333691Y-159875764D01*
X94063192Y-159957818D01*
X93813899Y-160091068D01*
X93595392Y-160270392D01*
X93416068Y-160488899D01*
X93282818Y-160738192D01*
X93200764Y-161008691D01*
X93173057Y-161290000D01*
X93200764Y-161571309D01*
X93282818Y-161841808D01*
X93416068Y-162091101D01*
X93595392Y-162309608D01*
X93813899Y-162488932D01*
X94063192Y-162622182D01*
X94333691Y-162704236D01*
X94544508Y-162725000D01*
X94685492Y-162725000D01*
X94896309Y-162704236D01*
X95166808Y-162622182D01*
X95416101Y-162488932D01*
X95634608Y-162309608D01*
X95704044Y-162225000D01*
X97744068Y-162225000D01*
X97790000Y-162229524D01*
X97835932Y-162225000D01*
X97973292Y-162211471D01*
X98149540Y-162158007D01*
X98311972Y-162071186D01*
X98454344Y-161954344D01*
X98483630Y-161918659D01*
X100323660Y-160078629D01*
X100359344Y-160049344D01*
X100476186Y-159906972D01*
X100563007Y-159744540D01*
X100616471Y-159568292D01*
X100623704Y-159494853D01*
X100634524Y-159385000D01*
X100630000Y-159339068D01*
X100630000Y-157973665D01*
X103340000Y-157973665D01*
X103340000Y-158256335D01*
X103395147Y-158533574D01*
X103503320Y-158794727D01*
X103660363Y-159029759D01*
X103860241Y-159229637D01*
X104095273Y-159386680D01*
X104356426Y-159494853D01*
X104633665Y-159550000D01*
X104916335Y-159550000D01*
X105193574Y-159494853D01*
X105454727Y-159386680D01*
X105689759Y-159229637D01*
X105889637Y-159029759D01*
X106046680Y-158794727D01*
X106154853Y-158533574D01*
X106210000Y-158256335D01*
X106210000Y-157973665D01*
X106154853Y-157696426D01*
X106046680Y-157435273D01*
X105889637Y-157200241D01*
X105689759Y-157000363D01*
X105454727Y-156843320D01*
X105193574Y-156735147D01*
X104916335Y-156680000D01*
X104633665Y-156680000D01*
X104356426Y-156735147D01*
X104095273Y-156843320D01*
X103860241Y-157000363D01*
X103660363Y-157200241D01*
X103503320Y-157435273D01*
X103395147Y-157696426D01*
X103340000Y-157973665D01*
X100630000Y-157973665D01*
X100630000Y-155222289D01*
X100800000Y-155052289D01*
X100800000Y-155081335D01*
X100855147Y-155358574D01*
X100963320Y-155619727D01*
X101120363Y-155854759D01*
X101320241Y-156054637D01*
X101555273Y-156211680D01*
X101816426Y-156319853D01*
X102093665Y-156375000D01*
X102376335Y-156375000D01*
X102653574Y-156319853D01*
X102914727Y-156211680D01*
X103149759Y-156054637D01*
X103349637Y-155854759D01*
X103506680Y-155619727D01*
X103614853Y-155358574D01*
X103670000Y-155081335D01*
X103670000Y-154827290D01*
X104133664Y-154363626D01*
X104169344Y-154334344D01*
X104286186Y-154191972D01*
X104373007Y-154029540D01*
X104410253Y-153906757D01*
X104426471Y-153853293D01*
X104444524Y-153670001D01*
X104440000Y-153624069D01*
X104440000Y-153254043D01*
X104524607Y-153184608D01*
X104703932Y-152966101D01*
X104837182Y-152716808D01*
X104842281Y-152700000D01*
X106927711Y-152700000D01*
X106946928Y-152719217D01*
X106946928Y-154035000D01*
X106959188Y-154159482D01*
X106995498Y-154279180D01*
X107054463Y-154389494D01*
X107133815Y-154486185D01*
X107230506Y-154565537D01*
X107340820Y-154624502D01*
X107460518Y-154660812D01*
X107585000Y-154673072D01*
X109585000Y-154673072D01*
X109709482Y-154660812D01*
X109829180Y-154624502D01*
X109939494Y-154565537D01*
X110036185Y-154486185D01*
X110115537Y-154389494D01*
X110174502Y-154279180D01*
X110210812Y-154159482D01*
X110223072Y-154035000D01*
X110223072Y-152035000D01*
X110210812Y-151910518D01*
X110174502Y-151790820D01*
X110115537Y-151680506D01*
X110036185Y-151583815D01*
X109939494Y-151504463D01*
X109829180Y-151445498D01*
X109709482Y-151409188D01*
X109585000Y-151396928D01*
X108269217Y-151396928D01*
X108008630Y-151136341D01*
X107979344Y-151100656D01*
X107836972Y-150983814D01*
X107674540Y-150896993D01*
X107498292Y-150843529D01*
X107360932Y-150830000D01*
X107315000Y-150825476D01*
X107269068Y-150830000D01*
X104842281Y-150830000D01*
X104837182Y-150813192D01*
X104703932Y-150563899D01*
X104524608Y-150345392D01*
X104306101Y-150166068D01*
X104056808Y-150032818D01*
X103786309Y-149950764D01*
X103505000Y-149923057D01*
X103223692Y-149950764D01*
X102953193Y-150032818D01*
X102703900Y-150166068D01*
X102485393Y-150345392D01*
X102306068Y-150563899D01*
X102235000Y-150696858D01*
X102163932Y-150563899D01*
X101984608Y-150345392D01*
X101766101Y-150166068D01*
X101516808Y-150032818D01*
X101246309Y-149950764D01*
X100965000Y-149923057D01*
X100683692Y-149950764D01*
X100413193Y-150032818D01*
X100163900Y-150166068D01*
X99945393Y-150345392D01*
X99766068Y-150563899D01*
X99695000Y-150696858D01*
X99623932Y-150563899D01*
X99444608Y-150345392D01*
X99226101Y-150166068D01*
X98976808Y-150032818D01*
X98706309Y-149950764D01*
X98425000Y-149923057D01*
X98143692Y-149950764D01*
X97873193Y-150032818D01*
X97623900Y-150166068D01*
X97405393Y-150345392D01*
X97226068Y-150563899D01*
X97155000Y-150696858D01*
X97083932Y-150563899D01*
X96904608Y-150345392D01*
X96686101Y-150166068D01*
X96436808Y-150032818D01*
X96166309Y-149950764D01*
X95885000Y-149923057D01*
X95603692Y-149950764D01*
X95333193Y-150032818D01*
X95083900Y-150166068D01*
X94865393Y-150345392D01*
X94686068Y-150563899D01*
X94552818Y-150813192D01*
X94470764Y-151083691D01*
X94450000Y-151294508D01*
X94450000Y-151877711D01*
X93986336Y-152341375D01*
X93950657Y-152370656D01*
X93833815Y-152513028D01*
X93764061Y-152643529D01*
X93746994Y-152675460D01*
X93693529Y-152851709D01*
X93675476Y-153035000D01*
X93680001Y-153080942D01*
X93680000Y-157025956D01*
X93595392Y-157095392D01*
X93416068Y-157313899D01*
X93282818Y-157563192D01*
X93200764Y-157833691D01*
X93173057Y-158115000D01*
X91005000Y-158115000D01*
X91005000Y-151407702D01*
X91896903Y-151407702D01*
X91968486Y-151651671D01*
X92223996Y-151772571D01*
X92498184Y-151841300D01*
X92780512Y-151855217D01*
X93060130Y-151813787D01*
X93326292Y-151718603D01*
X93451514Y-151651671D01*
X93523097Y-151407702D01*
X92710000Y-150594605D01*
X91896903Y-151407702D01*
X91005000Y-151407702D01*
X91005000Y-150485512D01*
X91269783Y-150485512D01*
X91311213Y-150765130D01*
X91406397Y-151031292D01*
X91473329Y-151156514D01*
X91717298Y-151228097D01*
X92530395Y-150415000D01*
X92889605Y-150415000D01*
X93702702Y-151228097D01*
X93946671Y-151156514D01*
X94067571Y-150901004D01*
X94136300Y-150626816D01*
X94150217Y-150344488D01*
X94108787Y-150064870D01*
X94013603Y-149798708D01*
X93946671Y-149673486D01*
X93702702Y-149601903D01*
X92889605Y-150415000D01*
X92530395Y-150415000D01*
X91717298Y-149601903D01*
X91473329Y-149673486D01*
X91352429Y-149928996D01*
X91283700Y-150203184D01*
X91269783Y-150485512D01*
X91005000Y-150485512D01*
X91005000Y-149422298D01*
X91896903Y-149422298D01*
X92710000Y-150235395D01*
X93523097Y-149422298D01*
X93451514Y-149178329D01*
X93196004Y-149057429D01*
X92921816Y-148988700D01*
X92639488Y-148974783D01*
X92359870Y-149016213D01*
X92093708Y-149111397D01*
X91968486Y-149178329D01*
X91896903Y-149422298D01*
X91005000Y-149422298D01*
X91005000Y-148830000D01*
X96856928Y-148830000D01*
X96869188Y-148954482D01*
X96905498Y-149074180D01*
X96964463Y-149184494D01*
X97043815Y-149281185D01*
X97140506Y-149360537D01*
X97250820Y-149419502D01*
X97370518Y-149455812D01*
X97495000Y-149468072D01*
X97921750Y-149465000D01*
X98080500Y-149306250D01*
X98080500Y-148082000D01*
X98334500Y-148082000D01*
X98334500Y-149306250D01*
X98493250Y-149465000D01*
X98920000Y-149468072D01*
X99044482Y-149455812D01*
X99164180Y-149419502D01*
X99274494Y-149360537D01*
X99371185Y-149281185D01*
X99450537Y-149184494D01*
X99509502Y-149074180D01*
X99545812Y-148954482D01*
X99558072Y-148830000D01*
X99555000Y-148240750D01*
X99396250Y-148082000D01*
X98334500Y-148082000D01*
X98080500Y-148082000D01*
X97018750Y-148082000D01*
X96860000Y-148240750D01*
X96856928Y-148830000D01*
X91005000Y-148830000D01*
X91005000Y-147080000D01*
X96856928Y-147080000D01*
X96860000Y-147669250D01*
X97018750Y-147828000D01*
X98080500Y-147828000D01*
X98080500Y-146603750D01*
X98334500Y-146603750D01*
X98334500Y-147828000D01*
X99396250Y-147828000D01*
X99555000Y-147669250D01*
X99558072Y-147080000D01*
X99545812Y-146955518D01*
X99509502Y-146835820D01*
X99450537Y-146725506D01*
X99371185Y-146628815D01*
X99274494Y-146549463D01*
X99164180Y-146490498D01*
X99044482Y-146454188D01*
X98920000Y-146441928D01*
X98493250Y-146445000D01*
X98334500Y-146603750D01*
X98080500Y-146603750D01*
X97921750Y-146445000D01*
X97495000Y-146441928D01*
X97370518Y-146454188D01*
X97250820Y-146490498D01*
X97140506Y-146549463D01*
X97043815Y-146628815D01*
X96964463Y-146725506D01*
X96905498Y-146835820D01*
X96869188Y-146955518D01*
X96856928Y-147080000D01*
X91005000Y-147080000D01*
X91005000Y-145273665D01*
X91275000Y-145273665D01*
X91275000Y-145556335D01*
X91330147Y-145833574D01*
X91438320Y-146094727D01*
X91595363Y-146329759D01*
X91795241Y-146529637D01*
X92030273Y-146686680D01*
X92291426Y-146794853D01*
X92568665Y-146850000D01*
X92851335Y-146850000D01*
X93128574Y-146794853D01*
X93389727Y-146686680D01*
X93624759Y-146529637D01*
X93824637Y-146329759D01*
X93981680Y-146094727D01*
X94089853Y-145833574D01*
X94145000Y-145556335D01*
X94145000Y-145273665D01*
X94089853Y-144996426D01*
X93981680Y-144735273D01*
X93824637Y-144500241D01*
X93645000Y-144320604D01*
X93645000Y-144272000D01*
X94450000Y-144272000D01*
X94450000Y-144672000D01*
X94502350Y-144949514D01*
X94607834Y-145211483D01*
X94762399Y-145447839D01*
X94960105Y-145649500D01*
X95193354Y-145808715D01*
X95453182Y-145919367D01*
X95535961Y-145936904D01*
X95758000Y-145814915D01*
X95758000Y-144272000D01*
X94450000Y-144272000D01*
X93645000Y-144272000D01*
X93645000Y-143618000D01*
X94450000Y-143618000D01*
X94450000Y-144018000D01*
X95758000Y-144018000D01*
X95758000Y-142475085D01*
X95535961Y-142353096D01*
X95453182Y-142370633D01*
X95193354Y-142481285D01*
X94960105Y-142640500D01*
X94762399Y-142842161D01*
X94607834Y-143078517D01*
X94502350Y-143340486D01*
X94450000Y-143618000D01*
X93645000Y-143618000D01*
X93645000Y-142627289D01*
X94502289Y-141770000D01*
X94756335Y-141770000D01*
X95033574Y-141714853D01*
X95294727Y-141606680D01*
X95529759Y-141449637D01*
X95709396Y-141270000D01*
X97402711Y-141270000D01*
X97490001Y-141357290D01*
X97490000Y-142655956D01*
X97405393Y-142725392D01*
X97226068Y-142943899D01*
X97157735Y-143071741D01*
X97007601Y-142842161D01*
X96809895Y-142640500D01*
X96576646Y-142481285D01*
X96316818Y-142370633D01*
X96234039Y-142353096D01*
X96012000Y-142475085D01*
X96012000Y-144018000D01*
X96032000Y-144018000D01*
X96032000Y-144272000D01*
X96012000Y-144272000D01*
X96012000Y-145814915D01*
X96234039Y-145936904D01*
X96316818Y-145919367D01*
X96576646Y-145808715D01*
X96809895Y-145649500D01*
X97007601Y-145447839D01*
X97157735Y-145218258D01*
X97226068Y-145346100D01*
X97405392Y-145564607D01*
X97623899Y-145743932D01*
X97873192Y-145877182D01*
X98143691Y-145959236D01*
X98425000Y-145986943D01*
X98706308Y-145959236D01*
X98976807Y-145877182D01*
X99226100Y-145743932D01*
X99444607Y-145564608D01*
X99623932Y-145346101D01*
X99695000Y-145213142D01*
X99766068Y-145346100D01*
X99945392Y-145564607D01*
X100163899Y-145743932D01*
X100413192Y-145877182D01*
X100683691Y-145959236D01*
X100965000Y-145986943D01*
X101246308Y-145959236D01*
X101516807Y-145877182D01*
X101766100Y-145743932D01*
X101984607Y-145564608D01*
X102077419Y-145451517D01*
X102079188Y-145469482D01*
X102115498Y-145589180D01*
X102174463Y-145699494D01*
X102253815Y-145796185D01*
X102350506Y-145875537D01*
X102460820Y-145934502D01*
X102570000Y-145967621D01*
X102570000Y-146297710D01*
X102214034Y-146653677D01*
X102138386Y-146591595D01*
X101984850Y-146509528D01*
X101818254Y-146458992D01*
X101645000Y-146441928D01*
X100720000Y-146441928D01*
X100546746Y-146458992D01*
X100380150Y-146509528D01*
X100226614Y-146591595D01*
X100092038Y-146702038D01*
X99981595Y-146836614D01*
X99899528Y-146990150D01*
X99848992Y-147156746D01*
X99831928Y-147330000D01*
X99831928Y-148580000D01*
X99848992Y-148753254D01*
X99899528Y-148919850D01*
X99981595Y-149073386D01*
X100092038Y-149207962D01*
X100226614Y-149318405D01*
X100380150Y-149400472D01*
X100546746Y-149451008D01*
X100720000Y-149468072D01*
X101645000Y-149468072D01*
X101818254Y-149451008D01*
X101984850Y-149400472D01*
X102138386Y-149318405D01*
X102272962Y-149207962D01*
X102383405Y-149073386D01*
X102465472Y-148919850D01*
X102484746Y-148856313D01*
X102594540Y-148823007D01*
X102756972Y-148736186D01*
X102899344Y-148619344D01*
X102928630Y-148583659D01*
X104133665Y-147378625D01*
X104169344Y-147349344D01*
X104286186Y-147206972D01*
X104373007Y-147044540D01*
X104426471Y-146868292D01*
X104440000Y-146730932D01*
X104440000Y-146730931D01*
X104444524Y-146685001D01*
X104440000Y-146639069D01*
X104440000Y-145967621D01*
X104549180Y-145934502D01*
X104659494Y-145875537D01*
X104756185Y-145796185D01*
X104835537Y-145699494D01*
X104894502Y-145589180D01*
X104930812Y-145469482D01*
X104943072Y-145345000D01*
X104943072Y-145080000D01*
X107269068Y-145080000D01*
X107315000Y-145084524D01*
X107360932Y-145080000D01*
X107498292Y-145066471D01*
X107674540Y-145013007D01*
X107836972Y-144926186D01*
X107979344Y-144809344D01*
X108008630Y-144773659D01*
X108293125Y-144489164D01*
X108504678Y-144510000D01*
X108665322Y-144510000D01*
X108905516Y-144486343D01*
X109213715Y-144392852D01*
X109497752Y-144241031D01*
X109746714Y-144036714D01*
X109932773Y-143810000D01*
X113146275Y-143810000D01*
X113244866Y-143930134D01*
X113470986Y-144115706D01*
X113525791Y-144145000D01*
X113470986Y-144174294D01*
X113244866Y-144359866D01*
X113146275Y-144480000D01*
X111805932Y-144480000D01*
X111760000Y-144475476D01*
X111714068Y-144480000D01*
X111576708Y-144493529D01*
X111400460Y-144546993D01*
X111238028Y-144633814D01*
X111095656Y-144750656D01*
X110978814Y-144893028D01*
X110891993Y-145055460D01*
X110838529Y-145231708D01*
X110820476Y-145415000D01*
X110825001Y-145460942D01*
X110825000Y-158997711D01*
X109467711Y-160355000D01*
X105869396Y-160355000D01*
X105689759Y-160175363D01*
X105454727Y-160018320D01*
X105193574Y-159910147D01*
X104916335Y-159855000D01*
X104633665Y-159855000D01*
X104356426Y-159910147D01*
X104095273Y-160018320D01*
X103860241Y-160175363D01*
X103660363Y-160375241D01*
X103503320Y-160610273D01*
X103395147Y-160871426D01*
X103340000Y-161148665D01*
X103340000Y-161431335D01*
X103395147Y-161708574D01*
X103503320Y-161969727D01*
X103660363Y-162204759D01*
X103860241Y-162404637D01*
X104095273Y-162561680D01*
X104356426Y-162669853D01*
X104633665Y-162725000D01*
X104916335Y-162725000D01*
X105193574Y-162669853D01*
X105454727Y-162561680D01*
X105689759Y-162404637D01*
X105869396Y-162225000D01*
X109809068Y-162225000D01*
X109855000Y-162229524D01*
X109900932Y-162225000D01*
X110038292Y-162211471D01*
X110214540Y-162158007D01*
X110376972Y-162071186D01*
X110519344Y-161954344D01*
X110548630Y-161918659D01*
X112388660Y-160078629D01*
X112424344Y-160049344D01*
X112541186Y-159906972D01*
X112628007Y-159744540D01*
X112681471Y-159568292D01*
X112688704Y-159494853D01*
X112699524Y-159385000D01*
X112695000Y-159339068D01*
X112695000Y-153885000D01*
X112811928Y-153885000D01*
X112824188Y-154009482D01*
X112860498Y-154129180D01*
X112919463Y-154239494D01*
X112998815Y-154336185D01*
X113095506Y-154415537D01*
X113205820Y-154474502D01*
X113325518Y-154510812D01*
X113450000Y-154523072D01*
X114014250Y-154520000D01*
X114173000Y-154361250D01*
X114173000Y-153162000D01*
X114427000Y-153162000D01*
X114427000Y-154361250D01*
X114585750Y-154520000D01*
X115150000Y-154523072D01*
X115274482Y-154510812D01*
X115394180Y-154474502D01*
X115504494Y-154415537D01*
X115601185Y-154336185D01*
X115680537Y-154239494D01*
X115739502Y-154129180D01*
X115775812Y-154009482D01*
X115788072Y-153885000D01*
X115785000Y-153320750D01*
X115626250Y-153162000D01*
X114427000Y-153162000D01*
X114173000Y-153162000D01*
X112973750Y-153162000D01*
X112815000Y-153320750D01*
X112811928Y-153885000D01*
X112695000Y-153885000D01*
X112695000Y-146350000D01*
X113146275Y-146350000D01*
X113244866Y-146470134D01*
X113470986Y-146655706D01*
X113525791Y-146685000D01*
X113470986Y-146714294D01*
X113244866Y-146899866D01*
X113059294Y-147125986D01*
X112921401Y-147383966D01*
X112836487Y-147663889D01*
X112807815Y-147955000D01*
X112836487Y-148246111D01*
X112921401Y-148526034D01*
X113059294Y-148784014D01*
X113244866Y-149010134D01*
X113470986Y-149195706D01*
X113525791Y-149225000D01*
X113470986Y-149254294D01*
X113244866Y-149439866D01*
X113059294Y-149665986D01*
X112921401Y-149923966D01*
X112836487Y-150203889D01*
X112807815Y-150495000D01*
X112836487Y-150786111D01*
X112921401Y-151066034D01*
X113059294Y-151324014D01*
X113244866Y-151550134D01*
X113274687Y-151574607D01*
X113205820Y-151595498D01*
X113095506Y-151654463D01*
X112998815Y-151733815D01*
X112919463Y-151830506D01*
X112860498Y-151940820D01*
X112824188Y-152060518D01*
X112811928Y-152185000D01*
X112815000Y-152749250D01*
X112973750Y-152908000D01*
X114173000Y-152908000D01*
X114173000Y-152888000D01*
X114427000Y-152888000D01*
X114427000Y-152908000D01*
X115626250Y-152908000D01*
X115785000Y-152749250D01*
X115788072Y-152185000D01*
X115775812Y-152060518D01*
X115739502Y-151940820D01*
X115680537Y-151830506D01*
X115601185Y-151733815D01*
X115504494Y-151654463D01*
X115394180Y-151595498D01*
X115325313Y-151574607D01*
X115355134Y-151550134D01*
X115540706Y-151324014D01*
X115678599Y-151066034D01*
X115763513Y-150786111D01*
X115792185Y-150495000D01*
X115763513Y-150203889D01*
X115678599Y-149923966D01*
X115540706Y-149665986D01*
X115355134Y-149439866D01*
X115129014Y-149254294D01*
X115074209Y-149225000D01*
X115129014Y-149195706D01*
X115355134Y-149010134D01*
X115540706Y-148784014D01*
X115678599Y-148526034D01*
X115763513Y-148246111D01*
X115792185Y-147955000D01*
X115763513Y-147663889D01*
X115678599Y-147383966D01*
X115540706Y-147125986D01*
X115355134Y-146899866D01*
X115129014Y-146714294D01*
X115074209Y-146685000D01*
X115129014Y-146655706D01*
X115355134Y-146470134D01*
X115540706Y-146244014D01*
X115678599Y-145986034D01*
X115763513Y-145706111D01*
X115792185Y-145415000D01*
X115763513Y-145123889D01*
X115678599Y-144843966D01*
X115540706Y-144585986D01*
X115355134Y-144359866D01*
X115129014Y-144174294D01*
X115074209Y-144145000D01*
X115129014Y-144115706D01*
X115355134Y-143930134D01*
X115540706Y-143704014D01*
X115678599Y-143446034D01*
X115763513Y-143166111D01*
X115792185Y-142875000D01*
X115763513Y-142583889D01*
X115678599Y-142303966D01*
X115540706Y-142045986D01*
X115355134Y-141819866D01*
X115129014Y-141634294D01*
X114871034Y-141496401D01*
X114591111Y-141411487D01*
X114372950Y-141390000D01*
X114227050Y-141390000D01*
X114008889Y-141411487D01*
X113728966Y-141496401D01*
X113470986Y-141634294D01*
X113244866Y-141819866D01*
X113146275Y-141940000D01*
X110842289Y-141940000D01*
X111118659Y-141663630D01*
X111154344Y-141634344D01*
X111271186Y-141491972D01*
X111358007Y-141329540D01*
X111411471Y-141153292D01*
X111425000Y-141015932D01*
X111429524Y-140970000D01*
X111425000Y-140924068D01*
X111425000Y-139433072D01*
X111490000Y-139433072D01*
X111614482Y-139420812D01*
X111734180Y-139384502D01*
X111844494Y-139325537D01*
X111941185Y-139246185D01*
X112020537Y-139149494D01*
X112079502Y-139039180D01*
X112115812Y-138919482D01*
X112128072Y-138795000D01*
X112128072Y-136795000D01*
X112115812Y-136670518D01*
X112079502Y-136550820D01*
X112020537Y-136440506D01*
X111941185Y-136343815D01*
X111844494Y-136264463D01*
X111734180Y-136205498D01*
X111614482Y-136169188D01*
X111490000Y-136156928D01*
X109490000Y-136156928D01*
X109365518Y-136169188D01*
X109245820Y-136205498D01*
X109135506Y-136264463D01*
X109038815Y-136343815D01*
X108959463Y-136440506D01*
X108900498Y-136550820D01*
X108864188Y-136670518D01*
X108851928Y-136795000D01*
X108851928Y-138795000D01*
X108864188Y-138919482D01*
X108900498Y-139039180D01*
X108959463Y-139149494D01*
X109038815Y-139246185D01*
X109135506Y-139325537D01*
X109245820Y-139384502D01*
X109365518Y-139420812D01*
X109490000Y-139433072D01*
X109555001Y-139433072D01*
X109555001Y-140582710D01*
X108876875Y-141260836D01*
X108665322Y-141240000D01*
X108504678Y-141240000D01*
X108264484Y-141263657D01*
X107956285Y-141357148D01*
X107672248Y-141508969D01*
X107423286Y-141713286D01*
X107218969Y-141962248D01*
X107067148Y-142246285D01*
X106973657Y-142554484D01*
X106942089Y-142875000D01*
X106970836Y-143166875D01*
X106927711Y-143210000D01*
X104943072Y-143210000D01*
X104943072Y-142945000D01*
X104930812Y-142820518D01*
X104894502Y-142700820D01*
X104835537Y-142590506D01*
X104756185Y-142493815D01*
X104659494Y-142414463D01*
X104549180Y-142355498D01*
X104429482Y-142319188D01*
X104305000Y-142306928D01*
X102993991Y-142306928D01*
X103860253Y-141440666D01*
X103973899Y-141533932D01*
X104223192Y-141667182D01*
X104493691Y-141749236D01*
X104704508Y-141770000D01*
X104845492Y-141770000D01*
X105056309Y-141749236D01*
X105326808Y-141667182D01*
X105576101Y-141533932D01*
X105794608Y-141354608D01*
X105973932Y-141136101D01*
X106107182Y-140886808D01*
X106189236Y-140616309D01*
X106216943Y-140335000D01*
X106189236Y-140053691D01*
X106107182Y-139783192D01*
X105973932Y-139533899D01*
X105794608Y-139315392D01*
X105576101Y-139136068D01*
X105326808Y-139002818D01*
X105056309Y-138920764D01*
X104845492Y-138900000D01*
X104704508Y-138900000D01*
X104493691Y-138920764D01*
X104223192Y-139002818D01*
X103973899Y-139136068D01*
X103755392Y-139315392D01*
X103686226Y-139399671D01*
X103643630Y-139395476D01*
X103597698Y-139400000D01*
X103460338Y-139413529D01*
X103284090Y-139466993D01*
X103121658Y-139553814D01*
X102979286Y-139670656D01*
X102950000Y-139706341D01*
X100336336Y-142320005D01*
X100300657Y-142349286D01*
X100183815Y-142491658D01*
X100147569Y-142559471D01*
X99945393Y-142725392D01*
X99766068Y-142943899D01*
X99695000Y-143076858D01*
X99623932Y-142943899D01*
X99444608Y-142725392D01*
X99360000Y-142655956D01*
X99360000Y-141015932D01*
X99364524Y-140970000D01*
X99346472Y-140786708D01*
X99293007Y-140610459D01*
X99262765Y-140553880D01*
X99206186Y-140448028D01*
X99089344Y-140305656D01*
X99053659Y-140276370D01*
X98483630Y-139706341D01*
X98454344Y-139670656D01*
X98311972Y-139553814D01*
X98149540Y-139466993D01*
X97973292Y-139413529D01*
X97835932Y-139400000D01*
X97790000Y-139395476D01*
X97744068Y-139400000D01*
X95709396Y-139400000D01*
X95529759Y-139220363D01*
X95294727Y-139063320D01*
X95033574Y-138955147D01*
X94756335Y-138900000D01*
X94473665Y-138900000D01*
X94196426Y-138955147D01*
X93935273Y-139063320D01*
X93700241Y-139220363D01*
X93500363Y-139420241D01*
X93343320Y-139655273D01*
X93235147Y-139916426D01*
X93180000Y-140193665D01*
X93180000Y-140447711D01*
X92081336Y-141546375D01*
X92045657Y-141575656D01*
X91928815Y-141718028D01*
X91841994Y-141880460D01*
X91788529Y-142056709D01*
X91770476Y-142240000D01*
X91775001Y-142285942D01*
X91775000Y-144320604D01*
X91595363Y-144500241D01*
X91438320Y-144735273D01*
X91330147Y-144996426D01*
X91275000Y-145273665D01*
X91005000Y-145273665D01*
X91005000Y-133930413D01*
X109534192Y-133930413D01*
X109629956Y-134194814D01*
X109919571Y-134335704D01*
X110231108Y-134417384D01*
X110552595Y-134436718D01*
X110871675Y-134392961D01*
X111176088Y-134287795D01*
X111350044Y-134194814D01*
X111445808Y-133930413D01*
X110490000Y-132974605D01*
X109534192Y-133930413D01*
X91005000Y-133930413D01*
X91005000Y-132857595D01*
X108848282Y-132857595D01*
X108892039Y-133176675D01*
X108997205Y-133481088D01*
X109090186Y-133655044D01*
X109354587Y-133750808D01*
X110310395Y-132795000D01*
X110669605Y-132795000D01*
X111625413Y-133750808D01*
X111889814Y-133655044D01*
X112030704Y-133365429D01*
X112112384Y-133053892D01*
X112131718Y-132732405D01*
X112087961Y-132413325D01*
X111982795Y-132108912D01*
X111889814Y-131934956D01*
X111625413Y-131839192D01*
X110669605Y-132795000D01*
X110310395Y-132795000D01*
X109354587Y-131839192D01*
X109090186Y-131934956D01*
X108949296Y-132224571D01*
X108867616Y-132536108D01*
X108848282Y-132857595D01*
X91005000Y-132857595D01*
X91005000Y-131659587D01*
X109534192Y-131659587D01*
X110490000Y-132615395D01*
X111445808Y-131659587D01*
X111350044Y-131395186D01*
X111060429Y-131254296D01*
X110748892Y-131172616D01*
X110427405Y-131153282D01*
X110108325Y-131197039D01*
X109803912Y-131302205D01*
X109629956Y-131395186D01*
X109534192Y-131659587D01*
X91005000Y-131659587D01*
X91005000Y-130375000D01*
X116005000Y-130375000D01*
X116005001Y-162995000D01*
X116005001Y-162995000D01*
G37*
X116005001Y-162995000D02*
X91005000Y-162995000D01*
X91005000Y-158115000D01*
X93173057Y-158115000D01*
X93200764Y-158396309D01*
X93282818Y-158666808D01*
X93416068Y-158916101D01*
X93595392Y-159134608D01*
X93813899Y-159313932D01*
X94063192Y-159447182D01*
X94333691Y-159529236D01*
X94544508Y-159550000D01*
X94685492Y-159550000D01*
X94896309Y-159529236D01*
X95166808Y-159447182D01*
X95416101Y-159313932D01*
X95634608Y-159134608D01*
X95813932Y-158916101D01*
X95947182Y-158666808D01*
X96029236Y-158396309D01*
X96056943Y-158115000D01*
X96029236Y-157833691D01*
X95947182Y-157563192D01*
X95813932Y-157313899D01*
X95634608Y-157095392D01*
X95550000Y-157025956D01*
X95550000Y-153562949D01*
X95603691Y-153579236D01*
X95885000Y-153606943D01*
X96166308Y-153579236D01*
X96436807Y-153497182D01*
X96686100Y-153363932D01*
X96904607Y-153184608D01*
X97083932Y-152966101D01*
X97155000Y-152833142D01*
X97226068Y-152966100D01*
X97405392Y-153184607D01*
X97490001Y-153254044D01*
X97490001Y-153362709D01*
X97347710Y-153505000D01*
X97093665Y-153505000D01*
X96816426Y-153560147D01*
X96555273Y-153668320D01*
X96320241Y-153825363D01*
X96120363Y-154025241D01*
X95963320Y-154260273D01*
X95855147Y-154521426D01*
X95800000Y-154798665D01*
X95800000Y-155081335D01*
X95855147Y-155358574D01*
X95963320Y-155619727D01*
X96120363Y-155854759D01*
X96320241Y-156054637D01*
X96555273Y-156211680D01*
X96816426Y-156319853D01*
X97093665Y-156375000D01*
X97376335Y-156375000D01*
X97653574Y-156319853D01*
X97914727Y-156211680D01*
X98149759Y-156054637D01*
X98349637Y-155854759D01*
X98506680Y-155619727D01*
X98614853Y-155358574D01*
X98670000Y-155081335D01*
X98670000Y-154827290D01*
X98765657Y-154731633D01*
X98755476Y-154835000D01*
X98760001Y-154880942D01*
X98760000Y-158997711D01*
X97402711Y-160355000D01*
X95704044Y-160355000D01*
X95634608Y-160270392D01*
X95416101Y-160091068D01*
X95166808Y-159957818D01*
X94896309Y-159875764D01*
X94685492Y-159855000D01*
X94544508Y-159855000D01*
X94333691Y-159875764D01*
X94063192Y-159957818D01*
X93813899Y-160091068D01*
X93595392Y-160270392D01*
X93416068Y-160488899D01*
X93282818Y-160738192D01*
X93200764Y-161008691D01*
X93173057Y-161290000D01*
X93200764Y-161571309D01*
X93282818Y-161841808D01*
X93416068Y-162091101D01*
X93595392Y-162309608D01*
X93813899Y-162488932D01*
X94063192Y-162622182D01*
X94333691Y-162704236D01*
X94544508Y-162725000D01*
X94685492Y-162725000D01*
X94896309Y-162704236D01*
X95166808Y-162622182D01*
X95416101Y-162488932D01*
X95634608Y-162309608D01*
X95704044Y-162225000D01*
X97744068Y-162225000D01*
X97790000Y-162229524D01*
X97835932Y-162225000D01*
X97973292Y-162211471D01*
X98149540Y-162158007D01*
X98311972Y-162071186D01*
X98454344Y-161954344D01*
X98483630Y-161918659D01*
X100323660Y-160078629D01*
X100359344Y-160049344D01*
X100476186Y-159906972D01*
X100563007Y-159744540D01*
X100616471Y-159568292D01*
X100623704Y-159494853D01*
X100634524Y-159385000D01*
X100630000Y-159339068D01*
X100630000Y-157973665D01*
X103340000Y-157973665D01*
X103340000Y-158256335D01*
X103395147Y-158533574D01*
X103503320Y-158794727D01*
X103660363Y-159029759D01*
X103860241Y-159229637D01*
X104095273Y-159386680D01*
X104356426Y-159494853D01*
X104633665Y-159550000D01*
X104916335Y-159550000D01*
X105193574Y-159494853D01*
X105454727Y-159386680D01*
X105689759Y-159229637D01*
X105889637Y-159029759D01*
X106046680Y-158794727D01*
X106154853Y-158533574D01*
X106210000Y-158256335D01*
X106210000Y-157973665D01*
X106154853Y-157696426D01*
X106046680Y-157435273D01*
X105889637Y-157200241D01*
X105689759Y-157000363D01*
X105454727Y-156843320D01*
X105193574Y-156735147D01*
X104916335Y-156680000D01*
X104633665Y-156680000D01*
X104356426Y-156735147D01*
X104095273Y-156843320D01*
X103860241Y-157000363D01*
X103660363Y-157200241D01*
X103503320Y-157435273D01*
X103395147Y-157696426D01*
X103340000Y-157973665D01*
X100630000Y-157973665D01*
X100630000Y-155222289D01*
X100800000Y-155052289D01*
X100800000Y-155081335D01*
X100855147Y-155358574D01*
X100963320Y-155619727D01*
X101120363Y-155854759D01*
X101320241Y-156054637D01*
X101555273Y-156211680D01*
X101816426Y-156319853D01*
X102093665Y-156375000D01*
X102376335Y-156375000D01*
X102653574Y-156319853D01*
X102914727Y-156211680D01*
X103149759Y-156054637D01*
X103349637Y-155854759D01*
X103506680Y-155619727D01*
X103614853Y-155358574D01*
X103670000Y-155081335D01*
X103670000Y-154827290D01*
X104133664Y-154363626D01*
X104169344Y-154334344D01*
X104286186Y-154191972D01*
X104373007Y-154029540D01*
X104410253Y-153906757D01*
X104426471Y-153853293D01*
X104444524Y-153670001D01*
X104440000Y-153624069D01*
X104440000Y-153254043D01*
X104524607Y-153184608D01*
X104703932Y-152966101D01*
X104837182Y-152716808D01*
X104842281Y-152700000D01*
X106927711Y-152700000D01*
X106946928Y-152719217D01*
X106946928Y-154035000D01*
X106959188Y-154159482D01*
X106995498Y-154279180D01*
X107054463Y-154389494D01*
X107133815Y-154486185D01*
X107230506Y-154565537D01*
X107340820Y-154624502D01*
X107460518Y-154660812D01*
X107585000Y-154673072D01*
X109585000Y-154673072D01*
X109709482Y-154660812D01*
X109829180Y-154624502D01*
X109939494Y-154565537D01*
X110036185Y-154486185D01*
X110115537Y-154389494D01*
X110174502Y-154279180D01*
X110210812Y-154159482D01*
X110223072Y-154035000D01*
X110223072Y-152035000D01*
X110210812Y-151910518D01*
X110174502Y-151790820D01*
X110115537Y-151680506D01*
X110036185Y-151583815D01*
X109939494Y-151504463D01*
X109829180Y-151445498D01*
X109709482Y-151409188D01*
X109585000Y-151396928D01*
X108269217Y-151396928D01*
X108008630Y-151136341D01*
X107979344Y-151100656D01*
X107836972Y-150983814D01*
X107674540Y-150896993D01*
X107498292Y-150843529D01*
X107360932Y-150830000D01*
X107315000Y-150825476D01*
X107269068Y-150830000D01*
X104842281Y-150830000D01*
X104837182Y-150813192D01*
X104703932Y-150563899D01*
X104524608Y-150345392D01*
X104306101Y-150166068D01*
X104056808Y-150032818D01*
X103786309Y-149950764D01*
X103505000Y-149923057D01*
X103223692Y-149950764D01*
X102953193Y-150032818D01*
X102703900Y-150166068D01*
X102485393Y-150345392D01*
X102306068Y-150563899D01*
X102235000Y-150696858D01*
X102163932Y-150563899D01*
X101984608Y-150345392D01*
X101766101Y-150166068D01*
X101516808Y-150032818D01*
X101246309Y-149950764D01*
X100965000Y-149923057D01*
X100683692Y-149950764D01*
X100413193Y-150032818D01*
X100163900Y-150166068D01*
X99945393Y-150345392D01*
X99766068Y-150563899D01*
X99695000Y-150696858D01*
X99623932Y-150563899D01*
X99444608Y-150345392D01*
X99226101Y-150166068D01*
X98976808Y-150032818D01*
X98706309Y-149950764D01*
X98425000Y-149923057D01*
X98143692Y-149950764D01*
X97873193Y-150032818D01*
X97623900Y-150166068D01*
X97405393Y-150345392D01*
X97226068Y-150563899D01*
X97155000Y-150696858D01*
X97083932Y-150563899D01*
X96904608Y-150345392D01*
X96686101Y-150166068D01*
X96436808Y-150032818D01*
X96166309Y-149950764D01*
X95885000Y-149923057D01*
X95603692Y-149950764D01*
X95333193Y-150032818D01*
X95083900Y-150166068D01*
X94865393Y-150345392D01*
X94686068Y-150563899D01*
X94552818Y-150813192D01*
X94470764Y-151083691D01*
X94450000Y-151294508D01*
X94450000Y-151877711D01*
X93986336Y-152341375D01*
X93950657Y-152370656D01*
X93833815Y-152513028D01*
X93764061Y-152643529D01*
X93746994Y-152675460D01*
X93693529Y-152851709D01*
X93675476Y-153035000D01*
X93680001Y-153080942D01*
X93680000Y-157025956D01*
X93595392Y-157095392D01*
X93416068Y-157313899D01*
X93282818Y-157563192D01*
X93200764Y-157833691D01*
X93173057Y-158115000D01*
X91005000Y-158115000D01*
X91005000Y-151407702D01*
X91896903Y-151407702D01*
X91968486Y-151651671D01*
X92223996Y-151772571D01*
X92498184Y-151841300D01*
X92780512Y-151855217D01*
X93060130Y-151813787D01*
X93326292Y-151718603D01*
X93451514Y-151651671D01*
X93523097Y-151407702D01*
X92710000Y-150594605D01*
X91896903Y-151407702D01*
X91005000Y-151407702D01*
X91005000Y-150485512D01*
X91269783Y-150485512D01*
X91311213Y-150765130D01*
X91406397Y-151031292D01*
X91473329Y-151156514D01*
X91717298Y-151228097D01*
X92530395Y-150415000D01*
X92889605Y-150415000D01*
X93702702Y-151228097D01*
X93946671Y-151156514D01*
X94067571Y-150901004D01*
X94136300Y-150626816D01*
X94150217Y-150344488D01*
X94108787Y-150064870D01*
X94013603Y-149798708D01*
X93946671Y-149673486D01*
X93702702Y-149601903D01*
X92889605Y-150415000D01*
X92530395Y-150415000D01*
X91717298Y-149601903D01*
X91473329Y-149673486D01*
X91352429Y-149928996D01*
X91283700Y-150203184D01*
X91269783Y-150485512D01*
X91005000Y-150485512D01*
X91005000Y-149422298D01*
X91896903Y-149422298D01*
X92710000Y-150235395D01*
X93523097Y-149422298D01*
X93451514Y-149178329D01*
X93196004Y-149057429D01*
X92921816Y-148988700D01*
X92639488Y-148974783D01*
X92359870Y-149016213D01*
X92093708Y-149111397D01*
X91968486Y-149178329D01*
X91896903Y-149422298D01*
X91005000Y-149422298D01*
X91005000Y-148830000D01*
X96856928Y-148830000D01*
X96869188Y-148954482D01*
X96905498Y-149074180D01*
X96964463Y-149184494D01*
X97043815Y-149281185D01*
X97140506Y-149360537D01*
X97250820Y-149419502D01*
X97370518Y-149455812D01*
X97495000Y-149468072D01*
X97921750Y-149465000D01*
X98080500Y-149306250D01*
X98080500Y-148082000D01*
X98334500Y-148082000D01*
X98334500Y-149306250D01*
X98493250Y-149465000D01*
X98920000Y-149468072D01*
X99044482Y-149455812D01*
X99164180Y-149419502D01*
X99274494Y-149360537D01*
X99371185Y-149281185D01*
X99450537Y-149184494D01*
X99509502Y-149074180D01*
X99545812Y-148954482D01*
X99558072Y-148830000D01*
X99555000Y-148240750D01*
X99396250Y-148082000D01*
X98334500Y-148082000D01*
X98080500Y-148082000D01*
X97018750Y-148082000D01*
X96860000Y-148240750D01*
X96856928Y-148830000D01*
X91005000Y-148830000D01*
X91005000Y-147080000D01*
X96856928Y-147080000D01*
X96860000Y-147669250D01*
X97018750Y-147828000D01*
X98080500Y-147828000D01*
X98080500Y-146603750D01*
X98334500Y-146603750D01*
X98334500Y-147828000D01*
X99396250Y-147828000D01*
X99555000Y-147669250D01*
X99558072Y-147080000D01*
X99545812Y-146955518D01*
X99509502Y-146835820D01*
X99450537Y-146725506D01*
X99371185Y-146628815D01*
X99274494Y-146549463D01*
X99164180Y-146490498D01*
X99044482Y-146454188D01*
X98920000Y-146441928D01*
X98493250Y-146445000D01*
X98334500Y-146603750D01*
X98080500Y-146603750D01*
X97921750Y-146445000D01*
X97495000Y-146441928D01*
X97370518Y-146454188D01*
X97250820Y-146490498D01*
X97140506Y-146549463D01*
X97043815Y-146628815D01*
X96964463Y-146725506D01*
X96905498Y-146835820D01*
X96869188Y-146955518D01*
X96856928Y-147080000D01*
X91005000Y-147080000D01*
X91005000Y-145273665D01*
X91275000Y-145273665D01*
X91275000Y-145556335D01*
X91330147Y-145833574D01*
X91438320Y-146094727D01*
X91595363Y-146329759D01*
X91795241Y-146529637D01*
X92030273Y-146686680D01*
X92291426Y-146794853D01*
X92568665Y-146850000D01*
X92851335Y-146850000D01*
X93128574Y-146794853D01*
X93389727Y-146686680D01*
X93624759Y-146529637D01*
X93824637Y-146329759D01*
X93981680Y-146094727D01*
X94089853Y-145833574D01*
X94145000Y-145556335D01*
X94145000Y-145273665D01*
X94089853Y-144996426D01*
X93981680Y-144735273D01*
X93824637Y-144500241D01*
X93645000Y-144320604D01*
X93645000Y-144272000D01*
X94450000Y-144272000D01*
X94450000Y-144672000D01*
X94502350Y-144949514D01*
X94607834Y-145211483D01*
X94762399Y-145447839D01*
X94960105Y-145649500D01*
X95193354Y-145808715D01*
X95453182Y-145919367D01*
X95535961Y-145936904D01*
X95758000Y-145814915D01*
X95758000Y-144272000D01*
X94450000Y-144272000D01*
X93645000Y-144272000D01*
X93645000Y-143618000D01*
X94450000Y-143618000D01*
X94450000Y-144018000D01*
X95758000Y-144018000D01*
X95758000Y-142475085D01*
X95535961Y-142353096D01*
X95453182Y-142370633D01*
X95193354Y-142481285D01*
X94960105Y-142640500D01*
X94762399Y-142842161D01*
X94607834Y-143078517D01*
X94502350Y-143340486D01*
X94450000Y-143618000D01*
X93645000Y-143618000D01*
X93645000Y-142627289D01*
X94502289Y-141770000D01*
X94756335Y-141770000D01*
X95033574Y-141714853D01*
X95294727Y-141606680D01*
X95529759Y-141449637D01*
X95709396Y-141270000D01*
X97402711Y-141270000D01*
X97490001Y-141357290D01*
X97490000Y-142655956D01*
X97405393Y-142725392D01*
X97226068Y-142943899D01*
X97157735Y-143071741D01*
X97007601Y-142842161D01*
X96809895Y-142640500D01*
X96576646Y-142481285D01*
X96316818Y-142370633D01*
X96234039Y-142353096D01*
X96012000Y-142475085D01*
X96012000Y-144018000D01*
X96032000Y-144018000D01*
X96032000Y-144272000D01*
X96012000Y-144272000D01*
X96012000Y-145814915D01*
X96234039Y-145936904D01*
X96316818Y-145919367D01*
X96576646Y-145808715D01*
X96809895Y-145649500D01*
X97007601Y-145447839D01*
X97157735Y-145218258D01*
X97226068Y-145346100D01*
X97405392Y-145564607D01*
X97623899Y-145743932D01*
X97873192Y-145877182D01*
X98143691Y-145959236D01*
X98425000Y-145986943D01*
X98706308Y-145959236D01*
X98976807Y-145877182D01*
X99226100Y-145743932D01*
X99444607Y-145564608D01*
X99623932Y-145346101D01*
X99695000Y-145213142D01*
X99766068Y-145346100D01*
X99945392Y-145564607D01*
X100163899Y-145743932D01*
X100413192Y-145877182D01*
X100683691Y-145959236D01*
X100965000Y-145986943D01*
X101246308Y-145959236D01*
X101516807Y-145877182D01*
X101766100Y-145743932D01*
X101984607Y-145564608D01*
X102077419Y-145451517D01*
X102079188Y-145469482D01*
X102115498Y-145589180D01*
X102174463Y-145699494D01*
X102253815Y-145796185D01*
X102350506Y-145875537D01*
X102460820Y-145934502D01*
X102570000Y-145967621D01*
X102570000Y-146297710D01*
X102214034Y-146653677D01*
X102138386Y-146591595D01*
X101984850Y-146509528D01*
X101818254Y-146458992D01*
X101645000Y-146441928D01*
X100720000Y-146441928D01*
X100546746Y-146458992D01*
X100380150Y-146509528D01*
X100226614Y-146591595D01*
X100092038Y-146702038D01*
X99981595Y-146836614D01*
X99899528Y-146990150D01*
X99848992Y-147156746D01*
X99831928Y-147330000D01*
X99831928Y-148580000D01*
X99848992Y-148753254D01*
X99899528Y-148919850D01*
X99981595Y-149073386D01*
X100092038Y-149207962D01*
X100226614Y-149318405D01*
X100380150Y-149400472D01*
X100546746Y-149451008D01*
X100720000Y-149468072D01*
X101645000Y-149468072D01*
X101818254Y-149451008D01*
X101984850Y-149400472D01*
X102138386Y-149318405D01*
X102272962Y-149207962D01*
X102383405Y-149073386D01*
X102465472Y-148919850D01*
X102484746Y-148856313D01*
X102594540Y-148823007D01*
X102756972Y-148736186D01*
X102899344Y-148619344D01*
X102928630Y-148583659D01*
X104133665Y-147378625D01*
X104169344Y-147349344D01*
X104286186Y-147206972D01*
X104373007Y-147044540D01*
X104426471Y-146868292D01*
X104440000Y-146730932D01*
X104440000Y-146730931D01*
X104444524Y-146685001D01*
X104440000Y-146639069D01*
X104440000Y-145967621D01*
X104549180Y-145934502D01*
X104659494Y-145875537D01*
X104756185Y-145796185D01*
X104835537Y-145699494D01*
X104894502Y-145589180D01*
X104930812Y-145469482D01*
X104943072Y-145345000D01*
X104943072Y-145080000D01*
X107269068Y-145080000D01*
X107315000Y-145084524D01*
X107360932Y-145080000D01*
X107498292Y-145066471D01*
X107674540Y-145013007D01*
X107836972Y-144926186D01*
X107979344Y-144809344D01*
X108008630Y-144773659D01*
X108293125Y-144489164D01*
X108504678Y-144510000D01*
X108665322Y-144510000D01*
X108905516Y-144486343D01*
X109213715Y-144392852D01*
X109497752Y-144241031D01*
X109746714Y-144036714D01*
X109932773Y-143810000D01*
X113146275Y-143810000D01*
X113244866Y-143930134D01*
X113470986Y-144115706D01*
X113525791Y-144145000D01*
X113470986Y-144174294D01*
X113244866Y-144359866D01*
X113146275Y-144480000D01*
X111805932Y-144480000D01*
X111760000Y-144475476D01*
X111714068Y-144480000D01*
X111576708Y-144493529D01*
X111400460Y-144546993D01*
X111238028Y-144633814D01*
X111095656Y-144750656D01*
X110978814Y-144893028D01*
X110891993Y-145055460D01*
X110838529Y-145231708D01*
X110820476Y-145415000D01*
X110825001Y-145460942D01*
X110825000Y-158997711D01*
X109467711Y-160355000D01*
X105869396Y-160355000D01*
X105689759Y-160175363D01*
X105454727Y-160018320D01*
X105193574Y-159910147D01*
X104916335Y-159855000D01*
X104633665Y-159855000D01*
X104356426Y-159910147D01*
X104095273Y-160018320D01*
X103860241Y-160175363D01*
X103660363Y-160375241D01*
X103503320Y-160610273D01*
X103395147Y-160871426D01*
X103340000Y-161148665D01*
X103340000Y-161431335D01*
X103395147Y-161708574D01*
X103503320Y-161969727D01*
X103660363Y-162204759D01*
X103860241Y-162404637D01*
X104095273Y-162561680D01*
X104356426Y-162669853D01*
X104633665Y-162725000D01*
X104916335Y-162725000D01*
X105193574Y-162669853D01*
X105454727Y-162561680D01*
X105689759Y-162404637D01*
X105869396Y-162225000D01*
X109809068Y-162225000D01*
X109855000Y-162229524D01*
X109900932Y-162225000D01*
X110038292Y-162211471D01*
X110214540Y-162158007D01*
X110376972Y-162071186D01*
X110519344Y-161954344D01*
X110548630Y-161918659D01*
X112388660Y-160078629D01*
X112424344Y-160049344D01*
X112541186Y-159906972D01*
X112628007Y-159744540D01*
X112681471Y-159568292D01*
X112688704Y-159494853D01*
X112699524Y-159385000D01*
X112695000Y-159339068D01*
X112695000Y-153885000D01*
X112811928Y-153885000D01*
X112824188Y-154009482D01*
X112860498Y-154129180D01*
X112919463Y-154239494D01*
X112998815Y-154336185D01*
X113095506Y-154415537D01*
X113205820Y-154474502D01*
X113325518Y-154510812D01*
X113450000Y-154523072D01*
X114014250Y-154520000D01*
X114173000Y-154361250D01*
X114173000Y-153162000D01*
X114427000Y-153162000D01*
X114427000Y-154361250D01*
X114585750Y-154520000D01*
X115150000Y-154523072D01*
X115274482Y-154510812D01*
X115394180Y-154474502D01*
X115504494Y-154415537D01*
X115601185Y-154336185D01*
X115680537Y-154239494D01*
X115739502Y-154129180D01*
X115775812Y-154009482D01*
X115788072Y-153885000D01*
X115785000Y-153320750D01*
X115626250Y-153162000D01*
X114427000Y-153162000D01*
X114173000Y-153162000D01*
X112973750Y-153162000D01*
X112815000Y-153320750D01*
X112811928Y-153885000D01*
X112695000Y-153885000D01*
X112695000Y-146350000D01*
X113146275Y-146350000D01*
X113244866Y-146470134D01*
X113470986Y-146655706D01*
X113525791Y-146685000D01*
X113470986Y-146714294D01*
X113244866Y-146899866D01*
X113059294Y-147125986D01*
X112921401Y-147383966D01*
X112836487Y-147663889D01*
X112807815Y-147955000D01*
X112836487Y-148246111D01*
X112921401Y-148526034D01*
X113059294Y-148784014D01*
X113244866Y-149010134D01*
X113470986Y-149195706D01*
X113525791Y-149225000D01*
X113470986Y-149254294D01*
X113244866Y-149439866D01*
X113059294Y-149665986D01*
X112921401Y-149923966D01*
X112836487Y-150203889D01*
X112807815Y-150495000D01*
X112836487Y-150786111D01*
X112921401Y-151066034D01*
X113059294Y-151324014D01*
X113244866Y-151550134D01*
X113274687Y-151574607D01*
X113205820Y-151595498D01*
X113095506Y-151654463D01*
X112998815Y-151733815D01*
X112919463Y-151830506D01*
X112860498Y-151940820D01*
X112824188Y-152060518D01*
X112811928Y-152185000D01*
X112815000Y-152749250D01*
X112973750Y-152908000D01*
X114173000Y-152908000D01*
X114173000Y-152888000D01*
X114427000Y-152888000D01*
X114427000Y-152908000D01*
X115626250Y-152908000D01*
X115785000Y-152749250D01*
X115788072Y-152185000D01*
X115775812Y-152060518D01*
X115739502Y-151940820D01*
X115680537Y-151830506D01*
X115601185Y-151733815D01*
X115504494Y-151654463D01*
X115394180Y-151595498D01*
X115325313Y-151574607D01*
X115355134Y-151550134D01*
X115540706Y-151324014D01*
X115678599Y-151066034D01*
X115763513Y-150786111D01*
X115792185Y-150495000D01*
X115763513Y-150203889D01*
X115678599Y-149923966D01*
X115540706Y-149665986D01*
X115355134Y-149439866D01*
X115129014Y-149254294D01*
X115074209Y-149225000D01*
X115129014Y-149195706D01*
X115355134Y-149010134D01*
X115540706Y-148784014D01*
X115678599Y-148526034D01*
X115763513Y-148246111D01*
X115792185Y-147955000D01*
X115763513Y-147663889D01*
X115678599Y-147383966D01*
X115540706Y-147125986D01*
X115355134Y-146899866D01*
X115129014Y-146714294D01*
X115074209Y-146685000D01*
X115129014Y-146655706D01*
X115355134Y-146470134D01*
X115540706Y-146244014D01*
X115678599Y-145986034D01*
X115763513Y-145706111D01*
X115792185Y-145415000D01*
X115763513Y-145123889D01*
X115678599Y-144843966D01*
X115540706Y-144585986D01*
X115355134Y-144359866D01*
X115129014Y-144174294D01*
X115074209Y-144145000D01*
X115129014Y-144115706D01*
X115355134Y-143930134D01*
X115540706Y-143704014D01*
X115678599Y-143446034D01*
X115763513Y-143166111D01*
X115792185Y-142875000D01*
X115763513Y-142583889D01*
X115678599Y-142303966D01*
X115540706Y-142045986D01*
X115355134Y-141819866D01*
X115129014Y-141634294D01*
X114871034Y-141496401D01*
X114591111Y-141411487D01*
X114372950Y-141390000D01*
X114227050Y-141390000D01*
X114008889Y-141411487D01*
X113728966Y-141496401D01*
X113470986Y-141634294D01*
X113244866Y-141819866D01*
X113146275Y-141940000D01*
X110842289Y-141940000D01*
X111118659Y-141663630D01*
X111154344Y-141634344D01*
X111271186Y-141491972D01*
X111358007Y-141329540D01*
X111411471Y-141153292D01*
X111425000Y-141015932D01*
X111429524Y-140970000D01*
X111425000Y-140924068D01*
X111425000Y-139433072D01*
X111490000Y-139433072D01*
X111614482Y-139420812D01*
X111734180Y-139384502D01*
X111844494Y-139325537D01*
X111941185Y-139246185D01*
X112020537Y-139149494D01*
X112079502Y-139039180D01*
X112115812Y-138919482D01*
X112128072Y-138795000D01*
X112128072Y-136795000D01*
X112115812Y-136670518D01*
X112079502Y-136550820D01*
X112020537Y-136440506D01*
X111941185Y-136343815D01*
X111844494Y-136264463D01*
X111734180Y-136205498D01*
X111614482Y-136169188D01*
X111490000Y-136156928D01*
X109490000Y-136156928D01*
X109365518Y-136169188D01*
X109245820Y-136205498D01*
X109135506Y-136264463D01*
X109038815Y-136343815D01*
X108959463Y-136440506D01*
X108900498Y-136550820D01*
X108864188Y-136670518D01*
X108851928Y-136795000D01*
X108851928Y-138795000D01*
X108864188Y-138919482D01*
X108900498Y-139039180D01*
X108959463Y-139149494D01*
X109038815Y-139246185D01*
X109135506Y-139325537D01*
X109245820Y-139384502D01*
X109365518Y-139420812D01*
X109490000Y-139433072D01*
X109555001Y-139433072D01*
X109555001Y-140582710D01*
X108876875Y-141260836D01*
X108665322Y-141240000D01*
X108504678Y-141240000D01*
X108264484Y-141263657D01*
X107956285Y-141357148D01*
X107672248Y-141508969D01*
X107423286Y-141713286D01*
X107218969Y-141962248D01*
X107067148Y-142246285D01*
X106973657Y-142554484D01*
X106942089Y-142875000D01*
X106970836Y-143166875D01*
X106927711Y-143210000D01*
X104943072Y-143210000D01*
X104943072Y-142945000D01*
X104930812Y-142820518D01*
X104894502Y-142700820D01*
X104835537Y-142590506D01*
X104756185Y-142493815D01*
X104659494Y-142414463D01*
X104549180Y-142355498D01*
X104429482Y-142319188D01*
X104305000Y-142306928D01*
X102993991Y-142306928D01*
X103860253Y-141440666D01*
X103973899Y-141533932D01*
X104223192Y-141667182D01*
X104493691Y-141749236D01*
X104704508Y-141770000D01*
X104845492Y-141770000D01*
X105056309Y-141749236D01*
X105326808Y-141667182D01*
X105576101Y-141533932D01*
X105794608Y-141354608D01*
X105973932Y-141136101D01*
X106107182Y-140886808D01*
X106189236Y-140616309D01*
X106216943Y-140335000D01*
X106189236Y-140053691D01*
X106107182Y-139783192D01*
X105973932Y-139533899D01*
X105794608Y-139315392D01*
X105576101Y-139136068D01*
X105326808Y-139002818D01*
X105056309Y-138920764D01*
X104845492Y-138900000D01*
X104704508Y-138900000D01*
X104493691Y-138920764D01*
X104223192Y-139002818D01*
X103973899Y-139136068D01*
X103755392Y-139315392D01*
X103686226Y-139399671D01*
X103643630Y-139395476D01*
X103597698Y-139400000D01*
X103460338Y-139413529D01*
X103284090Y-139466993D01*
X103121658Y-139553814D01*
X102979286Y-139670656D01*
X102950000Y-139706341D01*
X100336336Y-142320005D01*
X100300657Y-142349286D01*
X100183815Y-142491658D01*
X100147569Y-142559471D01*
X99945393Y-142725392D01*
X99766068Y-142943899D01*
X99695000Y-143076858D01*
X99623932Y-142943899D01*
X99444608Y-142725392D01*
X99360000Y-142655956D01*
X99360000Y-141015932D01*
X99364524Y-140970000D01*
X99346472Y-140786708D01*
X99293007Y-140610459D01*
X99262765Y-140553880D01*
X99206186Y-140448028D01*
X99089344Y-140305656D01*
X99053659Y-140276370D01*
X98483630Y-139706341D01*
X98454344Y-139670656D01*
X98311972Y-139553814D01*
X98149540Y-139466993D01*
X97973292Y-139413529D01*
X97835932Y-139400000D01*
X97790000Y-139395476D01*
X97744068Y-139400000D01*
X95709396Y-139400000D01*
X95529759Y-139220363D01*
X95294727Y-139063320D01*
X95033574Y-138955147D01*
X94756335Y-138900000D01*
X94473665Y-138900000D01*
X94196426Y-138955147D01*
X93935273Y-139063320D01*
X93700241Y-139220363D01*
X93500363Y-139420241D01*
X93343320Y-139655273D01*
X93235147Y-139916426D01*
X93180000Y-140193665D01*
X93180000Y-140447711D01*
X92081336Y-141546375D01*
X92045657Y-141575656D01*
X91928815Y-141718028D01*
X91841994Y-141880460D01*
X91788529Y-142056709D01*
X91770476Y-142240000D01*
X91775001Y-142285942D01*
X91775000Y-144320604D01*
X91595363Y-144500241D01*
X91438320Y-144735273D01*
X91330147Y-144996426D01*
X91275000Y-145273665D01*
X91005000Y-145273665D01*
X91005000Y-133930413D01*
X109534192Y-133930413D01*
X109629956Y-134194814D01*
X109919571Y-134335704D01*
X110231108Y-134417384D01*
X110552595Y-134436718D01*
X110871675Y-134392961D01*
X111176088Y-134287795D01*
X111350044Y-134194814D01*
X111445808Y-133930413D01*
X110490000Y-132974605D01*
X109534192Y-133930413D01*
X91005000Y-133930413D01*
X91005000Y-132857595D01*
X108848282Y-132857595D01*
X108892039Y-133176675D01*
X108997205Y-133481088D01*
X109090186Y-133655044D01*
X109354587Y-133750808D01*
X110310395Y-132795000D01*
X110669605Y-132795000D01*
X111625413Y-133750808D01*
X111889814Y-133655044D01*
X112030704Y-133365429D01*
X112112384Y-133053892D01*
X112131718Y-132732405D01*
X112087961Y-132413325D01*
X111982795Y-132108912D01*
X111889814Y-131934956D01*
X111625413Y-131839192D01*
X110669605Y-132795000D01*
X110310395Y-132795000D01*
X109354587Y-131839192D01*
X109090186Y-131934956D01*
X108949296Y-132224571D01*
X108867616Y-132536108D01*
X108848282Y-132857595D01*
X91005000Y-132857595D01*
X91005000Y-131659587D01*
X109534192Y-131659587D01*
X110490000Y-132615395D01*
X111445808Y-131659587D01*
X111350044Y-131395186D01*
X111060429Y-131254296D01*
X110748892Y-131172616D01*
X110427405Y-131153282D01*
X110108325Y-131197039D01*
X109803912Y-131302205D01*
X109629956Y-131395186D01*
X109534192Y-131659587D01*
X91005000Y-131659587D01*
X91005000Y-130375000D01*
X116005000Y-130375000D01*
X116005001Y-162995000D01*
M02*
