G04 #@! TF.GenerationSoftware,KiCad,Pcbnew,5.1.2-f72e74a~84~ubuntu19.04.1*
G04 #@! TF.CreationDate,2019-06-26T10:30:51+03:00*
G04 #@! TF.ProjectId,IR2153_Board,49523231-3533-45f4-926f-6172642e6b69,rev?*
G04 #@! TF.SameCoordinates,Original*
G04 #@! TF.FileFunction,Legend,Top*
G04 #@! TF.FilePolarity,Positive*
%FSLAX46Y46*%
G04 Gerber Fmt 4.6, Leading zero omitted, Abs format (unit mm)*
G04 Created by KiCad (PCBNEW 5.1.2-f72e74a~84~ubuntu19.04.1) date 2019-06-26 10:30:51*
%MOMM*%
%LPD*%
G04 APERTURE LIST*
%ADD10C,0.150000*%
%ADD11C,0.400000*%
%ADD12C,0.120000*%
G04 APERTURE END LIST*
D10*
X95004285Y-132977380D02*
X95004285Y-131977380D01*
X96051904Y-132977380D02*
X95718571Y-132501190D01*
X95480476Y-132977380D02*
X95480476Y-131977380D01*
X95861428Y-131977380D01*
X95956666Y-132025000D01*
X96004285Y-132072619D01*
X96051904Y-132167857D01*
X96051904Y-132310714D01*
X96004285Y-132405952D01*
X95956666Y-132453571D01*
X95861428Y-132501190D01*
X95480476Y-132501190D01*
X96432857Y-132072619D02*
X96480476Y-132025000D01*
X96575714Y-131977380D01*
X96813809Y-131977380D01*
X96909047Y-132025000D01*
X96956666Y-132072619D01*
X97004285Y-132167857D01*
X97004285Y-132263095D01*
X96956666Y-132405952D01*
X96385238Y-132977380D01*
X97004285Y-132977380D01*
X97956666Y-132977380D02*
X97385238Y-132977380D01*
X97670952Y-132977380D02*
X97670952Y-131977380D01*
X97575714Y-132120238D01*
X97480476Y-132215476D01*
X97385238Y-132263095D01*
X98861428Y-131977380D02*
X98385238Y-131977380D01*
X98337619Y-132453571D01*
X98385238Y-132405952D01*
X98480476Y-132358333D01*
X98718571Y-132358333D01*
X98813809Y-132405952D01*
X98861428Y-132453571D01*
X98909047Y-132548809D01*
X98909047Y-132786904D01*
X98861428Y-132882142D01*
X98813809Y-132929761D01*
X98718571Y-132977380D01*
X98480476Y-132977380D01*
X98385238Y-132929761D01*
X98337619Y-132882142D01*
X99242380Y-131977380D02*
X99861428Y-131977380D01*
X99528095Y-132358333D01*
X99670952Y-132358333D01*
X99766190Y-132405952D01*
X99813809Y-132453571D01*
X99861428Y-132548809D01*
X99861428Y-132786904D01*
X99813809Y-132882142D01*
X99766190Y-132929761D01*
X99670952Y-132977380D01*
X99385238Y-132977380D01*
X99290000Y-132929761D01*
X99242380Y-132882142D01*
X94885238Y-134532142D02*
X94837619Y-134579761D01*
X94694761Y-134627380D01*
X94599523Y-134627380D01*
X94456666Y-134579761D01*
X94361428Y-134484523D01*
X94313809Y-134389285D01*
X94266190Y-134198809D01*
X94266190Y-134055952D01*
X94313809Y-133865476D01*
X94361428Y-133770238D01*
X94456666Y-133675000D01*
X94599523Y-133627380D01*
X94694761Y-133627380D01*
X94837619Y-133675000D01*
X94885238Y-133722619D01*
X95456666Y-134627380D02*
X95361428Y-134579761D01*
X95313809Y-134532142D01*
X95266190Y-134436904D01*
X95266190Y-134151190D01*
X95313809Y-134055952D01*
X95361428Y-134008333D01*
X95456666Y-133960714D01*
X95599523Y-133960714D01*
X95694761Y-134008333D01*
X95742380Y-134055952D01*
X95790000Y-134151190D01*
X95790000Y-134436904D01*
X95742380Y-134532142D01*
X95694761Y-134579761D01*
X95599523Y-134627380D01*
X95456666Y-134627380D01*
X96218571Y-133960714D02*
X96218571Y-134627380D01*
X96218571Y-134055952D02*
X96266190Y-134008333D01*
X96361428Y-133960714D01*
X96504285Y-133960714D01*
X96599523Y-134008333D01*
X96647142Y-134103571D01*
X96647142Y-134627380D01*
X96980476Y-133960714D02*
X97361428Y-133960714D01*
X97123333Y-133627380D02*
X97123333Y-134484523D01*
X97170952Y-134579761D01*
X97266190Y-134627380D01*
X97361428Y-134627380D01*
X97694761Y-134627380D02*
X97694761Y-133960714D01*
X97694761Y-134151190D02*
X97742380Y-134055952D01*
X97790000Y-134008333D01*
X97885238Y-133960714D01*
X97980476Y-133960714D01*
X98456666Y-134627380D02*
X98361428Y-134579761D01*
X98313809Y-134532142D01*
X98266190Y-134436904D01*
X98266190Y-134151190D01*
X98313809Y-134055952D01*
X98361428Y-134008333D01*
X98456666Y-133960714D01*
X98599523Y-133960714D01*
X98694761Y-134008333D01*
X98742380Y-134055952D01*
X98790000Y-134151190D01*
X98790000Y-134436904D01*
X98742380Y-134532142D01*
X98694761Y-134579761D01*
X98599523Y-134627380D01*
X98456666Y-134627380D01*
X99361428Y-134627380D02*
X99266190Y-134579761D01*
X99218571Y-134484523D01*
X99218571Y-133627380D01*
X99885238Y-134627380D02*
X99790000Y-134579761D01*
X99742380Y-134484523D01*
X99742380Y-133627380D01*
X100647142Y-134579761D02*
X100551904Y-134627380D01*
X100361428Y-134627380D01*
X100266190Y-134579761D01*
X100218571Y-134484523D01*
X100218571Y-134103571D01*
X100266190Y-134008333D01*
X100361428Y-133960714D01*
X100551904Y-133960714D01*
X100647142Y-134008333D01*
X100694761Y-134103571D01*
X100694761Y-134198809D01*
X100218571Y-134294047D01*
X101123333Y-134627380D02*
X101123333Y-133960714D01*
X101123333Y-134151190D02*
X101170952Y-134055952D01*
X101218571Y-134008333D01*
X101313809Y-133960714D01*
X101409047Y-133960714D01*
X111260000Y-153796904D02*
X111212380Y-153892142D01*
X111212380Y-154035000D01*
X111260000Y-154177857D01*
X111355238Y-154273095D01*
X111450476Y-154320714D01*
X111640952Y-154368333D01*
X111783809Y-154368333D01*
X111974285Y-154320714D01*
X112069523Y-154273095D01*
X112164761Y-154177857D01*
X112212380Y-154035000D01*
X112212380Y-153939761D01*
X112164761Y-153796904D01*
X112117142Y-153749285D01*
X111783809Y-153749285D01*
X111783809Y-153939761D01*
X112212380Y-153320714D02*
X111212380Y-153320714D01*
X112212380Y-152749285D01*
X111212380Y-152749285D01*
X112212380Y-152273095D02*
X111212380Y-152273095D01*
X111212380Y-152035000D01*
X111260000Y-151892142D01*
X111355238Y-151796904D01*
X111450476Y-151749285D01*
X111640952Y-151701666D01*
X111783809Y-151701666D01*
X111974285Y-151749285D01*
X112069523Y-151796904D01*
X112164761Y-151892142D01*
X112212380Y-152035000D01*
X112212380Y-152273095D01*
X112212380Y-150709285D02*
X112212380Y-151185476D01*
X111212380Y-151185476D01*
X111212380Y-150185476D02*
X111212380Y-149995000D01*
X111260000Y-149899761D01*
X111355238Y-149804523D01*
X111545714Y-149756904D01*
X111879047Y-149756904D01*
X112069523Y-149804523D01*
X112164761Y-149899761D01*
X112212380Y-149995000D01*
X112212380Y-150185476D01*
X112164761Y-150280714D01*
X112069523Y-150375952D01*
X111879047Y-150423571D01*
X111545714Y-150423571D01*
X111355238Y-150375952D01*
X111260000Y-150280714D01*
X111212380Y-150185476D01*
X111212380Y-148764523D02*
X112212380Y-148431190D01*
X111212380Y-148097857D01*
X112164761Y-147812142D02*
X112212380Y-147669285D01*
X112212380Y-147431190D01*
X112164761Y-147335952D01*
X112117142Y-147288333D01*
X112021904Y-147240714D01*
X111926666Y-147240714D01*
X111831428Y-147288333D01*
X111783809Y-147335952D01*
X111736190Y-147431190D01*
X111688571Y-147621666D01*
X111640952Y-147716904D01*
X111593333Y-147764523D01*
X111498095Y-147812142D01*
X111402857Y-147812142D01*
X111307619Y-147764523D01*
X111260000Y-147716904D01*
X111212380Y-147621666D01*
X111212380Y-147383571D01*
X111260000Y-147240714D01*
X112212380Y-146224523D02*
X111212380Y-146224523D01*
X111688571Y-146224523D02*
X111688571Y-145653095D01*
X112212380Y-145653095D02*
X111212380Y-145653095D01*
X111212380Y-144986428D02*
X111212380Y-144795952D01*
X111260000Y-144700714D01*
X111355238Y-144605476D01*
X111545714Y-144557857D01*
X111879047Y-144557857D01*
X112069523Y-144605476D01*
X112164761Y-144700714D01*
X112212380Y-144795952D01*
X112212380Y-144986428D01*
X112164761Y-145081666D01*
X112069523Y-145176904D01*
X111879047Y-145224523D01*
X111545714Y-145224523D01*
X111355238Y-145176904D01*
X111260000Y-145081666D01*
X111212380Y-144986428D01*
X111212380Y-144208333D02*
X112212380Y-143875000D01*
X111212380Y-143541666D01*
X112117142Y-142636904D02*
X112164761Y-142684523D01*
X112212380Y-142827380D01*
X112212380Y-142922619D01*
X112164761Y-143065476D01*
X112069523Y-143160714D01*
X111974285Y-143208333D01*
X111783809Y-143255952D01*
X111640952Y-143255952D01*
X111450476Y-143208333D01*
X111355238Y-143160714D01*
X111260000Y-143065476D01*
X111212380Y-142922619D01*
X111212380Y-142827380D01*
X111260000Y-142684523D01*
X111307619Y-142636904D01*
X112117142Y-141636904D02*
X112164761Y-141684523D01*
X112212380Y-141827380D01*
X112212380Y-141922619D01*
X112164761Y-142065476D01*
X112069523Y-142160714D01*
X111974285Y-142208333D01*
X111783809Y-142255952D01*
X111640952Y-142255952D01*
X111450476Y-142208333D01*
X111355238Y-142160714D01*
X111260000Y-142065476D01*
X111212380Y-141922619D01*
X111212380Y-141827380D01*
X111260000Y-141684523D01*
X111307619Y-141636904D01*
D11*
X90170000Y-163830000D02*
X90170000Y-129540000D01*
X116840000Y-163830000D02*
X90170000Y-163830000D01*
X116840000Y-129540000D02*
X116840000Y-163830000D01*
X90170000Y-129540000D02*
X116840000Y-129540000D01*
D12*
X115630000Y-154365000D02*
X114300000Y-154365000D01*
X115630000Y-153035000D02*
X115630000Y-154365000D01*
X115630000Y-151765000D02*
X112970000Y-151765000D01*
X112970000Y-151765000D02*
X112970000Y-141545000D01*
X115630000Y-151765000D02*
X115630000Y-141545000D01*
X115630000Y-141545000D02*
X112970000Y-141545000D01*
X104835000Y-150205000D02*
X104835000Y-148955000D01*
X94555000Y-150205000D02*
X104835000Y-150205000D01*
X94555000Y-145705000D02*
X94555000Y-150205000D01*
X104835000Y-145705000D02*
X94555000Y-145705000D01*
X104835000Y-146955000D02*
X104835000Y-145705000D01*
X104835000Y-148955000D02*
G75*
G02X104835000Y-146955000I0J1000000D01*
G01*
X95655000Y-158115000D02*
X96425000Y-158115000D01*
X103735000Y-158115000D02*
X102965000Y-158115000D01*
X96425000Y-159485000D02*
X102965000Y-159485000D01*
X96425000Y-156745000D02*
X96425000Y-159485000D01*
X102965000Y-156745000D02*
X96425000Y-156745000D01*
X102965000Y-159485000D02*
X102965000Y-156745000D01*
X95655000Y-161290000D02*
X96425000Y-161290000D01*
X103735000Y-161290000D02*
X102965000Y-161290000D01*
X96425000Y-162660000D02*
X102965000Y-162660000D01*
X96425000Y-159920000D02*
X96425000Y-162660000D01*
X102965000Y-159920000D02*
X96425000Y-159920000D01*
X102965000Y-162660000D02*
X102965000Y-159920000D01*
X103735000Y-140335000D02*
X102965000Y-140335000D01*
X95655000Y-140335000D02*
X96425000Y-140335000D01*
X102965000Y-138965000D02*
X96425000Y-138965000D01*
X102965000Y-141705000D02*
X102965000Y-138965000D01*
X96425000Y-141705000D02*
X102965000Y-141705000D01*
X96425000Y-138965000D02*
X96425000Y-141705000D01*
X107165000Y-149195000D02*
X110005000Y-149195000D01*
X107165000Y-148955000D02*
X110005000Y-148955000D01*
X107165000Y-149075000D02*
X110005000Y-149075000D01*
X108585000Y-144115000D02*
X108585000Y-146235000D01*
X108585000Y-151795000D02*
X108585000Y-149675000D01*
X107165000Y-146235000D02*
X107165000Y-149675000D01*
X110005000Y-146235000D02*
X107165000Y-146235000D01*
X110005000Y-149675000D02*
X110005000Y-146235000D01*
X107165000Y-149675000D02*
X110005000Y-149675000D01*
X107115000Y-140274646D02*
X108115000Y-140274646D01*
X107615000Y-140774646D02*
X107615000Y-139774646D01*
X109891000Y-130214000D02*
X111089000Y-130214000D01*
X109628000Y-130254000D02*
X111352000Y-130254000D01*
X109428000Y-130294000D02*
X111552000Y-130294000D01*
X109260000Y-130334000D02*
X111720000Y-130334000D01*
X109112000Y-130374000D02*
X111868000Y-130374000D01*
X108980000Y-130414000D02*
X112000000Y-130414000D01*
X108860000Y-130454000D02*
X112120000Y-130454000D01*
X108748000Y-130494000D02*
X112232000Y-130494000D01*
X108644000Y-130534000D02*
X112336000Y-130534000D01*
X108546000Y-130574000D02*
X112434000Y-130574000D01*
X108453000Y-130614000D02*
X112527000Y-130614000D01*
X108365000Y-130654000D02*
X112615000Y-130654000D01*
X108281000Y-130694000D02*
X112699000Y-130694000D01*
X108201000Y-130734000D02*
X112779000Y-130734000D01*
X108125000Y-130774000D02*
X112855000Y-130774000D01*
X108051000Y-130814000D02*
X112929000Y-130814000D01*
X107980000Y-130854000D02*
X113000000Y-130854000D01*
X107911000Y-130894000D02*
X113069000Y-130894000D01*
X107845000Y-130934000D02*
X113135000Y-130934000D01*
X107781000Y-130974000D02*
X113199000Y-130974000D01*
X107720000Y-131014000D02*
X113260000Y-131014000D01*
X107660000Y-131054000D02*
X113320000Y-131054000D01*
X107601000Y-131094000D02*
X113379000Y-131094000D01*
X107545000Y-131134000D02*
X113435000Y-131134000D01*
X107490000Y-131174000D02*
X113490000Y-131174000D01*
X107436000Y-131214000D02*
X113544000Y-131214000D01*
X107384000Y-131254000D02*
X113596000Y-131254000D01*
X107334000Y-131294000D02*
X113646000Y-131294000D01*
X107284000Y-131334000D02*
X113696000Y-131334000D01*
X107236000Y-131374000D02*
X113744000Y-131374000D01*
X107189000Y-131414000D02*
X113791000Y-131414000D01*
X107143000Y-131454000D02*
X113837000Y-131454000D01*
X107098000Y-131494000D02*
X113882000Y-131494000D01*
X107054000Y-131534000D02*
X113926000Y-131534000D01*
X111731000Y-131574000D02*
X113968000Y-131574000D01*
X107012000Y-131574000D02*
X109249000Y-131574000D01*
X111731000Y-131614000D02*
X114010000Y-131614000D01*
X106970000Y-131614000D02*
X109249000Y-131614000D01*
X111731000Y-131654000D02*
X114051000Y-131654000D01*
X106929000Y-131654000D02*
X109249000Y-131654000D01*
X111731000Y-131694000D02*
X114091000Y-131694000D01*
X106889000Y-131694000D02*
X109249000Y-131694000D01*
X111731000Y-131734000D02*
X114130000Y-131734000D01*
X106850000Y-131734000D02*
X109249000Y-131734000D01*
X111731000Y-131774000D02*
X114169000Y-131774000D01*
X106811000Y-131774000D02*
X109249000Y-131774000D01*
X111731000Y-131814000D02*
X114206000Y-131814000D01*
X106774000Y-131814000D02*
X109249000Y-131814000D01*
X111731000Y-131854000D02*
X114243000Y-131854000D01*
X106737000Y-131854000D02*
X109249000Y-131854000D01*
X111731000Y-131894000D02*
X114279000Y-131894000D01*
X106701000Y-131894000D02*
X109249000Y-131894000D01*
X111731000Y-131934000D02*
X114314000Y-131934000D01*
X106666000Y-131934000D02*
X109249000Y-131934000D01*
X111731000Y-131974000D02*
X114348000Y-131974000D01*
X106632000Y-131974000D02*
X109249000Y-131974000D01*
X111731000Y-132014000D02*
X114382000Y-132014000D01*
X106598000Y-132014000D02*
X109249000Y-132014000D01*
X111731000Y-132054000D02*
X114415000Y-132054000D01*
X106565000Y-132054000D02*
X109249000Y-132054000D01*
X111731000Y-132094000D02*
X114447000Y-132094000D01*
X106533000Y-132094000D02*
X109249000Y-132094000D01*
X111731000Y-132134000D02*
X114479000Y-132134000D01*
X106501000Y-132134000D02*
X109249000Y-132134000D01*
X111731000Y-132174000D02*
X114510000Y-132174000D01*
X106470000Y-132174000D02*
X109249000Y-132174000D01*
X111731000Y-132214000D02*
X114540000Y-132214000D01*
X106440000Y-132214000D02*
X109249000Y-132214000D01*
X111731000Y-132254000D02*
X114570000Y-132254000D01*
X106410000Y-132254000D02*
X109249000Y-132254000D01*
X111731000Y-132294000D02*
X114600000Y-132294000D01*
X106380000Y-132294000D02*
X109249000Y-132294000D01*
X111731000Y-132334000D02*
X114628000Y-132334000D01*
X106352000Y-132334000D02*
X109249000Y-132334000D01*
X111731000Y-132374000D02*
X114656000Y-132374000D01*
X106324000Y-132374000D02*
X109249000Y-132374000D01*
X111731000Y-132414000D02*
X114684000Y-132414000D01*
X106296000Y-132414000D02*
X109249000Y-132414000D01*
X111731000Y-132454000D02*
X114711000Y-132454000D01*
X106269000Y-132454000D02*
X109249000Y-132454000D01*
X111731000Y-132494000D02*
X114737000Y-132494000D01*
X106243000Y-132494000D02*
X109249000Y-132494000D01*
X111731000Y-132534000D02*
X114763000Y-132534000D01*
X106217000Y-132534000D02*
X109249000Y-132534000D01*
X111731000Y-132574000D02*
X114788000Y-132574000D01*
X106192000Y-132574000D02*
X109249000Y-132574000D01*
X111731000Y-132614000D02*
X114813000Y-132614000D01*
X106167000Y-132614000D02*
X109249000Y-132614000D01*
X111731000Y-132654000D02*
X114837000Y-132654000D01*
X106143000Y-132654000D02*
X109249000Y-132654000D01*
X111731000Y-132694000D02*
X114861000Y-132694000D01*
X106119000Y-132694000D02*
X109249000Y-132694000D01*
X111731000Y-132734000D02*
X114885000Y-132734000D01*
X106095000Y-132734000D02*
X109249000Y-132734000D01*
X111731000Y-132774000D02*
X114907000Y-132774000D01*
X106073000Y-132774000D02*
X109249000Y-132774000D01*
X111731000Y-132814000D02*
X114930000Y-132814000D01*
X106050000Y-132814000D02*
X109249000Y-132814000D01*
X111731000Y-132854000D02*
X114952000Y-132854000D01*
X106028000Y-132854000D02*
X109249000Y-132854000D01*
X111731000Y-132894000D02*
X114973000Y-132894000D01*
X106007000Y-132894000D02*
X109249000Y-132894000D01*
X111731000Y-132934000D02*
X114994000Y-132934000D01*
X105986000Y-132934000D02*
X109249000Y-132934000D01*
X111731000Y-132974000D02*
X115015000Y-132974000D01*
X105965000Y-132974000D02*
X109249000Y-132974000D01*
X111731000Y-133014000D02*
X115035000Y-133014000D01*
X105945000Y-133014000D02*
X109249000Y-133014000D01*
X111731000Y-133054000D02*
X115054000Y-133054000D01*
X105926000Y-133054000D02*
X109249000Y-133054000D01*
X111731000Y-133094000D02*
X115074000Y-133094000D01*
X105906000Y-133094000D02*
X109249000Y-133094000D01*
X111731000Y-133134000D02*
X115093000Y-133134000D01*
X105887000Y-133134000D02*
X109249000Y-133134000D01*
X111731000Y-133174000D02*
X115111000Y-133174000D01*
X105869000Y-133174000D02*
X109249000Y-133174000D01*
X111731000Y-133214000D02*
X115129000Y-133214000D01*
X105851000Y-133214000D02*
X109249000Y-133214000D01*
X111731000Y-133254000D02*
X115147000Y-133254000D01*
X105833000Y-133254000D02*
X109249000Y-133254000D01*
X111731000Y-133294000D02*
X115164000Y-133294000D01*
X105816000Y-133294000D02*
X109249000Y-133294000D01*
X111731000Y-133334000D02*
X115180000Y-133334000D01*
X105800000Y-133334000D02*
X109249000Y-133334000D01*
X111731000Y-133374000D02*
X115197000Y-133374000D01*
X105783000Y-133374000D02*
X109249000Y-133374000D01*
X111731000Y-133414000D02*
X115213000Y-133414000D01*
X105767000Y-133414000D02*
X109249000Y-133414000D01*
X111731000Y-133454000D02*
X115228000Y-133454000D01*
X105752000Y-133454000D02*
X109249000Y-133454000D01*
X111731000Y-133494000D02*
X115244000Y-133494000D01*
X105736000Y-133494000D02*
X109249000Y-133494000D01*
X111731000Y-133534000D02*
X115258000Y-133534000D01*
X105722000Y-133534000D02*
X109249000Y-133534000D01*
X111731000Y-133574000D02*
X115273000Y-133574000D01*
X105707000Y-133574000D02*
X109249000Y-133574000D01*
X111731000Y-133614000D02*
X115287000Y-133614000D01*
X105693000Y-133614000D02*
X109249000Y-133614000D01*
X111731000Y-133654000D02*
X115301000Y-133654000D01*
X105679000Y-133654000D02*
X109249000Y-133654000D01*
X111731000Y-133694000D02*
X115314000Y-133694000D01*
X105666000Y-133694000D02*
X109249000Y-133694000D01*
X111731000Y-133734000D02*
X115327000Y-133734000D01*
X105653000Y-133734000D02*
X109249000Y-133734000D01*
X111731000Y-133774000D02*
X115340000Y-133774000D01*
X105640000Y-133774000D02*
X109249000Y-133774000D01*
X111731000Y-133814000D02*
X115352000Y-133814000D01*
X105628000Y-133814000D02*
X109249000Y-133814000D01*
X111731000Y-133854000D02*
X115364000Y-133854000D01*
X105616000Y-133854000D02*
X109249000Y-133854000D01*
X111731000Y-133894000D02*
X115375000Y-133894000D01*
X105605000Y-133894000D02*
X109249000Y-133894000D01*
X111731000Y-133934000D02*
X115387000Y-133934000D01*
X105593000Y-133934000D02*
X109249000Y-133934000D01*
X111731000Y-133974000D02*
X115397000Y-133974000D01*
X105583000Y-133974000D02*
X109249000Y-133974000D01*
X111731000Y-134014000D02*
X115408000Y-134014000D01*
X105572000Y-134014000D02*
X109249000Y-134014000D01*
X105562000Y-134054000D02*
X115418000Y-134054000D01*
X105552000Y-134094000D02*
X115428000Y-134094000D01*
X105543000Y-134134000D02*
X115437000Y-134134000D01*
X105534000Y-134174000D02*
X115446000Y-134174000D01*
X105525000Y-134214000D02*
X115455000Y-134214000D01*
X105516000Y-134254000D02*
X115464000Y-134254000D01*
X105508000Y-134294000D02*
X115472000Y-134294000D01*
X105500000Y-134334000D02*
X115480000Y-134334000D01*
X105493000Y-134374000D02*
X115487000Y-134374000D01*
X105486000Y-134414000D02*
X115494000Y-134414000D01*
X105479000Y-134454000D02*
X115501000Y-134454000D01*
X105472000Y-134494000D02*
X115508000Y-134494000D01*
X105466000Y-134534000D02*
X115514000Y-134534000D01*
X105460000Y-134574000D02*
X115520000Y-134574000D01*
X105455000Y-134615000D02*
X115525000Y-134615000D01*
X105450000Y-134655000D02*
X115530000Y-134655000D01*
X105445000Y-134695000D02*
X115535000Y-134695000D01*
X105440000Y-134735000D02*
X115540000Y-134735000D01*
X105436000Y-134775000D02*
X115544000Y-134775000D01*
X105432000Y-134815000D02*
X115548000Y-134815000D01*
X105428000Y-134855000D02*
X115552000Y-134855000D01*
X105425000Y-134895000D02*
X115555000Y-134895000D01*
X105422000Y-134935000D02*
X115558000Y-134935000D01*
X105420000Y-134975000D02*
X115560000Y-134975000D01*
X105417000Y-135015000D02*
X115563000Y-135015000D01*
X105415000Y-135055000D02*
X115565000Y-135055000D01*
X105413000Y-135095000D02*
X115567000Y-135095000D01*
X105412000Y-135135000D02*
X115568000Y-135135000D01*
X105411000Y-135175000D02*
X115569000Y-135175000D01*
X105410000Y-135215000D02*
X115570000Y-135215000D01*
X105410000Y-135255000D02*
X115570000Y-135255000D01*
X105410000Y-135295000D02*
X115570000Y-135295000D01*
X115610000Y-135295000D02*
G75*
G03X115610000Y-135295000I-5120000J0D01*
G01*
X96115000Y-156060000D02*
X96115000Y-153820000D01*
X103355000Y-156060000D02*
X103355000Y-153820000D01*
X103355000Y-153820000D02*
X96115000Y-153820000D01*
X103355000Y-156060000D02*
X96115000Y-156060000D01*
X93830000Y-151535000D02*
X91590000Y-151535000D01*
X93830000Y-144295000D02*
X91590000Y-144295000D01*
X91590000Y-144295000D02*
X91590000Y-151535000D01*
X93830000Y-144295000D02*
X93830000Y-151535000D01*
D10*
X95972380Y-148716904D02*
X96781904Y-148716904D01*
X96877142Y-148669285D01*
X96924761Y-148621666D01*
X96972380Y-148526428D01*
X96972380Y-148335952D01*
X96924761Y-148240714D01*
X96877142Y-148193095D01*
X96781904Y-148145476D01*
X95972380Y-148145476D01*
X96972380Y-147145476D02*
X96972380Y-147716904D01*
X96972380Y-147431190D02*
X95972380Y-147431190D01*
X96115238Y-147526428D01*
X96210476Y-147621666D01*
X96258095Y-147716904D01*
X107148333Y-158567380D02*
X106815000Y-158091190D01*
X106576904Y-158567380D02*
X106576904Y-157567380D01*
X106957857Y-157567380D01*
X107053095Y-157615000D01*
X107100714Y-157662619D01*
X107148333Y-157757857D01*
X107148333Y-157900714D01*
X107100714Y-157995952D01*
X107053095Y-158043571D01*
X106957857Y-158091190D01*
X106576904Y-158091190D01*
X107481666Y-157567380D02*
X108100714Y-157567380D01*
X107767380Y-157948333D01*
X107910238Y-157948333D01*
X108005476Y-157995952D01*
X108053095Y-158043571D01*
X108100714Y-158138809D01*
X108100714Y-158376904D01*
X108053095Y-158472142D01*
X108005476Y-158519761D01*
X107910238Y-158567380D01*
X107624523Y-158567380D01*
X107529285Y-158519761D01*
X107481666Y-158472142D01*
X107148333Y-161742380D02*
X106815000Y-161266190D01*
X106576904Y-161742380D02*
X106576904Y-160742380D01*
X106957857Y-160742380D01*
X107053095Y-160790000D01*
X107100714Y-160837619D01*
X107148333Y-160932857D01*
X107148333Y-161075714D01*
X107100714Y-161170952D01*
X107053095Y-161218571D01*
X106957857Y-161266190D01*
X106576904Y-161266190D01*
X107529285Y-160837619D02*
X107576904Y-160790000D01*
X107672142Y-160742380D01*
X107910238Y-160742380D01*
X108005476Y-160790000D01*
X108053095Y-160837619D01*
X108100714Y-160932857D01*
X108100714Y-161028095D01*
X108053095Y-161170952D01*
X107481666Y-161742380D01*
X108100714Y-161742380D01*
X92543333Y-140787380D02*
X92210000Y-140311190D01*
X91971904Y-140787380D02*
X91971904Y-139787380D01*
X92352857Y-139787380D01*
X92448095Y-139835000D01*
X92495714Y-139882619D01*
X92543333Y-139977857D01*
X92543333Y-140120714D01*
X92495714Y-140215952D01*
X92448095Y-140263571D01*
X92352857Y-140311190D01*
X91971904Y-140311190D01*
X93495714Y-140787380D02*
X92924285Y-140787380D01*
X93210000Y-140787380D02*
X93210000Y-139787380D01*
X93114761Y-139930238D01*
X93019523Y-140025476D01*
X92924285Y-140073095D01*
X109037380Y-156313095D02*
X108037380Y-156313095D01*
X108037380Y-156075000D01*
X108085000Y-155932142D01*
X108180238Y-155836904D01*
X108275476Y-155789285D01*
X108465952Y-155741666D01*
X108608809Y-155741666D01*
X108799285Y-155789285D01*
X108894523Y-155836904D01*
X108989761Y-155932142D01*
X109037380Y-156075000D01*
X109037380Y-156313095D01*
X109037380Y-154789285D02*
X109037380Y-155360714D01*
X109037380Y-155075000D02*
X108037380Y-155075000D01*
X108180238Y-155170238D01*
X108275476Y-155265476D01*
X108323095Y-155360714D01*
X107037380Y-153296904D02*
X106037380Y-153296904D01*
X107037380Y-152725476D02*
X106465952Y-153154047D01*
X106037380Y-152725476D02*
X106608809Y-153296904D01*
X104073333Y-138152142D02*
X104025714Y-138199761D01*
X103882857Y-138247380D01*
X103787619Y-138247380D01*
X103644761Y-138199761D01*
X103549523Y-138104523D01*
X103501904Y-138009285D01*
X103454285Y-137818809D01*
X103454285Y-137675952D01*
X103501904Y-137485476D01*
X103549523Y-137390238D01*
X103644761Y-137295000D01*
X103787619Y-137247380D01*
X103882857Y-137247380D01*
X104025714Y-137295000D01*
X104073333Y-137342619D01*
X104930476Y-137580714D02*
X104930476Y-138247380D01*
X104692380Y-137199761D02*
X104454285Y-137914047D01*
X105073333Y-137914047D01*
X104608333Y-155297142D02*
X104560714Y-155344761D01*
X104417857Y-155392380D01*
X104322619Y-155392380D01*
X104179761Y-155344761D01*
X104084523Y-155249523D01*
X104036904Y-155154285D01*
X103989285Y-154963809D01*
X103989285Y-154820952D01*
X104036904Y-154630476D01*
X104084523Y-154535238D01*
X104179761Y-154440000D01*
X104322619Y-154392380D01*
X104417857Y-154392380D01*
X104560714Y-154440000D01*
X104608333Y-154487619D01*
X104941666Y-154392380D02*
X105560714Y-154392380D01*
X105227380Y-154773333D01*
X105370238Y-154773333D01*
X105465476Y-154820952D01*
X105513095Y-154868571D01*
X105560714Y-154963809D01*
X105560714Y-155201904D01*
X105513095Y-155297142D01*
X105465476Y-155344761D01*
X105370238Y-155392380D01*
X105084523Y-155392380D01*
X104989285Y-155344761D01*
X104941666Y-155297142D01*
X93067142Y-153201666D02*
X93114761Y-153249285D01*
X93162380Y-153392142D01*
X93162380Y-153487380D01*
X93114761Y-153630238D01*
X93019523Y-153725476D01*
X92924285Y-153773095D01*
X92733809Y-153820714D01*
X92590952Y-153820714D01*
X92400476Y-153773095D01*
X92305238Y-153725476D01*
X92210000Y-153630238D01*
X92162380Y-153487380D01*
X92162380Y-153392142D01*
X92210000Y-153249285D01*
X92257619Y-153201666D01*
X93162380Y-152249285D02*
X93162380Y-152820714D01*
X93162380Y-152535000D02*
X92162380Y-152535000D01*
X92305238Y-152630238D01*
X92400476Y-152725476D01*
X92448095Y-152820714D01*
M02*
